digraph  {
	"frozenset({'(on a e)', '(on b a)', '(ontable e)', '(clear c)', '(holding d)', '(on c b)'})"	 [id=35];
	"frozenset({'(on a e)', '(on b a)', '(ontable e)', '(ontable d)', '(handempty)', '(clear c)', '(clear d)', '(on c b)'})"	 [id=33];
	"frozenset({'(on a e)', '(on b a)', '(ontable e)', '(clear c)', '(holding d)', '(on c b)'})" -> "frozenset({'(on a e)', '(on b a)', '(ontable e)', '(ontable d)', '(handempty)', '(clear c)', '(clear d)', '(on c b)'})" [key=0,
	action="(put-down d)
  PRE: (holding d)
  ADD: (ontable d)
  ADD: (clear d)
  ADD: (handempty)
  DEL: (holding d)
"];
"frozenset({'(clear d)', '(on a e)', '(on b a)', '(ontable e)', '(handempty)', '(on d c)', '(on c b)'})" [id=36];
"frozenset({'(on a e)', '(on b a)', '(ontable e)', '(clear c)', '(holding d)', '(on c b)'})" -> "frozenset({'(clear d)', '(on a e)', '(on b a)', '(ontable e)', '(handempty)', '(on d c)', '(on c b)'})" [key=0,
action="(stack d c)
  PRE: (clear c)
  PRE: (holding d)
  ADD: (clear d)
  ADD: (handempty)
  ADD: (on d c)
  DEL: (clear c)
  DEL: (holding \
d)
"];
"frozenset({'(on a d)', '(clear e)', '(on b a)', '(ontable d)', '(handempty)', '(clear c)', '(ontable c)', '(on e b)'})" [id=14];
"frozenset({'(clear d)', '(on a e)', '(on b a)', '(holding c)', '(ontable e)', '(clear b)', '(ontable d)'})" [id=31];
"frozenset({'(clear d)', '(on a e)', '(on b a)', '(holding c)', '(ontable e)', '(clear b)', '(ontable d)'})" -> "frozenset({'(on a e)', '(on b a)', '(ontable e)', '(ontable d)', '(handempty)', '(clear c)', '(clear d)', '(on c b)'})" [key=0,
action="(stack c b)
  PRE: (clear b)
  PRE: (holding c)
  ADD: (handempty)
  ADD: (clear c)
  ADD: (on c b)
  DEL: (clear b)
  DEL: (holding \
c)
"];
"frozenset({'(clear d)', '(on a e)', '(on b a)', '(ontable e)', '(clear b)', '(handempty)', '(clear c)', '(ontable c)', '(ontable \
d)'})" [id=28];
"frozenset({'(clear d)', '(on a e)', '(on b a)', '(holding c)', '(ontable e)', '(clear b)', '(ontable d)'})" -> "frozenset({'(clear d)', '(on a e)', '(on b a)', '(ontable e)', '(clear b)', '(handempty)', '(clear c)', '(ontable c)', '(ontable \
d)'})" [key=0,
action="(put-down c)
  PRE: (holding c)
  ADD: (handempty)
  ADD: (clear c)
  ADD: (ontable c)
  DEL: (holding c)
"];
"frozenset({'(on a e)', '(on b a)', '(on c d)', '(ontable e)', '(ontable d)', '(handempty)', '(clear c)', '(clear b)'})" [id=34];
"frozenset({'(clear d)', '(on a e)', '(on b a)', '(holding c)', '(ontable e)', '(clear b)', '(ontable d)'})" -> "frozenset({'(on a e)', '(on b a)', '(on c d)', '(ontable e)', '(ontable d)', '(handempty)', '(clear c)', '(clear b)'})" [key=0,
action="(stack c d)
  PRE: (clear d)
  PRE: (holding c)
  ADD: (handempty)
  ADD: (clear c)
  ADD: (on c d)
  DEL: (clear d)
  DEL: (holding \
c)
"];
"frozenset({'(on a d)', '(holding b)', '(clear a)', '(ontable e)', '(clear c)', '(on c e)', '(ontable d)'})" [id=10];
"frozenset({'(on a d)', '(clear a)', '(ontable d)', '(ontable e)', '(handempty)', '(on c e)', '(on b c)', '(clear b)'})" [id=13];
"frozenset({'(on a d)', '(holding b)', '(clear a)', '(ontable e)', '(clear c)', '(on c e)', '(ontable d)'})" -> "frozenset({'(on a d)', '(clear a)', '(ontable d)', '(ontable e)', '(handempty)', '(on c e)', '(on b c)', '(clear b)'})" [key=0,
action="(stack b c)
  PRE: (holding b)
  PRE: (clear c)
  ADD: (on b c)
  ADD: (clear b)
  ADD: (handempty)
  DEL: (holding b)
  DEL: (clear \
c)
"];
"frozenset({'(on a d)', '(ontable b)', '(clear a)', '(ontable e)', '(ontable d)', '(clear b)', '(handempty)', '(clear c)', '(on c \
e)'})" [id=12];
"frozenset({'(on a d)', '(holding b)', '(clear a)', '(ontable e)', '(clear c)', '(on c e)', '(ontable d)'})" -> "frozenset({'(on a d)', '(ontable b)', '(clear a)', '(ontable e)', '(ontable d)', '(clear b)', '(handempty)', '(clear c)', '(on c \
e)'})" [key=0,
action="(put-down b)
  PRE: (holding b)
  ADD: (clear b)
  ADD: (handempty)
  ADD: (ontable b)
  DEL: (holding b)
"];
"frozenset({'(on a d)', '(on b a)', '(ontable d)', '(ontable e)', '(handempty)', '(clear c)', '(on c e)', '(clear b)'})" [id=5];
"frozenset({'(on a d)', '(holding b)', '(clear a)', '(ontable e)', '(clear c)', '(on c e)', '(ontable d)'})" -> "frozenset({'(on a d)', '(on b a)', '(ontable d)', '(ontable e)', '(handempty)', '(clear c)', '(on c e)', '(clear b)'})" [key=0,
action="(stack b a)
  PRE: (holding b)
  PRE: (clear a)
  ADD: (clear b)
  ADD: (handempty)
  ADD: (on b a)
  DEL: (holding b)
  DEL: (clear \
a)
"];
"frozenset({'(on a e)', '(on b a)', '(ontable e)', '(holding d)', '(clear b)', '(clear c)', '(ontable c)'})" [id=32];
"frozenset({'(on a d)', '(clear e)', '(on b a)', '(ontable d)', '(on e c)', '(handempty)', '(on c b)'})" [id=11];
"frozenset({'(on a d)', '(holding e)', '(on b a)', '(ontable d)', '(clear c)', '(on c b)'})" [id=6];
"frozenset({'(on a d)', '(clear e)', '(on b a)', '(ontable d)', '(on e c)', '(handempty)', '(on c b)'})" -> "frozenset({'(on a d)', '(holding e)', '(on b a)', '(ontable d)', '(clear c)', '(on c b)'})" [key=0,
action="(unstack e c)
  PRE: (on e c)
  PRE: (clear e)
  PRE: (handempty)
  ADD: (holding e)
  ADD: (clear c)
  DEL: (on e c)
  DEL: (clear \
e)
  DEL: (handempty)
"];
"frozenset({'(on a e)', '(on b a)', '(ontable e)', '(ontable d)', '(handempty)', '(clear c)', '(clear d)', '(on c b)'})" -> "frozenset({'(on a e)', '(on b a)', '(ontable e)', '(clear c)', '(holding d)', '(on c b)'})" [key=0,
action="(pick-up d)
  PRE: (ontable d)
  PRE: (clear d)
  PRE: (handempty)
  ADD: (holding d)
  DEL: (ontable d)
  DEL: (clear d)
  DEL: (\
handempty)
"];
"frozenset({'(on a e)', '(on b a)', '(ontable e)', '(ontable d)', '(handempty)', '(clear c)', '(clear d)', '(on c b)'})" -> "frozenset({'(clear d)', '(on a e)', '(on b a)', '(holding c)', '(ontable e)', '(clear b)', '(ontable d)'})" [key=0,
action="(unstack c b)
  PRE: (handempty)
  PRE: (clear c)
  PRE: (on c b)
  ADD: (clear b)
  ADD: (holding c)
  DEL: (handempty)
  DEL: (\
clear c)
  DEL: (on c b)
"];
"frozenset({'(on a e)', '(clear a)', '(ontable b)', '(ontable e)', '(holding d)', '(clear b)', '(clear c)', '(ontable c)'})" [id=27];
"frozenset({'(on a d)', '(holding e)', '(on b a)', '(ontable d)', '(clear b)', '(clear c)', '(ontable c)'})" [id=2];
"frozenset({'(on a d)', '(holding e)', '(on b a)', '(ontable d)', '(clear b)', '(clear c)', '(ontable c)'})" -> "frozenset({'(on a d)', '(clear e)', '(on b a)', '(ontable d)', '(handempty)', '(clear c)', '(ontable c)', '(on e b)'})" [key=0,
action="(stack e b)
  PRE: (clear b)
  PRE: (holding e)
  ADD: (clear e)
  ADD: (handempty)
  ADD: (on e b)
  DEL: (clear b)
  DEL: (holding \
e)
"];
"frozenset({'(on a d)', '(clear e)', '(on b a)', '(ontable d)', '(handempty)', '(ontable c)', '(on e c)', '(clear b)'})" [id=15];
"frozenset({'(on a d)', '(holding e)', '(on b a)', '(ontable d)', '(clear b)', '(clear c)', '(ontable c)'})" -> "frozenset({'(on a d)', '(clear e)', '(on b a)', '(ontable d)', '(handempty)', '(ontable c)', '(on e c)', '(clear b)'})" [key=0,
action="(stack e c)
  PRE: (holding e)
  PRE: (clear c)
  ADD: (on e c)
  ADD: (clear e)
  ADD: (handempty)
  DEL: (holding e)
  DEL: (clear \
c)
"];
"frozenset({'(on a d)', '(holding e)', '(on b a)', '(ontable d)', '(clear b)', '(clear c)', '(ontable c)'})" -> "frozenset({'(on a d)', '(clear e)', '(on b a)', '(ontable e)', '(ontable d)', '(clear b)', '(handempty)', '(clear c)', '(ontable \
c)'})" [key=0,
action="(put-down e)
  PRE: (holding e)
  ADD: (ontable e)
  ADD: (clear e)
  ADD: (handempty)
  DEL: (holding e)
"];
"frozenset({'(holding a)', '(clear d)', '(clear e)', '(ontable b)', '(ontable e)', '(clear b)', '(clear c)', '(ontable c)', '(ontable \
d)'})" [id=18];
"frozenset({'(clear e)', '(clear a)', '(ontable b)', '(ontable e)', '(ontable d)', '(handempty)', '(clear c)', '(ontable c)', '(clear \
d)', '(clear b)', '(ontable a)'})" [id=21];
"frozenset({'(holding a)', '(clear d)', '(clear e)', '(ontable b)', '(ontable e)', '(clear b)', '(clear c)', '(ontable c)', '(ontable \
d)'})" -> "frozenset({'(clear e)', '(clear a)', '(ontable b)', '(ontable e)', '(ontable d)', '(handempty)', '(clear c)', '(ontable c)', '(clear \
d)', '(clear b)', '(ontable a)'})" [key=0,
action="(put-down a)
  PRE: (holding a)
  ADD: (handempty)
  ADD: (clear a)
  ADD: (ontable a)
  DEL: (holding a)
"];
"frozenset({'(clear d)', '(on a e)', '(clear a)', '(ontable b)', '(ontable e)', '(clear b)', '(handempty)', '(clear c)', '(ontable \
c)', '(ontable d)'})" [id=24];
"frozenset({'(holding a)', '(clear d)', '(clear e)', '(ontable b)', '(ontable e)', '(clear b)', '(clear c)', '(ontable c)', '(ontable \
d)'})" -> "frozenset({'(clear d)', '(on a e)', '(clear a)', '(ontable b)', '(ontable e)', '(clear b)', '(handempty)', '(clear c)', '(ontable \
c)', '(ontable d)'})" [key=0,
action="(stack a e)
  PRE: (holding a)
  PRE: (clear e)
  ADD: (on a e)
  ADD: (handempty)
  ADD: (clear a)
  DEL: (holding a)
  DEL: (clear \
e)
"];
"frozenset({'(clear d)', '(clear e)', '(clear a)', '(ontable b)', '(ontable e)', '(on a c)', '(clear b)', '(handempty)', '(ontable \
c)', '(ontable d)'})" [id=23];
"frozenset({'(holding a)', '(clear d)', '(clear e)', '(ontable b)', '(ontable e)', '(clear b)', '(clear c)', '(ontable c)', '(ontable \
d)'})" -> "frozenset({'(clear d)', '(clear e)', '(clear a)', '(ontable b)', '(ontable e)', '(on a c)', '(clear b)', '(handempty)', '(ontable \
c)', '(ontable d)'})" [key=0,
action="(stack a c)
  PRE: (holding a)
  PRE: (clear c)
  ADD: (on a c)
  ADD: (handempty)
  ADD: (clear a)
  DEL: (holding a)
  DEL: (clear \
c)
"];
"frozenset({'(on a d)', '(clear e)', '(clear a)', '(ontable b)', '(ontable e)', '(clear b)', '(handempty)', '(clear c)', '(ontable \
c)', '(ontable d)'})" [id=7];
"frozenset({'(holding a)', '(clear d)', '(clear e)', '(ontable b)', '(ontable e)', '(clear b)', '(clear c)', '(ontable c)', '(ontable \
d)'})" -> "frozenset({'(on a d)', '(clear e)', '(clear a)', '(ontable b)', '(ontable e)', '(clear b)', '(handempty)', '(clear c)', '(ontable \
c)', '(ontable d)'})" [key=0,
action="(stack a d)
  PRE: (holding a)
  PRE: (clear d)
  ADD: (on a d)
  ADD: (handempty)
  ADD: (clear a)
  DEL: (holding a)
  DEL: (clear \
d)
"];
"frozenset({'(clear d)', '(on a b)', '(clear e)', '(clear a)', '(ontable b)', '(ontable e)', '(handempty)', '(clear c)', '(ontable \
c)', '(ontable d)'})" [id=22];
"frozenset({'(holding a)', '(clear d)', '(clear e)', '(ontable b)', '(ontable e)', '(clear b)', '(clear c)', '(ontable c)', '(ontable \
d)'})" -> "frozenset({'(clear d)', '(on a b)', '(clear e)', '(clear a)', '(ontable b)', '(ontable e)', '(handempty)', '(clear c)', '(ontable \
c)', '(ontable d)'})" [key=0,
action="(stack a b)
  PRE: (holding a)
  PRE: (clear b)
  ADD: (handempty)
  ADD: (clear a)
  ADD: (on a b)
  DEL: (holding a)
  DEL: (clear \
b)
"];
"frozenset({'(clear d)', '(on a e)', '(on b a)', '(ontable e)', '(clear b)', '(handempty)', '(clear c)', '(ontable c)', '(ontable \
d)'})" -> "frozenset({'(clear d)', '(on a e)', '(on b a)', '(holding c)', '(ontable e)', '(clear b)', '(ontable d)'})" [key=0,
action="(pick-up c)
  PRE: (handempty)
  PRE: (clear c)
  PRE: (ontable c)
  ADD: (holding c)
  DEL: (handempty)
  DEL: (clear c)
  DEL: (\
ontable c)
"];
"frozenset({'(clear d)', '(on a e)', '(on b a)', '(ontable e)', '(clear b)', '(handempty)', '(clear c)', '(ontable c)', '(ontable \
d)'})" -> "frozenset({'(on a e)', '(on b a)', '(ontable e)', '(holding d)', '(clear b)', '(clear c)', '(ontable c)'})" [key=0,
action="(pick-up d)
  PRE: (ontable d)
  PRE: (clear d)
  PRE: (handempty)
  ADD: (holding d)
  DEL: (ontable d)
  DEL: (clear d)
  DEL: (\
handempty)
"];
"frozenset({'(clear d)', '(on a e)', '(holding b)', '(clear a)', '(ontable e)', '(clear c)', '(ontable c)', '(ontable d)'})" [id=25];
"frozenset({'(clear d)', '(on a e)', '(on b a)', '(ontable e)', '(clear b)', '(handempty)', '(clear c)', '(ontable c)', '(ontable \
d)'})" -> "frozenset({'(clear d)', '(on a e)', '(holding b)', '(clear a)', '(ontable e)', '(clear c)', '(ontable c)', '(ontable d)'})" [key=0,
action="(unstack b a)
  PRE: (clear b)
  PRE: (handempty)
  PRE: (on b a)
  ADD: (holding b)
  ADD: (clear a)
  DEL: (clear b)
  DEL: (handempty)
  \
DEL: (on b a)
"];
"frozenset({'(on a d)', '(clear e)', '(on b a)', '(ontable d)', '(ontable e)', '(handempty)', '(clear c)', '(ontable c)', '(clear \
b)'})" [id=0];
"frozenset({'(on a d)', '(clear e)', '(on b a)', '(ontable d)', '(ontable e)', '(handempty)', '(clear c)', '(ontable c)', '(clear \
b)'})" -> "frozenset({'(on a d)', '(holding e)', '(on b a)', '(ontable d)', '(clear b)', '(clear c)', '(ontable c)'})" [key=0,
action="(pick-up e)
  PRE: (ontable e)
  PRE: (clear e)
  PRE: (handempty)
  ADD: (holding e)
  DEL: (ontable e)
  DEL: (clear e)
  DEL: (\
handempty)
"];
"frozenset({'(on a d)', '(clear e)', '(on b a)', '(holding c)', '(ontable e)', '(clear b)', '(ontable d)'})" [id=1];
"frozenset({'(on a d)', '(clear e)', '(on b a)', '(ontable d)', '(ontable e)', '(handempty)', '(clear c)', '(ontable c)', '(clear \
b)'})" -> "frozenset({'(on a d)', '(clear e)', '(on b a)', '(holding c)', '(ontable e)', '(clear b)', '(ontable d)'})" [key=0,
action="(pick-up c)
  PRE: (handempty)
  PRE: (clear c)
  PRE: (ontable c)
  ADD: (holding c)
  DEL: (handempty)
  DEL: (clear c)
  DEL: (\
ontable c)
"];
"frozenset({'(on a d)', '(clear e)', '(holding b)', '(clear a)', '(ontable e)', '(clear c)', '(ontable c)', '(ontable d)'})" [id=3];
"frozenset({'(on a d)', '(clear e)', '(on b a)', '(ontable d)', '(ontable e)', '(handempty)', '(clear c)', '(ontable c)', '(clear \
b)'})" -> "frozenset({'(on a d)', '(clear e)', '(holding b)', '(clear a)', '(ontable e)', '(clear c)', '(ontable c)', '(ontable d)'})" [key=0,
action="(unstack b a)
  PRE: (clear b)
  PRE: (handempty)
  PRE: (on b a)
  ADD: (holding b)
  ADD: (clear a)
  DEL: (clear b)
  DEL: (handempty)
  \
DEL: (on b a)
"];
"frozenset({'(on a d)', '(clear e)', '(on b a)', '(ontable d)', '(ontable e)', '(handempty)', '(clear c)', '(on c b)'})" [id=4];
"frozenset({'(on a d)', '(clear e)', '(on b a)', '(holding c)', '(ontable e)', '(clear b)', '(ontable d)'})" -> "frozenset({'(on a d)', '(clear e)', '(on b a)', '(ontable d)', '(ontable e)', '(handempty)', '(clear c)', '(on c b)'})" [key=0,
action="(stack c b)
  PRE: (clear b)
  PRE: (holding c)
  ADD: (handempty)
  ADD: (clear c)
  ADD: (on c b)
  DEL: (clear b)
  DEL: (holding \
c)
"];
"frozenset({'(on a d)', '(clear e)', '(on b a)', '(holding c)', '(ontable e)', '(clear b)', '(ontable d)'})" -> "frozenset({'(on a d)', '(on b a)', '(ontable d)', '(ontable e)', '(handempty)', '(clear c)', '(on c e)', '(clear b)'})" [key=0,
action="(stack c e)
  PRE: (clear e)
  PRE: (holding c)
  ADD: (handempty)
  ADD: (clear c)
  ADD: (on c e)
  DEL: (clear e)
  DEL: (holding \
c)
"];
"frozenset({'(on a d)', '(clear e)', '(on b a)', '(holding c)', '(ontable e)', '(clear b)', '(ontable d)'})" -> "frozenset({'(on a d)', '(clear e)', '(on b a)', '(ontable e)', '(ontable d)', '(clear b)', '(handempty)', '(clear c)', '(ontable \
c)'})" [key=0,
action="(put-down c)
  PRE: (holding c)
  ADD: (handempty)
  ADD: (clear c)
  ADD: (ontable c)
  DEL: (holding c)
"];
"frozenset({'(on a d)', '(holding e)', '(on b a)', '(ontable d)', '(clear c)', '(on c b)'})" -> "frozenset({'(on a d)', '(clear e)', '(on b a)', '(ontable d)', '(on e c)', '(handempty)', '(on c b)'})" [key=0,
action="(stack e c)
  PRE: (holding e)
  PRE: (clear c)
  ADD: (on e c)
  ADD: (clear e)
  ADD: (handempty)
  DEL: (holding e)
  DEL: (clear \
c)
"];
"frozenset({'(on a d)', '(holding e)', '(on b a)', '(ontable d)', '(clear c)', '(on c b)'})" -> "frozenset({'(on a d)', '(clear e)', '(on b a)', '(ontable d)', '(ontable e)', '(handempty)', '(clear c)', '(on c b)'})" [key=0,
action="(put-down e)
  PRE: (holding e)
  ADD: (ontable e)
  ADD: (clear e)
  ADD: (handempty)
  DEL: (holding e)
"];
"frozenset({'(on a d)', '(clear e)', '(holding c)', '(clear a)', '(ontable b)', '(ontable e)', '(clear b)', '(ontable d)'})" [id=16];
"frozenset({'(on a d)', '(on c a)', '(clear e)', '(ontable b)', '(ontable e)', '(clear b)', '(handempty)', '(clear c)', '(ontable \
d)'})" [id=19];
"frozenset({'(on a d)', '(clear e)', '(holding c)', '(clear a)', '(ontable b)', '(ontable e)', '(clear b)', '(ontable d)'})" -> "frozenset({'(on a d)', '(on c a)', '(clear e)', '(ontable b)', '(ontable e)', '(clear b)', '(handempty)', '(clear c)', '(ontable \
d)'})" [key=0,
action="(stack c a)
  PRE: (clear a)
  PRE: (holding c)
  ADD: (on c a)
  ADD: (handempty)
  ADD: (clear c)
  DEL: (clear a)
  DEL: (holding \
c)
"];
"frozenset({'(on a d)', '(clear e)', '(on c b)', '(clear a)', '(ontable b)', '(ontable e)', '(handempty)', '(clear c)', '(ontable \
d)'})" [id=20];
"frozenset({'(on a d)', '(clear e)', '(holding c)', '(clear a)', '(ontable b)', '(ontable e)', '(clear b)', '(ontable d)'})" -> "frozenset({'(on a d)', '(clear e)', '(on c b)', '(clear a)', '(ontable b)', '(ontable e)', '(handempty)', '(clear c)', '(ontable \
d)'})" [key=0,
action="(stack c b)
  PRE: (clear b)
  PRE: (holding c)
  ADD: (handempty)
  ADD: (clear c)
  ADD: (on c b)
  DEL: (clear b)
  DEL: (holding \
c)
"];
"frozenset({'(on a d)', '(clear e)', '(holding c)', '(clear a)', '(ontable b)', '(ontable e)', '(clear b)', '(ontable d)'})" -> "frozenset({'(on a d)', '(clear e)', '(clear a)', '(ontable b)', '(ontable e)', '(clear b)', '(handempty)', '(clear c)', '(ontable \
c)', '(ontable d)'})" [key=0,
action="(put-down c)
  PRE: (holding c)
  ADD: (handempty)
  ADD: (clear c)
  ADD: (ontable c)
  DEL: (holding c)
"];
"frozenset({'(on a d)', '(clear e)', '(holding c)', '(clear a)', '(ontable b)', '(ontable e)', '(clear b)', '(ontable d)'})" -> "frozenset({'(on a d)', '(clear a)', '(ontable b)', '(ontable e)', '(clear b)', '(handempty)', '(clear c)', '(on c e)', '(ontable \
d)'})" [key=0,
action="(stack c e)
  PRE: (clear e)
  PRE: (holding c)
  ADD: (handempty)
  ADD: (clear c)
  ADD: (on c e)
  DEL: (clear e)
  DEL: (holding \
c)
"];
"frozenset({'(on a d)', '(clear a)', '(ontable e)', '(ontable d)', '(on b e)', '(clear b)', '(handempty)', '(clear c)', '(ontable \
c)'})" [id=9];
"frozenset({'(on a d)', '(clear e)', '(on b a)', '(ontable d)', '(ontable e)', '(handempty)', '(clear c)', '(on c b)'})" -> "frozenset({'(on a d)', '(clear e)', '(on b a)', '(holding c)', '(ontable e)', '(clear b)', '(ontable d)'})" [key=0,
action="(unstack c b)
  PRE: (handempty)
  PRE: (clear c)
  PRE: (on c b)
  ADD: (clear b)
  ADD: (holding c)
  DEL: (handempty)
  DEL: (\
clear c)
  DEL: (on c b)
"];
"frozenset({'(on a d)', '(clear e)', '(on b a)', '(ontable d)', '(ontable e)', '(handempty)', '(clear c)', '(on c b)'})" -> "frozenset({'(on a d)', '(holding e)', '(on b a)', '(ontable d)', '(clear c)', '(on c b)'})" [key=0,
action="(pick-up e)
  PRE: (ontable e)
  PRE: (clear e)
  PRE: (handempty)
  ADD: (holding e)
  DEL: (ontable e)
  DEL: (clear e)
  DEL: (\
handempty)
"];
"frozenset({'(on a d)', '(on b c)', '(clear e)', '(clear a)', '(ontable e)', '(ontable d)', '(clear b)', '(handempty)', '(ontable \
c)'})" [id=8];
"frozenset({'(on a d)', '(clear e)', '(holding b)', '(clear a)', '(ontable e)', '(clear c)', '(ontable c)', '(ontable d)'})" -> "frozenset({'(on a d)', '(clear a)', '(ontable e)', '(ontable d)', '(on b e)', '(clear b)', '(handempty)', '(clear c)', '(ontable \
c)'})" [key=0,
action="(stack b e)
  PRE: (clear e)
  PRE: (holding b)
  ADD: (on b e)
  ADD: (clear b)
  ADD: (handempty)
  DEL: (clear e)
  DEL: (holding \
b)
"];
"frozenset({'(on a d)', '(clear e)', '(holding b)', '(clear a)', '(ontable e)', '(clear c)', '(ontable c)', '(ontable d)'})" -> "frozenset({'(on a d)', '(on b c)', '(clear e)', '(clear a)', '(ontable e)', '(ontable d)', '(clear b)', '(handempty)', '(ontable \
c)'})" [key=0,
action="(stack b c)
  PRE: (holding b)
  PRE: (clear c)
  ADD: (on b c)
  ADD: (clear b)
  ADD: (handempty)
  DEL: (holding b)
  DEL: (clear \
c)
"];
"frozenset({'(on a d)', '(clear e)', '(holding b)', '(clear a)', '(ontable e)', '(clear c)', '(ontable c)', '(ontable d)'})" -> "frozenset({'(on a d)', '(clear e)', '(clear a)', '(ontable b)', '(ontable e)', '(clear b)', '(handempty)', '(clear c)', '(ontable \
c)', '(ontable d)'})" [key=0,
action="(put-down b)
  PRE: (holding b)
  ADD: (clear b)
  ADD: (handempty)
  ADD: (ontable b)
  DEL: (holding b)
"];
"frozenset({'(on a d)', '(clear e)', '(holding b)', '(clear a)', '(ontable e)', '(clear c)', '(ontable c)', '(ontable d)'})" -> "frozenset({'(on a d)', '(clear e)', '(on b a)', '(ontable e)', '(ontable d)', '(clear b)', '(handempty)', '(clear c)', '(ontable \
c)'})" [key=0,
action="(stack b a)
  PRE: (holding b)
  PRE: (clear a)
  ADD: (clear b)
  ADD: (handempty)
  ADD: (on b a)
  DEL: (holding b)
  DEL: (clear \
a)
"];
"frozenset({'(clear d)', '(on a e)', '(clear a)', '(ontable b)', '(ontable e)', '(clear b)', '(handempty)', '(clear c)', '(ontable \
c)', '(ontable d)'})" -> "frozenset({'(on a e)', '(clear a)', '(ontable b)', '(ontable e)', '(holding d)', '(clear b)', '(clear c)', '(ontable c)'})" [key=0,
action="(pick-up d)
  PRE: (ontable d)
  PRE: (clear d)
  PRE: (handempty)
  ADD: (holding d)
  DEL: (ontable d)
  DEL: (clear d)
  DEL: (\
handempty)
"];
"frozenset({'(clear d)', '(on a e)', '(clear a)', '(ontable b)', '(ontable e)', '(clear b)', '(handempty)', '(clear c)', '(ontable \
c)', '(ontable d)'})" -> "frozenset({'(holding a)', '(clear d)', '(clear e)', '(ontable b)', '(ontable e)', '(clear b)', '(clear c)', '(ontable c)', '(ontable \
d)'})" [key=0,
action="(unstack a e)
  PRE: (on a e)
  PRE: (handempty)
  PRE: (clear a)
  ADD: (holding a)
  ADD: (clear e)
  DEL: (on a e)
  DEL: (handempty)
  \
DEL: (clear a)
"];
"frozenset({'(clear d)', '(on a e)', '(clear a)', '(ontable b)', '(ontable e)', '(clear b)', '(handempty)', '(clear c)', '(ontable \
c)', '(ontable d)'})" -> "frozenset({'(clear d)', '(on a e)', '(holding b)', '(clear a)', '(ontable e)', '(clear c)', '(ontable c)', '(ontable d)'})" [key=0,
action="(pick-up b)
  PRE: (clear b)
  PRE: (handempty)
  PRE: (ontable b)
  ADD: (holding b)
  DEL: (clear b)
  DEL: (handempty)
  DEL: (\
ontable b)
"];
"frozenset({'(clear d)', '(on a e)', '(holding c)', '(clear a)', '(ontable b)', '(ontable e)', '(clear b)', '(ontable d)'})" [id=26];
"frozenset({'(clear d)', '(on a e)', '(clear a)', '(ontable b)', '(ontable e)', '(clear b)', '(handempty)', '(clear c)', '(ontable \
c)', '(ontable d)'})" -> "frozenset({'(clear d)', '(on a e)', '(holding c)', '(clear a)', '(ontable b)', '(ontable e)', '(clear b)', '(ontable d)'})" [key=0,
action="(pick-up c)
  PRE: (handempty)
  PRE: (clear c)
  PRE: (ontable c)
  ADD: (holding c)
  DEL: (handempty)
  DEL: (clear c)
  DEL: (\
ontable c)
"];
"frozenset({'(clear d)', '(on a e)', '(on b c)', '(clear a)', '(ontable e)', '(clear b)', '(handempty)', '(ontable c)', '(ontable \
d)'})" [id=29];
"frozenset({'(on a d)', '(holding e)', '(clear a)', '(ontable b)', '(ontable d)', '(clear b)', '(clear c)', '(ontable c)'})" [id=17];
"frozenset({'(clear d)', '(on a e)', '(holding b)', '(clear a)', '(ontable e)', '(clear c)', '(ontable c)', '(ontable d)'})" -> "frozenset({'(clear d)', '(on a e)', '(on b a)', '(ontable e)', '(clear b)', '(handempty)', '(clear c)', '(ontable c)', '(ontable \
d)'})" [key=0,
action="(stack b a)
  PRE: (holding b)
  PRE: (clear a)
  ADD: (clear b)
  ADD: (handempty)
  ADD: (on b a)
  DEL: (holding b)
  DEL: (clear \
a)
"];
"frozenset({'(clear d)', '(on a e)', '(holding b)', '(clear a)', '(ontable e)', '(clear c)', '(ontable c)', '(ontable d)'})" -> "frozenset({'(clear d)', '(on a e)', '(clear a)', '(ontable b)', '(ontable e)', '(clear b)', '(handempty)', '(clear c)', '(ontable \
c)', '(ontable d)'})" [key=0,
action="(put-down b)
  PRE: (holding b)
  ADD: (clear b)
  ADD: (handempty)
  ADD: (ontable b)
  DEL: (holding b)
"];
"frozenset({'(clear d)', '(on a e)', '(holding b)', '(clear a)', '(ontable e)', '(clear c)', '(ontable c)', '(ontable d)'})" -> "frozenset({'(clear d)', '(on a e)', '(on b c)', '(clear a)', '(ontable e)', '(clear b)', '(handempty)', '(ontable c)', '(ontable \
d)'})" [key=0,
action="(stack b c)
  PRE: (holding b)
  PRE: (clear c)
  ADD: (on b c)
  ADD: (clear b)
  ADD: (handempty)
  DEL: (holding b)
  DEL: (clear \
c)
"];
"frozenset({'(on b d)', '(on a e)', '(clear a)', '(ontable e)', '(clear b)', '(handempty)', '(clear c)', '(ontable c)', '(ontable \
d)'})" [id=30];
"frozenset({'(clear d)', '(on a e)', '(holding b)', '(clear a)', '(ontable e)', '(clear c)', '(ontable c)', '(ontable d)'})" -> "frozenset({'(on b d)', '(on a e)', '(clear a)', '(ontable e)', '(clear b)', '(handempty)', '(clear c)', '(ontable c)', '(ontable \
d)'})" [key=0,
action="(stack b d)
  PRE: (clear d)
  PRE: (holding b)
  ADD: (on b d)
  ADD: (clear b)
  ADD: (handempty)
  DEL: (clear d)
  DEL: (holding \
b)
"];
"frozenset({'(on a d)', '(clear e)', '(clear a)', '(ontable b)', '(ontable e)', '(clear b)', '(handempty)', '(clear c)', '(ontable \
c)', '(ontable d)'})" -> "frozenset({'(holding a)', '(clear d)', '(clear e)', '(ontable b)', '(ontable e)', '(clear b)', '(clear c)', '(ontable c)', '(ontable \
d)'})" [key=0,
action="(unstack a d)
  PRE: (on a d)
  PRE: (handempty)
  PRE: (clear a)
  ADD: (holding a)
  ADD: (clear d)
  DEL: (on a d)
  DEL: (handempty)
  \
DEL: (clear a)
"];
"frozenset({'(on a d)', '(clear e)', '(clear a)', '(ontable b)', '(ontable e)', '(clear b)', '(handempty)', '(clear c)', '(ontable \
c)', '(ontable d)'})" -> "frozenset({'(on a d)', '(clear e)', '(holding c)', '(clear a)', '(ontable b)', '(ontable e)', '(clear b)', '(ontable d)'})" [key=0,
action="(pick-up c)
  PRE: (handempty)
  PRE: (clear c)
  PRE: (ontable c)
  ADD: (holding c)
  DEL: (handempty)
  DEL: (clear c)
  DEL: (\
ontable c)
"];
"frozenset({'(on a d)', '(clear e)', '(clear a)', '(ontable b)', '(ontable e)', '(clear b)', '(handempty)', '(clear c)', '(ontable \
c)', '(ontable d)'})" -> "frozenset({'(on a d)', '(clear e)', '(holding b)', '(clear a)', '(ontable e)', '(clear c)', '(ontable c)', '(ontable d)'})" [key=0,
action="(pick-up b)
  PRE: (clear b)
  PRE: (handempty)
  PRE: (ontable b)
  ADD: (holding b)
  DEL: (clear b)
  DEL: (handempty)
  DEL: (\
ontable b)
"];
"frozenset({'(on a d)', '(clear e)', '(clear a)', '(ontable b)', '(ontable e)', '(clear b)', '(handempty)', '(clear c)', '(ontable \
c)', '(ontable d)'})" -> "frozenset({'(on a d)', '(holding e)', '(clear a)', '(ontable b)', '(ontable d)', '(clear b)', '(clear c)', '(ontable c)'})" [key=0,
action="(pick-up e)
  PRE: (ontable e)
  PRE: (clear e)
  PRE: (handempty)
  ADD: (holding e)
  DEL: (ontable e)
  DEL: (clear e)
  DEL: (\
handempty)
"];
"frozenset({'(on a d)', '(on b a)', '(ontable d)', '(ontable e)', '(handempty)', '(clear c)', '(on c e)', '(clear b)'})" -> "frozenset({'(on a d)', '(holding b)', '(clear a)', '(ontable e)', '(clear c)', '(on c e)', '(ontable d)'})" [key=0,
action="(unstack b a)
  PRE: (clear b)
  PRE: (handempty)
  PRE: (on b a)
  ADD: (holding b)
  ADD: (clear a)
  DEL: (clear b)
  DEL: (handempty)
  \
DEL: (on b a)
"];
"frozenset({'(on a d)', '(on b a)', '(ontable d)', '(ontable e)', '(handempty)', '(clear c)', '(on c e)', '(clear b)'})" -> "frozenset({'(on a d)', '(clear e)', '(on b a)', '(holding c)', '(ontable e)', '(clear b)', '(ontable d)'})" [key=0,
action="(unstack c e)
  PRE: (handempty)
  PRE: (clear c)
  PRE: (on c e)
  ADD: (clear e)
  ADD: (holding c)
  DEL: (handempty)
  DEL: (\
clear c)
  DEL: (on c e)
"];
}
