digraph  {
	"frozenset({'(on e b)', '(ontable d)', '(on b a)', '(ontable c)', '(clear c)', '(clear e)', '(handempty)', '(on a d)'})"	 [id=15];
	"frozenset({'(clear c)', '(ontable d)', '(on c e)', '(ontable e)', '(holding b)', '(on a d)', '(clear a)'})"	 [id=10];
	"frozenset({'(clear b)', '(clear c)', '(ontable d)', '(ontable b)', '(on c e)', '(ontable e)', '(on a d)', '(clear a)', '(handempty)'})"	 [id=12];
	"frozenset({'(clear c)', '(ontable d)', '(on c e)', '(ontable e)', '(holding b)', '(on a d)', '(clear a)'})" -> "frozenset({'(clear b)', '(clear c)', '(ontable d)', '(ontable b)', '(on c e)', '(ontable e)', '(on a d)', '(clear a)', '(handempty)'})" [key=0,
	action="(put-down b)
  PRE: (holding b)
  ADD: (handempty)
  ADD: (clear b)
  ADD: (ontable b)
  DEL: (holding b)
"];
"frozenset({'(on b c)', '(ontable d)', '(on c e)', '(clear a)', '(clear b)', '(handempty)', '(ontable e)', '(on a d)'})" [id=13];
"frozenset({'(clear c)', '(ontable d)', '(on c e)', '(ontable e)', '(holding b)', '(on a d)', '(clear a)'})" -> "frozenset({'(on b c)', '(ontable d)', '(on c e)', '(clear a)', '(clear b)', '(handempty)', '(ontable e)', '(on a d)'})" [key=0,
action="(stack b c)
  PRE: (holding b)
  PRE: (clear c)
  ADD: (on b c)
  ADD: (clear b)
  ADD: (handempty)
  DEL: (holding b)
  DEL: (clear \
c)
"];
"frozenset({'(ontable d)', '(on c e)', '(on b a)', '(clear b)', '(clear c)', '(handempty)', '(ontable e)', '(on a d)'})" [id=4];
"frozenset({'(clear c)', '(ontable d)', '(on c e)', '(ontable e)', '(holding b)', '(on a d)', '(clear a)'})" -> "frozenset({'(ontable d)', '(on c e)', '(on b a)', '(clear b)', '(clear c)', '(handempty)', '(ontable e)', '(on a d)'})" [key=0,
action="(stack b a)
  PRE: (holding b)
  PRE: (clear a)
  ADD: (handempty)
  ADD: (on b a)
  ADD: (clear b)
  DEL: (holding b)
  DEL: (clear \
a)
"];
"frozenset({'(ontable b)', '(ontable d)', '(clear e)', '(handempty)', '(clear c)', '(ontable e)', '(on c b)', '(on a d)', '(clear \
a)'})" [id=20];
"frozenset({'(on b a)', '(clear e)', '(on c b)', '(ontable d)', '(on e c)', '(handempty)', '(on a d)'})" [id=11];
"frozenset({'(on b a)', '(clear e)', '(on c b)', '(ontable d)', '(on e c)', '(handempty)', '(on a d)'})" -> "frozenset({'(on b a)', '(on c b)', '(ontable d)', '(clear c)', '(on a d)', '(holding e)'})" [key=0,
action="(unstack e c)
  PRE: (handempty)
  PRE: (on e c)
  PRE: (clear e)
  ADD: (clear c)
  ADD: (holding e)
  DEL: (handempty)
  DEL: (\
on e c)
  DEL: (clear e)
"];
"frozenset({'(ontable d)', '(on b a)', '(clear b)', '(ontable c)', '(clear c)', '(clear e)', '(handempty)', '(ontable e)', '(on a \
d)'})" [id=0];
"frozenset({'(ontable c)', '(clear c)', '(ontable d)', '(clear e)', '(ontable e)', '(holding b)', '(on a d)', '(clear a)'})" [id=3];
"frozenset({'(ontable d)', '(on b a)', '(clear b)', '(ontable c)', '(clear c)', '(clear e)', '(handempty)', '(ontable e)', '(on a \
d)'})" -> "frozenset({'(ontable c)', '(clear c)', '(ontable d)', '(clear e)', '(ontable e)', '(holding b)', '(on a d)', '(clear a)'})" [key=0,
action="(unstack b a)
  PRE: (handempty)
  PRE: (on b a)
  PRE: (clear b)
  ADD: (holding b)
  ADD: (clear a)
  DEL: (handempty)
  DEL: (\
on b a)
  DEL: (clear b)
"];
"frozenset({'(on b a)', '(clear b)', '(ontable c)', '(clear c)', '(ontable d)', '(on a d)', '(holding e)'})" [id=1];
"frozenset({'(ontable d)', '(on b a)', '(clear b)', '(ontable c)', '(clear c)', '(clear e)', '(handempty)', '(ontable e)', '(on a \
d)'})" -> "frozenset({'(on b a)', '(clear b)', '(ontable c)', '(clear c)', '(ontable d)', '(on a d)', '(holding e)'})" [key=0,
action="(pick-up e)
  PRE: (handempty)
  PRE: (ontable e)
  PRE: (clear e)
  ADD: (holding e)
  DEL: (handempty)
  DEL: (ontable e)
  DEL: (\
clear e)
"];
"frozenset({'(on b a)', '(clear b)', '(ontable d)', '(clear e)', '(ontable e)', '(holding c)', '(on a d)'})" [id=2];
"frozenset({'(ontable d)', '(on b a)', '(clear b)', '(ontable c)', '(clear c)', '(clear e)', '(handempty)', '(ontable e)', '(on a \
d)'})" -> "frozenset({'(on b a)', '(clear b)', '(ontable d)', '(clear e)', '(ontable e)', '(holding c)', '(on a d)'})" [key=0,
action="(pick-up c)
  PRE: (handempty)
  PRE: (ontable c)
  PRE: (clear c)
  ADD: (holding c)
  DEL: (handempty)
  DEL: (ontable c)
  DEL: (\
clear c)
"];
"frozenset({'(clear b)', '(ontable b)', '(ontable d)', '(clear e)', '(ontable e)', '(holding c)', '(on a d)', '(clear a)'})" [id=17];
"frozenset({'(clear b)', '(ontable b)', '(ontable d)', '(clear e)', '(ontable e)', '(holding c)', '(on a d)', '(clear a)'})" -> "frozenset({'(ontable b)', '(ontable d)', '(clear e)', '(handempty)', '(clear c)', '(ontable e)', '(on c b)', '(on a d)', '(clear \
a)'})" [key=0,
action="(stack c b)
  PRE: (clear b)
  PRE: (holding c)
  ADD: (handempty)
  ADD: (clear c)
  ADD: (on c b)
  DEL: (clear b)
  DEL: (holding \
c)
"];
"frozenset({'(clear b)', '(ontable b)', '(ontable d)', '(clear e)', '(handempty)', '(clear c)', '(ontable e)', '(on c a)', '(on a \
d)'})" [id=19];
"frozenset({'(clear b)', '(ontable b)', '(ontable d)', '(clear e)', '(ontable e)', '(holding c)', '(on a d)', '(clear a)'})" -> "frozenset({'(clear b)', '(ontable b)', '(ontable d)', '(clear e)', '(handempty)', '(clear c)', '(ontable e)', '(on c a)', '(on a \
d)'})" [key=0,
action="(stack c a)
  PRE: (holding c)
  PRE: (clear a)
  ADD: (handempty)
  ADD: (clear c)
  ADD: (on c a)
  DEL: (holding c)
  DEL: (clear \
a)
"];
"frozenset({'(clear b)', '(ontable b)', '(ontable d)', '(clear e)', '(ontable e)', '(holding c)', '(on a d)', '(clear a)'})" -> "frozenset({'(clear b)', '(ontable c)', '(ontable b)', '(ontable d)', '(clear e)', '(handempty)', '(clear c)', '(ontable e)', '(on \
a d)', '(clear a)'})" [key=0,
action="(put-down c)
  PRE: (holding c)
  ADD: (handempty)
  ADD: (ontable c)
  ADD: (clear c)
  DEL: (holding c)
"];
"frozenset({'(clear b)', '(ontable b)', '(ontable d)', '(clear e)', '(ontable e)', '(holding c)', '(on a d)', '(clear a)'})" -> "frozenset({'(clear b)', '(ontable b)', '(ontable d)', '(clear c)', '(on c e)', '(ontable e)', '(on a d)', '(clear a)', '(handempty)'})" [key=0,
action="(stack c e)
  PRE: (holding c)
  PRE: (clear e)
  ADD: (on c e)
  ADD: (clear c)
  ADD: (handempty)
  DEL: (holding c)
  DEL: (clear \
e)
"];
"frozenset({'(ontable c)', '(clear c)', '(on a e)', '(ontable b)', '(handempty)', '(clear d)', '(ontable e)', '(clear a)', '(on d \
b)'})" [id=30];
"frozenset({'(on b a)', '(clear b)', '(clear d)', '(on a e)', '(ontable d)', '(ontable e)', '(holding c)'})" [id=38];
"frozenset({'(ontable d)', '(on a e)', '(on c d)', '(on b a)', '(clear b)', '(clear c)', '(handempty)', '(ontable e)'})" [id=41];
"frozenset({'(on b a)', '(clear b)', '(clear d)', '(on a e)', '(ontable d)', '(ontable e)', '(holding c)'})" -> "frozenset({'(ontable d)', '(on a e)', '(on c d)', '(on b a)', '(clear b)', '(clear c)', '(handempty)', '(ontable e)'})" [key=0,
action="(stack c d)
  PRE: (holding c)
  PRE: (clear d)
  ADD: (handempty)
  ADD: (clear c)
  ADD: (on c d)
  DEL: (holding c)
  DEL: (clear \
d)
"];
"frozenset({'(ontable d)', '(on a e)', '(on b a)', '(clear d)', '(clear c)', '(on c b)', '(handempty)', '(ontable e)'})" [id=42];
"frozenset({'(on b a)', '(clear b)', '(clear d)', '(on a e)', '(ontable d)', '(ontable e)', '(holding c)'})" -> "frozenset({'(ontable d)', '(on a e)', '(on b a)', '(clear d)', '(clear c)', '(on c b)', '(handempty)', '(ontable e)'})" [key=0,
action="(stack c b)
  PRE: (clear b)
  PRE: (holding c)
  ADD: (handempty)
  ADD: (clear c)
  ADD: (on c b)
  DEL: (clear b)
  DEL: (holding \
c)
"];
"frozenset({'(on b a)', '(clear b)', '(clear d)', '(on a e)', '(ontable d)', '(ontable e)', '(holding c)'})" -> "frozenset({'(on b a)', '(clear b)', '(ontable c)', '(clear d)', '(ontable d)', '(on a e)', '(handempty)', '(clear c)', '(ontable \
e)'})" [key=0,
action="(put-down c)
  PRE: (holding c)
  ADD: (handempty)
  ADD: (ontable c)
  ADD: (clear c)
  DEL: (holding c)
"];
"frozenset({'(clear b)', '(ontable c)', '(ontable b)', '(ontable d)', '(clear c)', '(on a d)', '(clear a)', '(holding e)'})" [id=16];
"frozenset({'(on d c)', '(on a e)', '(on b a)', '(clear b)', '(ontable c)', '(clear d)', '(handempty)', '(ontable e)'})" [id=39];
"frozenset({'(on b c)', '(ontable c)', '(clear b)', '(ontable d)', '(clear e)', '(handempty)', '(ontable e)', '(on a d)', '(clear \
a)'})" [id=9];
"frozenset({'(ontable c)', '(clear c)', '(ontable d)', '(clear e)', '(ontable e)', '(holding b)', '(on a d)', '(clear a)'})" -> "frozenset({'(on b c)', '(ontable c)', '(clear b)', '(ontable d)', '(clear e)', '(handempty)', '(ontable e)', '(on a d)', '(clear \
a)'})" [key=0,
action="(stack b c)
  PRE: (holding b)
  PRE: (clear c)
  ADD: (on b c)
  ADD: (clear b)
  ADD: (handempty)
  DEL: (holding b)
  DEL: (clear \
c)
"];
"frozenset({'(ontable c)', '(clear b)', '(clear c)', '(ontable d)', '(clear e)', '(handempty)', '(ontable b)', '(ontable e)', '(on \
a d)', '(clear a)'})" [id=7];
"frozenset({'(ontable c)', '(clear c)', '(ontable d)', '(clear e)', '(ontable e)', '(holding b)', '(on a d)', '(clear a)'})" -> "frozenset({'(ontable c)', '(clear b)', '(clear c)', '(ontable d)', '(clear e)', '(handempty)', '(ontable b)', '(ontable e)', '(on \
a d)', '(clear a)'})" [key=0,
action="(put-down b)
  PRE: (holding b)
  ADD: (handempty)
  ADD: (clear b)
  ADD: (ontable b)
  DEL: (holding b)
"];
"frozenset({'(on b e)', '(ontable c)', '(clear b)', '(clear c)', '(ontable d)', '(handempty)', '(ontable e)', '(on a d)', '(clear \
a)'})" [id=8];
"frozenset({'(ontable c)', '(clear c)', '(ontable d)', '(clear e)', '(ontable e)', '(holding b)', '(on a d)', '(clear a)'})" -> "frozenset({'(on b e)', '(ontable c)', '(clear b)', '(clear c)', '(ontable d)', '(handempty)', '(ontable e)', '(on a d)', '(clear \
a)'})" [key=0,
action="(stack b e)
  PRE: (holding b)
  PRE: (clear e)
  ADD: (on b e)
  ADD: (clear b)
  ADD: (handempty)
  DEL: (holding b)
  DEL: (clear \
e)
"];
"frozenset({'(ontable c)', '(clear c)', '(ontable d)', '(clear e)', '(ontable e)', '(holding b)', '(on a d)', '(clear a)'})" -> "frozenset({'(on b a)', '(ontable c)', '(clear b)', '(clear c)', '(ontable d)', '(clear e)', '(handempty)', '(ontable e)', '(on a \
d)'})" [key=0,
action="(stack b a)
  PRE: (holding b)
  PRE: (clear a)
  ADD: (handempty)
  ADD: (on b a)
  ADD: (clear b)
  DEL: (holding b)
  DEL: (clear \
a)
"];
"frozenset({'(clear e)', '(ontable c)', '(clear b)', '(clear d)', '(ontable d)', '(ontable b)', '(handempty)', '(on a c)', '(ontable \
e)', '(clear a)'})" [id=23];
"frozenset({'(on b a)', '(clear b)', '(ontable c)', '(clear c)', '(ontable d)', '(on a d)', '(holding e)'})" -> "frozenset({'(on e b)', '(ontable d)', '(on b a)', '(ontable c)', '(clear c)', '(clear e)', '(handempty)', '(on a d)'})" [key=0,
action="(stack e b)
  PRE: (clear b)
  PRE: (holding e)
  ADD: (handempty)
  ADD: (on e b)
  ADD: (clear e)
  DEL: (clear b)
  DEL: (holding \
e)
"];
"frozenset({'(ontable d)', '(on b a)', '(clear b)', '(ontable c)', '(on e c)', '(clear e)', '(handempty)', '(on a d)'})" [id=14];
"frozenset({'(on b a)', '(clear b)', '(ontable c)', '(clear c)', '(ontable d)', '(on a d)', '(holding e)'})" -> "frozenset({'(ontable d)', '(on b a)', '(clear b)', '(ontable c)', '(on e c)', '(clear e)', '(handempty)', '(on a d)'})" [key=0,
action="(stack e c)
  PRE: (clear c)
  PRE: (holding e)
  ADD: (handempty)
  ADD: (on e c)
  ADD: (clear e)
  DEL: (clear c)
  DEL: (holding \
e)
"];
"frozenset({'(on b a)', '(clear b)', '(ontable c)', '(clear c)', '(ontable d)', '(on a d)', '(holding e)'})" -> "frozenset({'(on b a)', '(clear b)', '(ontable c)', '(clear c)', '(ontable d)', '(clear e)', '(handempty)', '(ontable e)', '(on a \
d)'})" [key=0,
action="(put-down e)
  PRE: (holding e)
  ADD: (handempty)
  ADD: (ontable e)
  ADD: (clear e)
  DEL: (holding e)
"];
"frozenset({'(on d c)', '(on b a)', '(on c b)', '(on a e)', '(clear d)', '(handempty)', '(ontable e)'})" [id=44];
"frozenset({'(on b a)', '(on c b)', '(clear c)', '(ontable d)', '(on a d)', '(holding e)'})" [id=6];
"frozenset({'(on b a)', '(on c b)', '(clear c)', '(ontable d)', '(on a d)', '(holding e)'})" -> "frozenset({'(on b a)', '(clear e)', '(on c b)', '(ontable d)', '(on e c)', '(handempty)', '(on a d)'})" [key=0,
action="(stack e c)
  PRE: (clear c)
  PRE: (holding e)
  ADD: (handempty)
  ADD: (on e c)
  ADD: (clear e)
  DEL: (clear c)
  DEL: (holding \
e)
"];
"frozenset({'(ontable d)', '(on b a)', '(clear c)', '(on c b)', '(clear e)', '(handempty)', '(ontable e)', '(on a d)'})" [id=5];
"frozenset({'(on b a)', '(on c b)', '(clear c)', '(ontable d)', '(on a d)', '(holding e)'})" -> "frozenset({'(ontable d)', '(on b a)', '(clear c)', '(on c b)', '(clear e)', '(handempty)', '(ontable e)', '(on a d)'})" [key=0,
action="(put-down e)
  PRE: (holding e)
  ADD: (handempty)
  ADD: (ontable e)
  ADD: (clear e)
  DEL: (holding e)
"];
"frozenset({'(on b a)', '(on c b)', '(clear c)', '(on a e)', '(ontable e)', '(holding d)'})" [id=43];
"frozenset({'(on b a)', '(on c b)', '(clear c)', '(on a e)', '(ontable e)', '(holding d)'})" -> "frozenset({'(on d c)', '(on b a)', '(on c b)', '(on a e)', '(clear d)', '(handempty)', '(ontable e)'})" [key=0,
action="(stack d c)
  PRE: (clear c)
  PRE: (holding d)
  ADD: (handempty)
  ADD: (on d c)
  ADD: (clear d)
  DEL: (clear c)
  DEL: (holding \
d)
"];
"frozenset({'(on b a)', '(on c b)', '(clear c)', '(on a e)', '(ontable e)', '(holding d)'})" -> "frozenset({'(on a e)', '(ontable d)', '(on b a)', '(clear c)', '(on c b)', '(clear d)', '(handempty)', '(ontable e)'})" [key=0,
action="(put-down d)
  PRE: (holding d)
  ADD: (handempty)
  ADD: (clear d)
  ADD: (ontable d)
  DEL: (holding d)
"];
"frozenset({'(on b a)', '(clear b)', '(ontable c)', '(clear c)', '(on a e)', '(ontable e)', '(holding d)'})" [id=37];
"frozenset({'(on b a)', '(clear b)', '(ontable c)', '(clear c)', '(on a e)', '(ontable e)', '(holding d)'})" -> "frozenset({'(on d c)', '(on a e)', '(on b a)', '(clear b)', '(ontable c)', '(clear d)', '(handempty)', '(ontable e)'})" [key=0,
action="(stack d c)
  PRE: (clear c)
  PRE: (holding d)
  ADD: (handempty)
  ADD: (on d c)
  ADD: (clear d)
  DEL: (clear c)
  DEL: (holding \
d)
"];
"frozenset({'(on a e)', '(on b a)', '(ontable c)', '(clear c)', '(clear d)', '(handempty)', '(ontable e)', '(on d b)'})" [id=40];
"frozenset({'(on b a)', '(clear b)', '(ontable c)', '(clear c)', '(on a e)', '(ontable e)', '(holding d)'})" -> "frozenset({'(on a e)', '(on b a)', '(ontable c)', '(clear c)', '(clear d)', '(handempty)', '(ontable e)', '(on d b)'})" [key=0,
action="(stack d b)
  PRE: (clear b)
  PRE: (holding d)
  ADD: (handempty)
  ADD: (clear d)
  ADD: (on d b)
  DEL: (clear b)
  DEL: (holding \
d)
"];
"frozenset({'(on b a)', '(clear b)', '(ontable c)', '(clear c)', '(on a e)', '(ontable e)', '(holding d)'})" -> "frozenset({'(on b a)', '(clear b)', '(ontable c)', '(clear c)', '(on a e)', '(clear d)', '(handempty)', '(ontable d)', '(ontable \
e)'})" [key=0,
action="(put-down d)
  PRE: (holding d)
  ADD: (handempty)
  ADD: (clear d)
  ADD: (ontable d)
  DEL: (holding d)
"];
"frozenset({'(on d c)', '(clear b)', '(ontable c)', '(ontable b)', '(on a e)', '(clear d)', '(handempty)', '(ontable e)', '(clear \
a)'})" [id=29];
"frozenset({'(ontable c)', '(clear d)', '(ontable d)', '(clear e)', '(clear c)', '(ontable b)', '(ontable e)', '(clear a)', '(on \
a b)', '(handempty)'})" [id=24];
"frozenset({'(clear b)', '(ontable b)', '(on a e)', '(ontable d)', '(clear d)', '(ontable e)', '(holding c)', '(clear a)'})" [id=26];
"frozenset({'(ontable b)', '(ontable d)', '(on a e)', '(clear d)', '(clear c)', '(ontable e)', '(on c b)', '(clear a)', '(handempty)'})" [id=33];
"frozenset({'(clear b)', '(ontable b)', '(on a e)', '(ontable d)', '(clear d)', '(ontable e)', '(holding c)', '(clear a)'})" -> "frozenset({'(ontable b)', '(ontable d)', '(on a e)', '(clear d)', '(clear c)', '(ontable e)', '(on c b)', '(clear a)', '(handempty)'})" [key=0,
action="(stack c b)
  PRE: (clear b)
  PRE: (holding c)
  ADD: (handempty)
  ADD: (clear c)
  ADD: (on c b)
  DEL: (clear b)
  DEL: (holding \
c)
"];
"frozenset({'(clear b)', '(ontable b)', '(ontable d)', '(on a e)', '(handempty)', '(clear c)', '(ontable e)', '(clear a)', '(on c \
d)'})" [id=32];
"frozenset({'(clear b)', '(ontable b)', '(on a e)', '(ontable d)', '(clear d)', '(ontable e)', '(holding c)', '(clear a)'})" -> "frozenset({'(clear b)', '(ontable b)', '(ontable d)', '(on a e)', '(handempty)', '(clear c)', '(ontable e)', '(clear a)', '(on c \
d)'})" [key=0,
action="(stack c d)
  PRE: (holding c)
  PRE: (clear d)
  ADD: (handempty)
  ADD: (clear c)
  ADD: (on c d)
  DEL: (holding c)
  DEL: (clear \
d)
"];
"frozenset({'(clear b)', '(ontable b)', '(ontable d)', '(on a e)', '(clear d)', '(clear c)', '(ontable e)', '(on c a)', '(handempty)'})" [id=31];
"frozenset({'(clear b)', '(ontable b)', '(on a e)', '(ontable d)', '(clear d)', '(ontable e)', '(holding c)', '(clear a)'})" -> "frozenset({'(clear b)', '(ontable b)', '(ontable d)', '(on a e)', '(clear d)', '(clear c)', '(ontable e)', '(on c a)', '(handempty)'})" [key=0,
action="(stack c a)
  PRE: (holding c)
  PRE: (clear a)
  ADD: (handempty)
  ADD: (clear c)
  ADD: (on c a)
  DEL: (holding c)
  DEL: (clear \
a)
"];
"frozenset({'(clear b)', '(ontable b)', '(on a e)', '(ontable d)', '(clear d)', '(ontable e)', '(holding c)', '(clear a)'})" -> "frozenset({'(clear b)', '(ontable c)', '(ontable b)', '(on a e)', '(ontable d)', '(clear d)', '(clear c)', '(ontable e)', '(clear \
a)', '(handempty)'})" [key=0,
action="(put-down c)
  PRE: (holding c)
  ADD: (handempty)
  ADD: (ontable c)
  ADD: (clear c)
  DEL: (holding c)
"];
"frozenset({'(clear b)', '(ontable c)', '(ontable b)', '(on a e)', '(clear c)', '(ontable e)', '(clear a)', '(holding d)'})" [id=25];
"frozenset({'(clear b)', '(ontable c)', '(ontable b)', '(on a e)', '(clear c)', '(ontable e)', '(clear a)', '(holding d)'})" -> "frozenset({'(ontable c)', '(clear c)', '(on a e)', '(ontable b)', '(handempty)', '(clear d)', '(ontable e)', '(clear a)', '(on d \
b)'})" [key=0,
action="(stack d b)
  PRE: (clear b)
  PRE: (holding d)
  ADD: (handempty)
  ADD: (clear d)
  ADD: (on d b)
  DEL: (clear b)
  DEL: (holding \
d)
"];
"frozenset({'(clear b)', '(ontable c)', '(ontable b)', '(on a e)', '(clear c)', '(ontable e)', '(clear a)', '(holding d)'})" -> "frozenset({'(on d c)', '(clear b)', '(ontable c)', '(ontable b)', '(on a e)', '(clear d)', '(handempty)', '(ontable e)', '(clear \
a)'})" [key=0,
action="(stack d c)
  PRE: (clear c)
  PRE: (holding d)
  ADD: (handempty)
  ADD: (on d c)
  ADD: (clear d)
  DEL: (clear c)
  DEL: (holding \
d)
"];
"frozenset({'(clear b)', '(ontable c)', '(clear c)', '(on a e)', '(ontable b)', '(handempty)', '(clear d)', '(ontable e)', '(on d \
a)'})" [id=28];
"frozenset({'(clear b)', '(ontable c)', '(ontable b)', '(on a e)', '(clear c)', '(ontable e)', '(clear a)', '(holding d)'})" -> "frozenset({'(clear b)', '(ontable c)', '(clear c)', '(on a e)', '(ontable b)', '(handempty)', '(clear d)', '(ontable e)', '(on d \
a)'})" [key=0,
action="(stack d a)
  PRE: (clear a)
  PRE: (holding d)
  ADD: (handempty)
  ADD: (clear d)
  ADD: (on d a)
  DEL: (clear a)
  DEL: (holding \
d)
"];
"frozenset({'(clear b)', '(ontable c)', '(ontable b)', '(on a e)', '(clear c)', '(ontable e)', '(clear a)', '(holding d)'})" -> "frozenset({'(clear b)', '(ontable c)', '(ontable b)', '(on a e)', '(clear c)', '(handempty)', '(clear d)', '(ontable e)', '(ontable \
d)', '(clear a)'})" [key=0,
action="(put-down d)
  PRE: (holding d)
  ADD: (handempty)
  ADD: (clear d)
  ADD: (ontable d)
  DEL: (holding d)
"];
"frozenset({'(clear e)', '(clear b)', '(ontable c)', '(ontable b)', '(ontable d)', '(clear c)', '(clear d)', '(holding a)', '(ontable \
e)'})" [id=18];
"frozenset({'(clear e)', '(clear b)', '(ontable c)', '(ontable b)', '(ontable d)', '(clear c)', '(clear d)', '(holding a)', '(ontable \
e)'})" -> "frozenset({'(clear e)', '(ontable c)', '(clear b)', '(clear d)', '(ontable d)', '(ontable b)', '(handempty)', '(on a c)', '(ontable \
e)', '(clear a)'})" [key=0,
action="(stack a c)
  PRE: (clear c)
  PRE: (holding a)
  ADD: (handempty)
  ADD: (on a c)
  ADD: (clear a)
  DEL: (clear c)
  DEL: (holding \
a)
"];
"frozenset({'(clear e)', '(clear b)', '(ontable c)', '(ontable b)', '(ontable d)', '(clear c)', '(clear d)', '(holding a)', '(ontable \
e)'})" -> "frozenset({'(ontable c)', '(clear d)', '(ontable d)', '(clear e)', '(clear c)', '(ontable b)', '(ontable e)', '(clear a)', '(on \
a b)', '(handempty)'})" [key=0,
action="(stack a b)
  PRE: (clear b)
  PRE: (holding a)
  ADD: (on a b)
  ADD: (clear a)
  ADD: (handempty)
  DEL: (clear b)
  DEL: (holding \
a)
"];
"frozenset({'(ontable d)', '(clear a)', '(clear b)', '(ontable c)', '(ontable b)', '(clear c)', '(clear e)', '(clear d)', '(ontable \
a)', '(ontable e)', '(handempty)'})" [id=21];
"frozenset({'(clear e)', '(clear b)', '(ontable c)', '(ontable b)', '(ontable d)', '(clear c)', '(clear d)', '(holding a)', '(ontable \
e)'})" -> "frozenset({'(ontable d)', '(clear a)', '(clear b)', '(ontable c)', '(ontable b)', '(clear c)', '(clear e)', '(clear d)', '(ontable \
a)', '(ontable e)', '(handempty)'})" [key=0,
action="(put-down a)
  PRE: (holding a)
  ADD: (handempty)
  ADD: (ontable a)
  ADD: (clear a)
  DEL: (holding a)
"];
"frozenset({'(clear b)', '(ontable c)', '(clear d)', '(ontable d)', '(clear c)', '(ontable b)', '(on a e)', '(ontable e)', '(clear \
a)', '(handempty)'})" [id=22];
"frozenset({'(clear e)', '(clear b)', '(ontable c)', '(ontable b)', '(ontable d)', '(clear c)', '(clear d)', '(holding a)', '(ontable \
e)'})" -> "frozenset({'(clear b)', '(ontable c)', '(clear d)', '(ontable d)', '(clear c)', '(ontable b)', '(on a e)', '(ontable e)', '(clear \
a)', '(handempty)'})" [key=0,
action="(stack a e)
  PRE: (clear e)
  PRE: (holding a)
  ADD: (handempty)
  ADD: (on a e)
  ADD: (clear a)
  DEL: (holding a)
  DEL: (clear \
e)
"];
"frozenset({'(clear e)', '(clear b)', '(ontable c)', '(ontable b)', '(ontable d)', '(clear c)', '(clear d)', '(holding a)', '(ontable \
e)'})" -> "frozenset({'(clear e)', '(ontable c)', '(clear b)', '(clear c)', '(ontable d)', '(ontable b)', '(handempty)', '(ontable e)', '(on \
a d)', '(clear a)'})" [key=0,
action="(stack a d)
  PRE: (clear d)
  PRE: (holding a)
  ADD: (handempty)
  ADD: (on a d)
  ADD: (clear a)
  DEL: (clear d)
  DEL: (holding \
a)
"];
"frozenset({'(ontable c)', '(clear c)', '(on a e)', '(ontable d)', '(clear d)', '(ontable e)', '(holding b)', '(clear a)'})" [id=27];
"frozenset({'(on b d)', '(ontable c)', '(clear b)', '(clear c)', '(ontable d)', '(on a e)', '(handempty)', '(ontable e)', '(clear \
a)'})" [id=35];
"frozenset({'(ontable c)', '(clear c)', '(on a e)', '(ontable d)', '(clear d)', '(ontable e)', '(holding b)', '(clear a)'})" -> "frozenset({'(on b d)', '(ontable c)', '(clear b)', '(clear c)', '(ontable d)', '(on a e)', '(handempty)', '(ontable e)', '(clear \
a)'})" [key=0,
action="(stack b d)
  PRE: (holding b)
  PRE: (clear d)
  ADD: (on b d)
  ADD: (clear b)
  ADD: (handempty)
  DEL: (holding b)
  DEL: (clear \
d)
"];
"frozenset({'(on b c)', '(ontable c)', '(clear b)', '(clear d)', '(ontable d)', '(on a e)', '(handempty)', '(ontable e)', '(clear \
a)'})" [id=36];
"frozenset({'(ontable c)', '(clear c)', '(on a e)', '(ontable d)', '(clear d)', '(ontable e)', '(holding b)', '(clear a)'})" -> "frozenset({'(on b c)', '(ontable c)', '(clear b)', '(clear d)', '(ontable d)', '(on a e)', '(handempty)', '(ontable e)', '(clear \
a)'})" [key=0,
action="(stack b c)
  PRE: (holding b)
  PRE: (clear c)
  ADD: (on b c)
  ADD: (clear b)
  ADD: (handempty)
  DEL: (holding b)
  DEL: (clear \
c)
"];
"frozenset({'(on b a)', '(ontable c)', '(clear b)', '(clear c)', '(ontable d)', '(on a e)', '(clear d)', '(ontable e)', '(handempty)'})" [id=34];
"frozenset({'(ontable c)', '(clear c)', '(on a e)', '(ontable d)', '(clear d)', '(ontable e)', '(holding b)', '(clear a)'})" -> "frozenset({'(on b a)', '(ontable c)', '(clear b)', '(clear c)', '(ontable d)', '(on a e)', '(clear d)', '(ontable e)', '(handempty)'})" [key=0,
action="(stack b a)
  PRE: (holding b)
  PRE: (clear a)
  ADD: (handempty)
  ADD: (on b a)
  ADD: (clear b)
  DEL: (holding b)
  DEL: (clear \
a)
"];
"frozenset({'(ontable c)', '(clear c)', '(on a e)', '(ontable d)', '(clear d)', '(ontable e)', '(holding b)', '(clear a)'})" -> "frozenset({'(ontable c)', '(clear b)', '(clear c)', '(on a e)', '(ontable d)', '(clear d)', '(ontable b)', '(ontable e)', '(clear \
a)', '(handempty)'})" [key=0,
action="(put-down b)
  PRE: (holding b)
  ADD: (handempty)
  ADD: (clear b)
  ADD: (ontable b)
  DEL: (holding b)
"];
"frozenset({'(ontable d)', '(on c e)', '(on b a)', '(clear b)', '(clear c)', '(handempty)', '(ontable e)', '(on a d)'})" -> "frozenset({'(clear c)', '(ontable d)', '(on c e)', '(ontable e)', '(holding b)', '(on a d)', '(clear a)'})" [key=0,
action="(unstack b a)
  PRE: (handempty)
  PRE: (on b a)
  PRE: (clear b)
  ADD: (holding b)
  ADD: (clear a)
  DEL: (handempty)
  DEL: (\
on b a)
  DEL: (clear b)
"];
"frozenset({'(ontable d)', '(on c e)', '(on b a)', '(clear b)', '(clear c)', '(handempty)', '(ontable e)', '(on a d)'})" -> "frozenset({'(on b a)', '(clear b)', '(ontable d)', '(clear e)', '(ontable e)', '(holding c)', '(on a d)'})" [key=0,
action="(unstack c e)
  PRE: (on c e)
  PRE: (clear c)
  PRE: (handempty)
  ADD: (holding c)
  ADD: (clear e)
  DEL: (on c e)
  DEL: (clear \
c)
  DEL: (handempty)
"];
"frozenset({'(ontable c)', '(clear b)', '(clear c)', '(ontable d)', '(clear e)', '(handempty)', '(ontable b)', '(ontable e)', '(on \
a d)', '(clear a)'})" -> "frozenset({'(clear b)', '(ontable b)', '(ontable d)', '(clear e)', '(ontable e)', '(holding c)', '(on a d)', '(clear a)'})" [key=0,
action="(pick-up c)
  PRE: (handempty)
  PRE: (ontable c)
  PRE: (clear c)
  ADD: (holding c)
  DEL: (handempty)
  DEL: (ontable c)
  DEL: (\
clear c)
"];
"frozenset({'(ontable c)', '(clear b)', '(clear c)', '(ontable d)', '(clear e)', '(handempty)', '(ontable b)', '(ontable e)', '(on \
a d)', '(clear a)'})" -> "frozenset({'(clear b)', '(ontable c)', '(ontable b)', '(ontable d)', '(clear c)', '(on a d)', '(clear a)', '(holding e)'})" [key=0,
action="(pick-up e)
  PRE: (handempty)
  PRE: (ontable e)
  PRE: (clear e)
  ADD: (holding e)
  DEL: (handempty)
  DEL: (ontable e)
  DEL: (\
clear e)
"];
"frozenset({'(ontable c)', '(clear b)', '(clear c)', '(ontable d)', '(clear e)', '(handempty)', '(ontable b)', '(ontable e)', '(on \
a d)', '(clear a)'})" -> "frozenset({'(ontable c)', '(clear c)', '(ontable d)', '(clear e)', '(ontable e)', '(holding b)', '(on a d)', '(clear a)'})" [key=0,
action="(pick-up b)
  PRE: (handempty)
  PRE: (clear b)
  PRE: (ontable b)
  ADD: (holding b)
  DEL: (handempty)
  DEL: (clear b)
  DEL: (\
ontable b)
"];
"frozenset({'(ontable c)', '(clear b)', '(clear c)', '(ontable d)', '(clear e)', '(handempty)', '(ontable b)', '(ontable e)', '(on \
a d)', '(clear a)'})" -> "frozenset({'(clear e)', '(clear b)', '(ontable c)', '(ontable b)', '(ontable d)', '(clear c)', '(clear d)', '(holding a)', '(ontable \
e)'})" [key=0,
action="(unstack a d)
  PRE: (handempty)
  PRE: (on a d)
  PRE: (clear a)
  ADD: (clear d)
  ADD: (holding a)
  DEL: (handempty)
  DEL: (\
on a d)
  DEL: (clear a)
"];
"frozenset({'(ontable d)', '(on b a)', '(clear c)', '(on c b)', '(clear e)', '(handempty)', '(ontable e)', '(on a d)'})" -> "frozenset({'(on b a)', '(on c b)', '(clear c)', '(ontable d)', '(on a d)', '(holding e)'})" [key=0,
action="(pick-up e)
  PRE: (handempty)
  PRE: (ontable e)
  PRE: (clear e)
  ADD: (holding e)
  DEL: (handempty)
  DEL: (ontable e)
  DEL: (\
clear e)
"];
"frozenset({'(ontable d)', '(on b a)', '(clear c)', '(on c b)', '(clear e)', '(handempty)', '(ontable e)', '(on a d)'})" -> "frozenset({'(on b a)', '(clear b)', '(ontable d)', '(clear e)', '(ontable e)', '(holding c)', '(on a d)'})" [key=0,
action="(unstack c b)
  PRE: (handempty)
  PRE: (clear c)
  PRE: (on c b)
  ADD: (clear b)
  ADD: (holding c)
  DEL: (handempty)
  DEL: (\
clear c)
  DEL: (on c b)
"];
"frozenset({'(ontable d)', '(on a e)', '(on b a)', '(clear d)', '(clear c)', '(on c b)', '(handempty)', '(ontable e)'})" -> "frozenset({'(on b a)', '(clear b)', '(clear d)', '(on a e)', '(ontable d)', '(ontable e)', '(holding c)'})" [key=0,
action="(unstack c b)
  PRE: (handempty)
  PRE: (clear c)
  PRE: (on c b)
  ADD: (clear b)
  ADD: (holding c)
  DEL: (handempty)
  DEL: (\
clear c)
  DEL: (on c b)
"];
"frozenset({'(ontable d)', '(on a e)', '(on b a)', '(clear d)', '(clear c)', '(on c b)', '(handempty)', '(ontable e)'})" -> "frozenset({'(on b a)', '(on c b)', '(clear c)', '(on a e)', '(ontable e)', '(holding d)'})" [key=0,
action="(pick-up d)
  PRE: (handempty)
  PRE: (clear d)
  PRE: (ontable d)
  ADD: (holding d)
  DEL: (handempty)
  DEL: (clear d)
  DEL: (\
ontable d)
"];
"frozenset({'(on b a)', '(clear b)', '(ontable d)', '(clear e)', '(ontable e)', '(holding c)', '(on a d)'})" -> "frozenset({'(ontable d)', '(on c e)', '(on b a)', '(clear b)', '(clear c)', '(handempty)', '(ontable e)', '(on a d)'})" [key=0,
action="(stack c e)
  PRE: (holding c)
  PRE: (clear e)
  ADD: (on c e)
  ADD: (clear c)
  ADD: (handempty)
  DEL: (holding c)
  DEL: (clear \
e)
"];
"frozenset({'(on b a)', '(clear b)', '(ontable d)', '(clear e)', '(ontable e)', '(holding c)', '(on a d)'})" -> "frozenset({'(ontable d)', '(on b a)', '(clear c)', '(on c b)', '(clear e)', '(handempty)', '(ontable e)', '(on a d)'})" [key=0,
action="(stack c b)
  PRE: (clear b)
  PRE: (holding c)
  ADD: (handempty)
  ADD: (clear c)
  ADD: (on c b)
  DEL: (clear b)
  DEL: (holding \
c)
"];
"frozenset({'(on b a)', '(clear b)', '(ontable d)', '(clear e)', '(ontable e)', '(holding c)', '(on a d)'})" -> "frozenset({'(on b a)', '(clear b)', '(ontable c)', '(clear c)', '(ontable d)', '(clear e)', '(handempty)', '(ontable e)', '(on a \
d)'})" [key=0,
action="(put-down c)
  PRE: (holding c)
  ADD: (handempty)
  ADD: (ontable c)
  ADD: (clear c)
  DEL: (holding c)
"];
"frozenset({'(on b a)', '(ontable c)', '(clear b)', '(clear c)', '(ontable d)', '(on a e)', '(clear d)', '(ontable e)', '(handempty)'})" -> "frozenset({'(on b a)', '(clear b)', '(clear d)', '(on a e)', '(ontable d)', '(ontable e)', '(holding c)'})" [key=0,
action="(pick-up c)
  PRE: (handempty)
  PRE: (ontable c)
  PRE: (clear c)
  ADD: (holding c)
  DEL: (handempty)
  DEL: (ontable c)
  DEL: (\
clear c)
"];
"frozenset({'(on b a)', '(ontable c)', '(clear b)', '(clear c)', '(ontable d)', '(on a e)', '(clear d)', '(ontable e)', '(handempty)'})" -> "frozenset({'(on b a)', '(clear b)', '(ontable c)', '(clear c)', '(on a e)', '(ontable e)', '(holding d)'})" [key=0,
action="(pick-up d)
  PRE: (handempty)
  PRE: (clear d)
  PRE: (ontable d)
  ADD: (holding d)
  DEL: (handempty)
  DEL: (clear d)
  DEL: (\
ontable d)
"];
"frozenset({'(on b a)', '(ontable c)', '(clear b)', '(clear c)', '(ontable d)', '(on a e)', '(clear d)', '(ontable e)', '(handempty)'})" -> "frozenset({'(ontable c)', '(clear c)', '(on a e)', '(ontable d)', '(clear d)', '(ontable e)', '(holding b)', '(clear a)'})" [key=0,
action="(unstack b a)
  PRE: (handempty)
  PRE: (on b a)
  PRE: (clear b)
  ADD: (holding b)
  ADD: (clear a)
  DEL: (handempty)
  DEL: (\
on b a)
  DEL: (clear b)
"];
"frozenset({'(clear b)', '(ontable c)', '(clear d)', '(ontable d)', '(clear c)', '(ontable b)', '(on a e)', '(ontable e)', '(clear \
a)', '(handempty)'})" -> "frozenset({'(clear b)', '(ontable b)', '(on a e)', '(ontable d)', '(clear d)', '(ontable e)', '(holding c)', '(clear a)'})" [key=0,
action="(pick-up c)
  PRE: (handempty)
  PRE: (ontable c)
  PRE: (clear c)
  ADD: (holding c)
  DEL: (handempty)
  DEL: (ontable c)
  DEL: (\
clear c)
"];
"frozenset({'(clear b)', '(ontable c)', '(clear d)', '(ontable d)', '(clear c)', '(ontable b)', '(on a e)', '(ontable e)', '(clear \
a)', '(handempty)'})" -> "frozenset({'(clear b)', '(ontable c)', '(ontable b)', '(on a e)', '(clear c)', '(ontable e)', '(clear a)', '(holding d)'})" [key=0,
action="(pick-up d)
  PRE: (handempty)
  PRE: (clear d)
  PRE: (ontable d)
  ADD: (holding d)
  DEL: (handempty)
  DEL: (clear d)
  DEL: (\
ontable d)
"];
"frozenset({'(clear b)', '(ontable c)', '(clear d)', '(ontable d)', '(clear c)', '(ontable b)', '(on a e)', '(ontable e)', '(clear \
a)', '(handempty)'})" -> "frozenset({'(ontable c)', '(clear c)', '(on a e)', '(ontable d)', '(clear d)', '(ontable e)', '(holding b)', '(clear a)'})" [key=0,
action="(pick-up b)
  PRE: (handempty)
  PRE: (clear b)
  PRE: (ontable b)
  ADD: (holding b)
  DEL: (handempty)
  DEL: (clear b)
  DEL: (\
ontable b)
"];
"frozenset({'(clear b)', '(ontable c)', '(clear d)', '(ontable d)', '(clear c)', '(ontable b)', '(on a e)', '(ontable e)', '(clear \
a)', '(handempty)'})" -> "frozenset({'(clear e)', '(clear b)', '(ontable c)', '(clear c)', '(ontable d)', '(ontable b)', '(clear d)', '(holding a)', '(ontable \
e)'})" [key=0,
action="(unstack a e)
  PRE: (handempty)
  PRE: (clear a)
  PRE: (on a e)
  ADD: (clear e)
  ADD: (holding a)
  DEL: (handempty)
  DEL: (\
on a e)
  DEL: (clear a)
"];
}
