digraph  {
	"frozenset({'(free pos-0-2)', '(free pos-4-6)', '(free pos-4-0)', '(free pos-2-6)', '(free pos-0-4)', '(free pos-6-2)', '(occupied \
pos-3-1)', '(occupied pos-4-4)', '(free pos-6-3)', '(free pos-5-3)', '(free pos-3-5)', '(occupied pos-2-4)', '(free pos-3-2)', '(\
free pos-2-0)', '(free pos-3-0)', '(free pos-4-5)', '(free pos-5-4)', '(occupied pos-4-1)', '(free pos-2-1)', '(free pos-3-6)', '(\
free pos-3-4)', '(free pos-1-2)', '(free pos-0-3)', '(move-ended)', '(free pos-2-3)', '(free pos-1-4)', '(free pos-4-3)', '(occupied \
pos-3-3)', '(occupied pos-2-5)', '(occupied pos-1-3)', '(free pos-5-2)', '(occupied pos-2-2)', '(occupied pos-4-2)', '(free pos-6-4)'})"	 [id=0];
	"frozenset({'(free pos-0-2)', '(free pos-4-5)', '(free pos-4-6)', '(free pos-4-0)', '(free pos-5-4)', '(occupied pos-4-1)', '(free \
pos-2-1)', '(free pos-3-6)', '(free pos-3-4)', '(free pos-0-4)', '(free pos-1-2)', '(free pos-0-3)', '(free pos-2-5)', '(free pos-2-3)', '(\
free pos-2-4)', '(free pos-6-2)', '(occupied pos-3-1)', '(last-visited pos-2-6)', '(occupied pos-4-4)', '(free pos-1-4)', '(free \
pos-4-3)', '(occupied pos-2-6)', '(free pos-6-3)', '(free pos-5-3)', '(free pos-3-5)', '(occupied pos-3-3)', '(occupied pos-1-3)', '(\
free pos-3-2)', '(free pos-5-2)', '(occupied pos-2-2)', '(occupied pos-4-2)', '(free pos-6-4)', '(free pos-2-0)', '(free pos-3-0)'})"	 [id=1];
	"frozenset({'(free pos-0-2)', '(free pos-4-6)', '(free pos-4-0)', '(free pos-2-6)', '(free pos-0-4)', '(free pos-6-2)', '(occupied \
pos-3-1)', '(occupied pos-4-4)', '(free pos-6-3)', '(free pos-5-3)', '(free pos-3-5)', '(occupied pos-2-4)', '(free pos-3-2)', '(\
free pos-2-0)', '(free pos-3-0)', '(free pos-4-5)', '(free pos-5-4)', '(occupied pos-4-1)', '(free pos-2-1)', '(free pos-3-6)', '(\
free pos-3-4)', '(free pos-1-2)', '(free pos-0-3)', '(move-ended)', '(free pos-2-3)', '(free pos-1-4)', '(free pos-4-3)', '(occupied \
pos-3-3)', '(occupied pos-2-5)', '(occupied pos-1-3)', '(free pos-5-2)', '(occupied pos-2-2)', '(occupied pos-4-2)', '(free pos-6-4)'})" -> "frozenset({'(free pos-0-2)', '(free pos-4-5)', '(free pos-4-6)', '(free pos-4-0)', '(free pos-5-4)', '(occupied pos-4-1)', '(free \
pos-2-1)', '(free pos-3-6)', '(free pos-3-4)', '(free pos-0-4)', '(free pos-1-2)', '(free pos-0-3)', '(free pos-2-5)', '(free pos-2-3)', '(\
free pos-2-4)', '(free pos-6-2)', '(occupied pos-3-1)', '(last-visited pos-2-6)', '(occupied pos-4-4)', '(free pos-1-4)', '(free \
pos-4-3)', '(occupied pos-2-6)', '(free pos-6-3)', '(free pos-5-3)', '(free pos-3-5)', '(occupied pos-3-3)', '(occupied pos-1-3)', '(\
free pos-3-2)', '(free pos-5-2)', '(occupied pos-2-2)', '(occupied pos-4-2)', '(free pos-6-4)', '(free pos-2-0)', '(free pos-3-0)'})" [key=0,
	action="(jump-new-move pos-2-4 pos-2-5 pos-2-6)
  PRE: (move-ended)
  PRE: (occupied pos-2-5)
  PRE: (occupied pos-2-4)
  PRE: (free pos-2-6)
  \
ADD: (occupied pos-2-6)
  ADD: (last-visited pos-2-6)
  ADD: (free pos-2-5)
  ADD: (free pos-2-4)
  DEL: (move-ended)
  DEL: (occupied \
pos-2-5)
  DEL: (occupied pos-2-4)
  DEL: (free pos-2-6)
"];
"frozenset({'(free pos-0-2)', '(free pos-4-5)', '(free pos-4-6)', '(last-visited pos-2-3)', '(free pos-4-0)', '(free pos-5-4)', '(\
occupied pos-4-1)', '(free pos-2-1)', '(free pos-3-6)', '(free pos-3-4)', '(free pos-2-6)', '(free pos-0-4)', '(free pos-1-2)', '(\
free pos-0-3)', '(free pos-2-5)', '(free pos-2-4)', '(free pos-6-2)', '(occupied pos-3-1)', '(occupied pos-4-4)', '(free pos-1-4)', '(\
free pos-4-3)', '(occupied pos-2-3)', '(free pos-6-3)', '(free pos-5-3)', '(free pos-3-5)', '(occupied pos-3-3)', '(occupied pos-1-3)', '(\
free pos-3-2)', '(free pos-5-2)', '(occupied pos-2-2)', '(occupied pos-4-2)', '(free pos-6-4)', '(free pos-2-0)', '(free pos-3-0)'})" [id=2];
"frozenset({'(free pos-0-2)', '(free pos-4-6)', '(free pos-4-0)', '(free pos-2-6)', '(free pos-0-4)', '(free pos-6-2)', '(occupied \
pos-3-1)', '(occupied pos-4-4)', '(free pos-6-3)', '(free pos-5-3)', '(free pos-3-5)', '(occupied pos-2-4)', '(free pos-3-2)', '(\
free pos-2-0)', '(free pos-3-0)', '(free pos-4-5)', '(free pos-5-4)', '(occupied pos-4-1)', '(free pos-2-1)', '(free pos-3-6)', '(\
free pos-3-4)', '(free pos-1-2)', '(free pos-0-3)', '(move-ended)', '(free pos-2-3)', '(free pos-1-4)', '(free pos-4-3)', '(occupied \
pos-3-3)', '(occupied pos-2-5)', '(occupied pos-1-3)', '(free pos-5-2)', '(occupied pos-2-2)', '(occupied pos-4-2)', '(free pos-6-4)'})" -> "frozenset({'(free pos-0-2)', '(free pos-4-5)', '(free pos-4-6)', '(last-visited pos-2-3)', '(free pos-4-0)', '(free pos-5-4)', '(\
occupied pos-4-1)', '(free pos-2-1)', '(free pos-3-6)', '(free pos-3-4)', '(free pos-2-6)', '(free pos-0-4)', '(free pos-1-2)', '(\
free pos-0-3)', '(free pos-2-5)', '(free pos-2-4)', '(free pos-6-2)', '(occupied pos-3-1)', '(occupied pos-4-4)', '(free pos-1-4)', '(\
free pos-4-3)', '(occupied pos-2-3)', '(free pos-6-3)', '(free pos-5-3)', '(free pos-3-5)', '(occupied pos-3-3)', '(occupied pos-1-3)', '(\
free pos-3-2)', '(free pos-5-2)', '(occupied pos-2-2)', '(occupied pos-4-2)', '(free pos-6-4)', '(free pos-2-0)', '(free pos-3-0)'})" [key=0,
action="(jump-new-move pos-2-5 pos-2-4 pos-2-3)
  PRE: (move-ended)
  PRE: (occupied pos-2-5)
  PRE: (occupied pos-2-4)
  PRE: (free pos-2-3)
  \
ADD: (last-visited pos-2-3)
  ADD: (free pos-2-4)
  ADD: (free pos-2-5)
  ADD: (occupied pos-2-3)
  DEL: (move-ended)
  DEL: (free \
pos-2-3)
  DEL: (occupied pos-2-4)
  DEL: (occupied pos-2-5)
"];
"frozenset({'(free pos-0-2)', '(free pos-4-5)', '(free pos-4-6)', '(free pos-2-2)', '(free pos-4-0)', '(free pos-5-4)', '(free pos-2-1)', '(\
free pos-3-6)', '(free pos-3-4)', '(free pos-2-6)', '(free pos-0-4)', '(free pos-1-2)', '(free pos-2-5)', '(free pos-2-3)', '(free \
pos-2-4)', '(free pos-6-2)', '(occupied pos-0-3)', '(occupied pos-4-4)', '(free pos-1-4)', '(free pos-1-3)', '(last-visited pos-0-3)', '(\
occupied pos-4-2)', '(free pos-6-3)', '(free pos-5-3)', '(occupied pos-4-3)', '(free pos-3-5)', '(free pos-3-1)', '(free pos-4-1)', '(\
free pos-3-2)', '(free pos-5-2)', '(free pos-3-3)', '(free pos-6-4)', '(free pos-2-0)', '(free pos-3-0)'})" [id=15];
"frozenset({'(free pos-0-2)', '(free pos-4-6)', '(free pos-2-2)', '(free pos-4-0)', '(free pos-2-6)', '(free pos-0-4)', '(free pos-6-2)', '(\
occupied pos-4-4)', '(free pos-1-3)', '(free pos-6-3)', '(free pos-5-3)', '(free pos-3-5)', '(free pos-4-1)', '(free pos-3-2)', '(\
free pos-2-0)', '(free pos-3-0)', '(free pos-4-5)', '(free pos-5-4)', '(free pos-2-1)', '(free pos-3-6)', '(free pos-3-4)', '(free \
pos-1-2)', '(free pos-2-5)', '(free pos-0-3)', '(move-ended)', '(free pos-2-3)', '(free pos-1-4)', '(occupied pos-4-3)', '(free \
pos-3-1)', '(occupied pos-3-3)', '(free pos-5-2)', '(occupied pos-4-2)', '(free pos-6-4)', '(free pos-2-4)'})" [id=23];
"frozenset({'(free pos-0-2)', '(free pos-4-5)', '(free pos-4-6)', '(free pos-2-2)', '(free pos-4-0)', '(free pos-5-4)', '(free pos-2-1)', '(\
occupied pos-4-1)', '(free pos-3-6)', '(free pos-4-2)', '(free pos-3-4)', '(free pos-2-6)', '(free pos-0-4)', '(free pos-1-2)', '(\
free pos-2-5)', '(free pos-0-3)', '(free pos-2-3)', '(free pos-6-2)', '(free pos-2-4)', '(occupied pos-4-4)', '(free pos-1-4)', '(\
free pos-4-3)', '(free pos-6-3)', '(free pos-5-3)', '(last-visited pos-4-1)', '(free pos-3-5)', '(free pos-3-1)', '(occupied pos-3-3)', '(\
free pos-3-2)', '(free pos-5-2)', '(free pos-1-3)', '(free pos-6-4)', '(free pos-2-0)', '(free pos-3-0)'})" [id=26];
"frozenset({'(free pos-0-2)', '(free pos-4-6)', '(free pos-2-2)', '(free pos-4-0)', '(free pos-2-6)', '(free pos-0-4)', '(free pos-6-2)', '(\
occupied pos-4-4)', '(free pos-1-3)', '(free pos-6-3)', '(free pos-5-3)', '(free pos-3-5)', '(free pos-4-1)', '(free pos-3-2)', '(\
free pos-2-0)', '(free pos-3-0)', '(free pos-4-5)', '(free pos-5-4)', '(free pos-2-1)', '(free pos-3-6)', '(free pos-3-4)', '(free \
pos-1-2)', '(free pos-2-5)', '(free pos-0-3)', '(move-ended)', '(free pos-2-3)', '(free pos-1-4)', '(occupied pos-4-3)', '(free \
pos-3-1)', '(occupied pos-3-3)', '(free pos-5-2)', '(occupied pos-4-2)', '(free pos-6-4)', '(free pos-2-4)'})" -> "frozenset({'(free pos-0-2)', '(free pos-4-5)', '(free pos-4-6)', '(free pos-2-2)', '(free pos-4-0)', '(free pos-5-4)', '(free pos-2-1)', '(\
occupied pos-4-1)', '(free pos-3-6)', '(free pos-4-2)', '(free pos-3-4)', '(free pos-2-6)', '(free pos-0-4)', '(free pos-1-2)', '(\
free pos-2-5)', '(free pos-0-3)', '(free pos-2-3)', '(free pos-6-2)', '(free pos-2-4)', '(occupied pos-4-4)', '(free pos-1-4)', '(\
free pos-4-3)', '(free pos-6-3)', '(free pos-5-3)', '(last-visited pos-4-1)', '(free pos-3-5)', '(free pos-3-1)', '(occupied pos-3-3)', '(\
free pos-3-2)', '(free pos-5-2)', '(free pos-1-3)', '(free pos-6-4)', '(free pos-2-0)', '(free pos-3-0)'})" [key=0,
action="(jump-new-move pos-4-3 pos-4-2 pos-4-1)
  PRE: (move-ended)
  PRE: (occupied pos-4-2)
  PRE: (occupied pos-4-3)
  PRE: (free pos-4-1)
  \
ADD: (occupied pos-4-1)
  ADD: (last-visited pos-4-1)
  ADD: (free pos-4-2)
  ADD: (free pos-4-3)
  DEL: (move-ended)
  DEL: (occupied \
pos-4-2)
  DEL: (occupied pos-4-3)
  DEL: (free pos-4-1)
"];
"frozenset({'(free pos-0-2)', '(free pos-4-6)', '(free pos-2-2)', '(free pos-4-0)', '(free pos-5-4)', '(free pos-2-1)', '(free pos-3-6)', '(\
free pos-4-4)', '(free pos-3-4)', '(free pos-2-6)', '(free pos-0-4)', '(free pos-1-2)', '(free pos-2-5)', '(free pos-0-3)', '(free \
pos-2-3)', '(free pos-6-2)', '(free pos-2-4)', '(last-visited pos-4-5)', '(free pos-1-4)', '(free pos-4-3)', '(occupied pos-4-2)', '(\
free pos-6-3)', '(free pos-5-3)', '(free pos-3-5)', '(free pos-3-1)', '(occupied pos-3-3)', '(free pos-4-1)', '(free pos-3-2)', '(\
free pos-5-2)', '(free pos-1-3)', '(free pos-6-4)', '(occupied pos-4-5)', '(free pos-2-0)', '(free pos-3-0)'})" [id=25];
"frozenset({'(free pos-0-2)', '(free pos-4-6)', '(free pos-2-2)', '(free pos-4-0)', '(free pos-2-6)', '(free pos-0-4)', '(free pos-6-2)', '(\
occupied pos-4-4)', '(free pos-1-3)', '(free pos-6-3)', '(free pos-5-3)', '(free pos-3-5)', '(free pos-4-1)', '(free pos-3-2)', '(\
free pos-2-0)', '(free pos-3-0)', '(free pos-4-5)', '(free pos-5-4)', '(free pos-2-1)', '(free pos-3-6)', '(free pos-3-4)', '(free \
pos-1-2)', '(free pos-2-5)', '(free pos-0-3)', '(move-ended)', '(free pos-2-3)', '(free pos-1-4)', '(occupied pos-4-3)', '(free \
pos-3-1)', '(occupied pos-3-3)', '(free pos-5-2)', '(occupied pos-4-2)', '(free pos-6-4)', '(free pos-2-4)'})" -> "frozenset({'(free pos-0-2)', '(free pos-4-6)', '(free pos-2-2)', '(free pos-4-0)', '(free pos-5-4)', '(free pos-2-1)', '(free pos-3-6)', '(\
free pos-4-4)', '(free pos-3-4)', '(free pos-2-6)', '(free pos-0-4)', '(free pos-1-2)', '(free pos-2-5)', '(free pos-0-3)', '(free \
pos-2-3)', '(free pos-6-2)', '(free pos-2-4)', '(last-visited pos-4-5)', '(free pos-1-4)', '(free pos-4-3)', '(occupied pos-4-2)', '(\
free pos-6-3)', '(free pos-5-3)', '(free pos-3-5)', '(free pos-3-1)', '(occupied pos-3-3)', '(free pos-4-1)', '(free pos-3-2)', '(\
free pos-5-2)', '(free pos-1-3)', '(free pos-6-4)', '(occupied pos-4-5)', '(free pos-2-0)', '(free pos-3-0)'})" [key=0,
action="(jump-new-move pos-4-3 pos-4-4 pos-4-5)
  PRE: (move-ended)
  PRE: (free pos-4-5)
  PRE: (occupied pos-4-3)
  PRE: (occupied pos-4-4)
  \
ADD: (free pos-4-3)
  ADD: (free pos-4-4)
  ADD: (occupied pos-4-5)
  ADD: (last-visited pos-4-5)
  DEL: (move-ended)
  DEL: (free \
pos-4-5)
  DEL: (occupied pos-4-3)
  DEL: (occupied pos-4-4)
"];
"frozenset({'(free pos-0-2)', '(free pos-4-5)', '(free pos-4-6)', '(last-visited pos-2-3)', '(free pos-3-3)', '(free pos-2-2)', '(\
free pos-4-0)', '(free pos-5-4)', '(free pos-2-1)', '(free pos-3-6)', '(free pos-3-4)', '(free pos-2-6)', '(free pos-0-4)', '(free \
pos-1-2)', '(free pos-2-5)', '(free pos-0-3)', '(free pos-2-4)', '(free pos-6-2)', '(occupied pos-4-4)', '(free pos-1-4)', '(free \
pos-4-3)', '(occupied pos-4-2)', '(occupied pos-2-3)', '(free pos-6-3)', '(free pos-5-3)', '(free pos-3-5)', '(free pos-3-1)', '(\
free pos-4-1)', '(free pos-3-2)', '(free pos-5-2)', '(free pos-1-3)', '(free pos-6-4)', '(free pos-2-0)', '(free pos-3-0)'})" [id=24];
"frozenset({'(free pos-0-2)', '(free pos-4-6)', '(free pos-2-2)', '(free pos-4-0)', '(free pos-2-6)', '(free pos-0-4)', '(free pos-6-2)', '(\
occupied pos-4-4)', '(free pos-1-3)', '(free pos-6-3)', '(free pos-5-3)', '(free pos-3-5)', '(free pos-4-1)', '(free pos-3-2)', '(\
free pos-2-0)', '(free pos-3-0)', '(free pos-4-5)', '(free pos-5-4)', '(free pos-2-1)', '(free pos-3-6)', '(free pos-3-4)', '(free \
pos-1-2)', '(free pos-2-5)', '(free pos-0-3)', '(move-ended)', '(free pos-2-3)', '(free pos-1-4)', '(occupied pos-4-3)', '(free \
pos-3-1)', '(occupied pos-3-3)', '(free pos-5-2)', '(occupied pos-4-2)', '(free pos-6-4)', '(free pos-2-4)'})" -> "frozenset({'(free pos-0-2)', '(free pos-4-5)', '(free pos-4-6)', '(last-visited pos-2-3)', '(free pos-3-3)', '(free pos-2-2)', '(\
free pos-4-0)', '(free pos-5-4)', '(free pos-2-1)', '(free pos-3-6)', '(free pos-3-4)', '(free pos-2-6)', '(free pos-0-4)', '(free \
pos-1-2)', '(free pos-2-5)', '(free pos-0-3)', '(free pos-2-4)', '(free pos-6-2)', '(occupied pos-4-4)', '(free pos-1-4)', '(free \
pos-4-3)', '(occupied pos-4-2)', '(occupied pos-2-3)', '(free pos-6-3)', '(free pos-5-3)', '(free pos-3-5)', '(free pos-3-1)', '(\
free pos-4-1)', '(free pos-3-2)', '(free pos-5-2)', '(free pos-1-3)', '(free pos-6-4)', '(free pos-2-0)', '(free pos-3-0)'})" [key=0,
action="(jump-new-move pos-4-3 pos-3-3 pos-2-3)
  PRE: (move-ended)
  PRE: (free pos-2-3)
  PRE: (occupied pos-4-3)
  PRE: (occupied pos-3-3)
  \
ADD: (last-visited pos-2-3)
  ADD: (free pos-4-3)
  ADD: (free pos-3-3)
  ADD: (occupied pos-2-3)
  DEL: (move-ended)
  DEL: (free \
pos-2-3)
  DEL: (occupied pos-4-3)
  DEL: (occupied pos-3-3)
"];
"frozenset({'(free pos-0-2)', '(free pos-4-6)', '(free pos-2-2)', '(free pos-4-0)', '(free pos-2-6)', '(free pos-0-4)', '(free pos-6-2)', '(\
occupied pos-4-4)', '(free pos-1-3)', '(free pos-6-3)', '(free pos-5-3)', '(free pos-3-5)', '(free pos-4-1)', '(free pos-3-2)', '(\
free pos-2-0)', '(free pos-3-0)', '(free pos-4-5)', '(free pos-5-4)', '(free pos-2-1)', '(free pos-3-6)', '(free pos-3-4)', '(free \
pos-1-2)', '(free pos-2-5)', '(free pos-0-3)', '(move-ended)', '(free pos-2-3)', '(free pos-1-4)', '(occupied pos-4-3)', '(free \
pos-3-1)', '(occupied pos-3-3)', '(free pos-5-2)', '(occupied pos-4-2)', '(free pos-6-4)', '(free pos-2-4)'})" -> "frozenset({'(free pos-0-2)', '(free pos-4-5)', '(free pos-4-6)', '(free pos-3-3)', '(free pos-2-2)', '(free pos-4-0)', '(free pos-5-4)', '(\
free pos-2-1)', '(free pos-3-6)', '(free pos-3-4)', '(free pos-2-6)', '(free pos-0-4)', '(free pos-1-2)', '(free pos-2-5)', '(free \
pos-0-3)', '(free pos-2-3)', '(free pos-6-2)', '(free pos-2-4)', '(last-visited pos-5-3)', '(occupied pos-4-4)', '(free pos-1-4)', '(\
free pos-4-3)', '(occupied pos-4-2)', '(free pos-6-3)', '(free pos-3-5)', '(free pos-3-1)', '(free pos-4-1)', '(free pos-3-2)', '(\
free pos-5-2)', '(free pos-1-3)', '(free pos-6-4)', '(occupied pos-5-3)', '(free pos-2-0)', '(free pos-3-0)'})" [key=0,
action="(jump-new-move pos-3-3 pos-4-3 pos-5-3)
  PRE: (move-ended)
  PRE: (free pos-5-3)
  PRE: (occupied pos-4-3)
  PRE: (occupied pos-3-3)
  \
ADD: (free pos-4-3)
  ADD: (free pos-3-3)
  ADD: (last-visited pos-5-3)
  ADD: (occupied pos-5-3)
  DEL: (move-ended)
  DEL: (free \
pos-5-3)
  DEL: (occupied pos-4-3)
  DEL: (occupied pos-3-3)
"];
"frozenset({'(free pos-0-2)', '(free pos-4-5)', '(free pos-4-6)', '(free pos-4-0)', '(free pos-5-4)', '(free pos-3-6)', '(free pos-3-4)', '(\
free pos-2-6)', '(free pos-0-4)', '(free pos-1-2)', '(free pos-2-5)', '(free pos-0-3)', '(free pos-2-3)', '(free pos-6-2)', '(free \
pos-2-4)', '(occupied pos-2-1)', '(occupied pos-4-4)', '(free pos-1-4)', '(last-visited pos-2-1)', '(occupied pos-4-2)', '(free \
pos-6-3)', '(free pos-5-3)', '(occupied pos-4-3)', '(free pos-3-5)', '(free pos-3-1)', '(occupied pos-1-3)', '(free pos-4-1)', '(\
free pos-3-2)', '(free pos-5-2)', '(occupied pos-2-2)', '(free pos-3-3)', '(free pos-6-4)', '(free pos-2-0)', '(free pos-3-0)'})" [id=7];
"frozenset({'(free pos-0-2)', '(free pos-4-6)', '(free pos-4-0)', '(free pos-2-6)', '(free pos-0-4)', '(free pos-6-2)', '(occupied \
pos-4-4)', '(free pos-6-3)', '(free pos-5-3)', '(free pos-3-5)', '(free pos-4-1)', '(free pos-3-2)', '(free pos-3-3)', '(free pos-2-0)', '(\
free pos-3-0)', '(free pos-4-5)', '(free pos-5-4)', '(free pos-3-6)', '(free pos-3-4)', '(free pos-1-2)', '(free pos-2-5)', '(free \
pos-0-3)', '(move-ended)', '(free pos-2-3)', '(occupied pos-2-1)', '(free pos-1-4)', '(occupied pos-4-3)', '(free pos-3-1)', '(occupied \
pos-1-3)', '(free pos-5-2)', '(occupied pos-2-2)', '(occupied pos-4-2)', '(free pos-6-4)', '(free pos-2-4)'})" [id=11];
"frozenset({'(free pos-0-2)', '(free pos-4-5)', '(free pos-4-6)', '(free pos-4-0)', '(free pos-5-4)', '(free pos-3-6)', '(free pos-3-4)', '(\
free pos-2-6)', '(free pos-0-4)', '(free pos-1-2)', '(free pos-2-5)', '(free pos-0-3)', '(free pos-2-3)', '(free pos-6-2)', '(free \
pos-2-4)', '(occupied pos-2-1)', '(occupied pos-4-4)', '(free pos-1-4)', '(last-visited pos-2-1)', '(occupied pos-4-2)', '(free \
pos-6-3)', '(free pos-5-3)', '(occupied pos-4-3)', '(free pos-3-5)', '(free pos-3-1)', '(occupied pos-1-3)', '(free pos-4-1)', '(\
free pos-3-2)', '(free pos-5-2)', '(occupied pos-2-2)', '(free pos-3-3)', '(free pos-6-4)', '(free pos-2-0)', '(free pos-3-0)'})" -> "frozenset({'(free pos-0-2)', '(free pos-4-6)', '(free pos-4-0)', '(free pos-2-6)', '(free pos-0-4)', '(free pos-6-2)', '(occupied \
pos-4-4)', '(free pos-6-3)', '(free pos-5-3)', '(free pos-3-5)', '(free pos-4-1)', '(free pos-3-2)', '(free pos-3-3)', '(free pos-2-0)', '(\
free pos-3-0)', '(free pos-4-5)', '(free pos-5-4)', '(free pos-3-6)', '(free pos-3-4)', '(free pos-1-2)', '(free pos-2-5)', '(free \
pos-0-3)', '(move-ended)', '(free pos-2-3)', '(occupied pos-2-1)', '(free pos-1-4)', '(occupied pos-4-3)', '(free pos-3-1)', '(occupied \
pos-1-3)', '(free pos-5-2)', '(occupied pos-2-2)', '(occupied pos-4-2)', '(free pos-6-4)', '(free pos-2-4)'})" [key=0,
action="(end-move pos-2-1)
  PRE: (last-visited pos-2-1)
  ADD: (move-ended)
  DEL: (last-visited pos-2-1)
"];
"frozenset({'(free pos-0-2)', '(free pos-4-5)', '(free pos-4-6)', '(last-visited pos-2-3)', '(free pos-2-2)', '(free pos-4-0)', '(\
free pos-5-4)', '(free pos-2-1)', '(free pos-3-6)', '(free pos-3-4)', '(free pos-2-6)', '(free pos-0-4)', '(free pos-1-2)', '(free \
pos-2-5)', '(free pos-0-3)', '(free pos-2-4)', '(free pos-6-2)', '(occupied pos-4-4)', '(free pos-1-4)', '(occupied pos-4-2)', '(\
occupied pos-2-3)', '(free pos-6-3)', '(free pos-5-3)', '(occupied pos-4-3)', '(free pos-3-5)', '(free pos-3-1)', '(occupied pos-1-3)', '(\
free pos-4-1)', '(free pos-3-2)', '(free pos-5-2)', '(free pos-3-3)', '(free pos-6-4)', '(free pos-2-0)', '(free pos-3-0)'})" [id=10];
"frozenset({'(free pos-0-2)', '(free pos-4-5)', '(free pos-4-6)', '(free pos-4-0)', '(free pos-5-4)', '(free pos-3-6)', '(free pos-3-4)', '(\
free pos-2-6)', '(free pos-0-4)', '(free pos-1-2)', '(free pos-2-5)', '(free pos-0-3)', '(free pos-2-3)', '(free pos-6-2)', '(free \
pos-2-4)', '(occupied pos-2-1)', '(occupied pos-4-4)', '(free pos-1-4)', '(last-visited pos-2-1)', '(occupied pos-4-2)', '(free \
pos-6-3)', '(free pos-5-3)', '(occupied pos-4-3)', '(free pos-3-5)', '(free pos-3-1)', '(occupied pos-1-3)', '(free pos-4-1)', '(\
free pos-3-2)', '(free pos-5-2)', '(occupied pos-2-2)', '(free pos-3-3)', '(free pos-6-4)', '(free pos-2-0)', '(free pos-3-0)'})" -> "frozenset({'(free pos-0-2)', '(free pos-4-5)', '(free pos-4-6)', '(last-visited pos-2-3)', '(free pos-2-2)', '(free pos-4-0)', '(\
free pos-5-4)', '(free pos-2-1)', '(free pos-3-6)', '(free pos-3-4)', '(free pos-2-6)', '(free pos-0-4)', '(free pos-1-2)', '(free \
pos-2-5)', '(free pos-0-3)', '(free pos-2-4)', '(free pos-6-2)', '(occupied pos-4-4)', '(free pos-1-4)', '(occupied pos-4-2)', '(\
occupied pos-2-3)', '(free pos-6-3)', '(free pos-5-3)', '(occupied pos-4-3)', '(free pos-3-5)', '(free pos-3-1)', '(occupied pos-1-3)', '(\
free pos-4-1)', '(free pos-3-2)', '(free pos-5-2)', '(free pos-3-3)', '(free pos-6-4)', '(free pos-2-0)', '(free pos-3-0)'})" [key=0,
action="(jump-continue-move pos-2-1 pos-2-2 pos-2-3)
  PRE: (occupied pos-2-2)
  PRE: (last-visited pos-2-1)
  PRE: (occupied pos-2-1)
  \
PRE: (free pos-2-3)
  ADD: (last-visited pos-2-3)
  ADD: (occupied pos-2-3)
  ADD: (free pos-2-2)
  ADD: (free pos-2-1)
  DEL: (\
occupied pos-2-2)
  DEL: (last-visited pos-2-1)
  DEL: (occupied pos-2-1)
  DEL: (free pos-2-3)
"];
"frozenset({'(free pos-0-2)', '(free pos-4-6)', '(free pos-2-2)', '(free pos-4-0)', '(free pos-2-6)', '(free pos-0-4)', '(free pos-6-2)', '(\
occupied pos-4-4)', '(free pos-6-3)', '(free pos-5-3)', '(free pos-3-5)', '(free pos-3-2)', '(free pos-3-3)', '(free pos-2-0)', '(\
free pos-3-0)', '(free pos-4-5)', '(free pos-5-4)', '(free pos-2-1)', '(occupied pos-4-1)', '(free pos-3-6)', '(free pos-4-2)', '(\
free pos-3-4)', '(free pos-1-2)', '(free pos-2-5)', '(free pos-0-3)', '(move-ended)', '(free pos-1-4)', '(free pos-4-3)', '(occupied \
pos-2-3)', '(free pos-3-1)', '(occupied pos-1-3)', '(free pos-5-2)', '(free pos-6-4)', '(free pos-2-4)'})" [id=21];
"frozenset({'(free pos-0-2)', '(free pos-4-6)', '(free pos-4-0)', '(free pos-5-4)', '(occupied pos-4-1)', '(free pos-2-1)', '(free \
pos-3-6)', '(free pos-4-4)', '(free pos-3-4)', '(free pos-2-6)', '(free pos-0-4)', '(free pos-1-2)', '(free pos-2-5)', '(free pos-0-3)', '(\
free pos-2-3)', '(free pos-6-2)', '(free pos-2-4)', '(occupied pos-3-1)', '(last-visited pos-4-5)', '(free pos-1-4)', '(free pos-4-3)', '(\
occupied pos-4-2)', '(free pos-6-3)', '(free pos-5-3)', '(free pos-3-5)', '(occupied pos-1-3)', '(free pos-3-2)', '(free pos-5-2)', '(\
occupied pos-2-2)', '(free pos-3-3)', '(free pos-6-4)', '(occupied pos-4-5)', '(free pos-2-0)', '(free pos-3-0)'})" [id=4];
"frozenset({'(free pos-0-2)', '(free pos-4-6)', '(free pos-4-0)', '(free pos-2-6)', '(free pos-0-4)', '(free pos-6-2)', '(occupied \
pos-3-1)', '(free pos-6-3)', '(free pos-5-3)', '(free pos-3-5)', '(free pos-3-2)', '(free pos-3-3)', '(occupied pos-4-5)', '(free \
pos-2-0)', '(free pos-3-0)', '(free pos-5-4)', '(occupied pos-4-1)', '(free pos-2-1)', '(free pos-3-6)', '(free pos-4-4)', '(free \
pos-3-4)', '(free pos-1-2)', '(free pos-2-5)', '(free pos-0-3)', '(move-ended)', '(free pos-2-3)', '(free pos-1-4)', '(free pos-4-3)', '(\
occupied pos-1-3)', '(free pos-5-2)', '(occupied pos-2-2)', '(occupied pos-4-2)', '(free pos-6-4)', '(free pos-2-4)'})" [id=9];
"frozenset({'(free pos-0-2)', '(free pos-4-6)', '(free pos-4-0)', '(free pos-5-4)', '(occupied pos-4-1)', '(free pos-2-1)', '(free \
pos-3-6)', '(free pos-4-4)', '(free pos-3-4)', '(free pos-2-6)', '(free pos-0-4)', '(free pos-1-2)', '(free pos-2-5)', '(free pos-0-3)', '(\
free pos-2-3)', '(free pos-6-2)', '(free pos-2-4)', '(occupied pos-3-1)', '(last-visited pos-4-5)', '(free pos-1-4)', '(free pos-4-3)', '(\
occupied pos-4-2)', '(free pos-6-3)', '(free pos-5-3)', '(free pos-3-5)', '(occupied pos-1-3)', '(free pos-3-2)', '(free pos-5-2)', '(\
occupied pos-2-2)', '(free pos-3-3)', '(free pos-6-4)', '(occupied pos-4-5)', '(free pos-2-0)', '(free pos-3-0)'})" -> "frozenset({'(free pos-0-2)', '(free pos-4-6)', '(free pos-4-0)', '(free pos-2-6)', '(free pos-0-4)', '(free pos-6-2)', '(occupied \
pos-3-1)', '(free pos-6-3)', '(free pos-5-3)', '(free pos-3-5)', '(free pos-3-2)', '(free pos-3-3)', '(occupied pos-4-5)', '(free \
pos-2-0)', '(free pos-3-0)', '(free pos-5-4)', '(occupied pos-4-1)', '(free pos-2-1)', '(free pos-3-6)', '(free pos-4-4)', '(free \
pos-3-4)', '(free pos-1-2)', '(free pos-2-5)', '(free pos-0-3)', '(move-ended)', '(free pos-2-3)', '(free pos-1-4)', '(free pos-4-3)', '(\
occupied pos-1-3)', '(free pos-5-2)', '(occupied pos-2-2)', '(occupied pos-4-2)', '(free pos-6-4)', '(free pos-2-4)'})" [key=0,
action="(end-move pos-4-5)
  PRE: (last-visited pos-4-5)
  ADD: (move-ended)
  DEL: (last-visited pos-4-5)
"];
"frozenset({'(free pos-0-2)', '(free pos-4-5)', '(free pos-4-6)', '(free pos-5-4)', '(free pos-2-1)', '(free pos-3-6)', '(free pos-4-2)', '(\
free pos-3-4)', '(free pos-2-6)', '(free pos-0-4)', '(free pos-1-2)', '(free pos-2-5)', '(free pos-0-3)', '(free pos-2-3)', '(free \
pos-6-2)', '(free pos-2-4)', '(occupied pos-3-1)', '(occupied pos-4-4)', '(free pos-1-4)', '(occupied pos-4-0)', '(free pos-6-3)', '(\
free pos-5-3)', '(occupied pos-4-3)', '(free pos-3-5)', '(occupied pos-1-3)', '(free pos-4-1)', '(last-visited pos-4-0)', '(free \
pos-3-2)', '(free pos-5-2)', '(occupied pos-2-2)', '(free pos-3-3)', '(free pos-6-4)', '(free pos-2-0)', '(free pos-3-0)'})" [id=6];
"frozenset({'(free pos-0-2)', '(free pos-4-6)', '(free pos-2-6)', '(free pos-0-4)', '(free pos-6-2)', '(occupied pos-3-1)', '(occupied \
pos-4-4)', '(free pos-6-3)', '(free pos-5-3)', '(free pos-3-5)', '(free pos-4-1)', '(free pos-3-2)', '(free pos-3-3)', '(free pos-2-0)', '(\
free pos-3-0)', '(free pos-4-5)', '(free pos-5-4)', '(free pos-2-1)', '(free pos-3-6)', '(free pos-4-2)', '(free pos-3-4)', '(free \
pos-1-2)', '(free pos-2-5)', '(free pos-0-3)', '(move-ended)', '(free pos-2-3)', '(free pos-1-4)', '(occupied pos-4-0)', '(occupied \
pos-4-3)', '(occupied pos-1-3)', '(free pos-5-2)', '(occupied pos-2-2)', '(free pos-6-4)', '(free pos-2-4)'})" [id=8];
"frozenset({'(free pos-0-2)', '(free pos-4-5)', '(free pos-4-6)', '(free pos-5-4)', '(free pos-2-1)', '(free pos-3-6)', '(free pos-4-2)', '(\
free pos-3-4)', '(free pos-2-6)', '(free pos-0-4)', '(free pos-1-2)', '(free pos-2-5)', '(free pos-0-3)', '(free pos-2-3)', '(free \
pos-6-2)', '(free pos-2-4)', '(occupied pos-3-1)', '(occupied pos-4-4)', '(free pos-1-4)', '(occupied pos-4-0)', '(free pos-6-3)', '(\
free pos-5-3)', '(occupied pos-4-3)', '(free pos-3-5)', '(occupied pos-1-3)', '(free pos-4-1)', '(last-visited pos-4-0)', '(free \
pos-3-2)', '(free pos-5-2)', '(occupied pos-2-2)', '(free pos-3-3)', '(free pos-6-4)', '(free pos-2-0)', '(free pos-3-0)'})" -> "frozenset({'(free pos-0-2)', '(free pos-4-6)', '(free pos-2-6)', '(free pos-0-4)', '(free pos-6-2)', '(occupied pos-3-1)', '(occupied \
pos-4-4)', '(free pos-6-3)', '(free pos-5-3)', '(free pos-3-5)', '(free pos-4-1)', '(free pos-3-2)', '(free pos-3-3)', '(free pos-2-0)', '(\
free pos-3-0)', '(free pos-4-5)', '(free pos-5-4)', '(free pos-2-1)', '(free pos-3-6)', '(free pos-4-2)', '(free pos-3-4)', '(free \
pos-1-2)', '(free pos-2-5)', '(free pos-0-3)', '(move-ended)', '(free pos-2-3)', '(free pos-1-4)', '(occupied pos-4-0)', '(occupied \
pos-4-3)', '(occupied pos-1-3)', '(free pos-5-2)', '(occupied pos-2-2)', '(free pos-6-4)', '(free pos-2-4)'})" [key=0,
action="(end-move pos-4-0)
  PRE: (last-visited pos-4-0)
  ADD: (move-ended)
  DEL: (last-visited pos-4-0)
"];
"frozenset({'(free pos-0-2)', '(free pos-4-6)', '(free pos-4-0)', '(free pos-2-6)', '(free pos-0-4)', '(free pos-6-2)', '(occupied \
pos-3-1)', '(occupied pos-4-4)', '(free pos-6-3)', '(free pos-5-3)', '(free pos-3-5)', '(free pos-3-2)', '(free pos-3-3)', '(free \
pos-2-0)', '(free pos-3-0)', '(free pos-4-5)', '(free pos-5-4)', '(occupied pos-4-1)', '(free pos-2-1)', '(free pos-3-6)', '(free \
pos-3-4)', '(free pos-1-2)', '(free pos-2-5)', '(free pos-0-3)', '(move-ended)', '(free pos-2-3)', '(free pos-1-4)', '(occupied \
pos-4-3)', '(occupied pos-1-3)', '(free pos-5-2)', '(occupied pos-2-2)', '(occupied pos-4-2)', '(free pos-6-4)', '(free pos-2-4)'})" [id=5];
"frozenset({'(free pos-0-2)', '(free pos-4-6)', '(free pos-4-0)', '(free pos-2-6)', '(free pos-0-4)', '(free pos-6-2)', '(occupied \
pos-3-1)', '(occupied pos-4-4)', '(free pos-6-3)', '(free pos-5-3)', '(free pos-3-5)', '(free pos-3-2)', '(free pos-3-3)', '(free \
pos-2-0)', '(free pos-3-0)', '(free pos-4-5)', '(free pos-5-4)', '(occupied pos-4-1)', '(free pos-2-1)', '(free pos-3-6)', '(free \
pos-3-4)', '(free pos-1-2)', '(free pos-2-5)', '(free pos-0-3)', '(move-ended)', '(free pos-2-3)', '(free pos-1-4)', '(occupied \
pos-4-3)', '(occupied pos-1-3)', '(free pos-5-2)', '(occupied pos-2-2)', '(occupied pos-4-2)', '(free pos-6-4)', '(free pos-2-4)'})" -> "frozenset({'(free pos-0-2)', '(free pos-4-5)', '(free pos-4-6)', '(free pos-4-0)', '(free pos-5-4)', '(free pos-3-6)', '(free pos-3-4)', '(\
free pos-2-6)', '(free pos-0-4)', '(free pos-1-2)', '(free pos-2-5)', '(free pos-0-3)', '(free pos-2-3)', '(free pos-6-2)', '(free \
pos-2-4)', '(occupied pos-2-1)', '(occupied pos-4-4)', '(free pos-1-4)', '(last-visited pos-2-1)', '(occupied pos-4-2)', '(free \
pos-6-3)', '(free pos-5-3)', '(occupied pos-4-3)', '(free pos-3-5)', '(free pos-3-1)', '(occupied pos-1-3)', '(free pos-4-1)', '(\
free pos-3-2)', '(free pos-5-2)', '(occupied pos-2-2)', '(free pos-3-3)', '(free pos-6-4)', '(free pos-2-0)', '(free pos-3-0)'})" [key=0,
action="(jump-new-move pos-4-1 pos-3-1 pos-2-1)
  PRE: (move-ended)
  PRE: (occupied pos-4-1)
  PRE: (occupied pos-3-1)
  PRE: (free pos-2-1)
  \
ADD: (last-visited pos-2-1)
  ADD: (occupied pos-2-1)
  ADD: (free pos-4-1)
  ADD: (free pos-3-1)
  DEL: (move-ended)
  DEL: (occupied \
pos-4-1)
  DEL: (occupied pos-3-1)
  DEL: (free pos-2-1)
"];
"frozenset({'(free pos-0-2)', '(free pos-4-6)', '(free pos-4-0)', '(free pos-2-6)', '(free pos-0-4)', '(free pos-6-2)', '(occupied \
pos-3-1)', '(occupied pos-4-4)', '(free pos-6-3)', '(free pos-5-3)', '(free pos-3-5)', '(free pos-3-2)', '(free pos-3-3)', '(free \
pos-2-0)', '(free pos-3-0)', '(free pos-4-5)', '(free pos-5-4)', '(occupied pos-4-1)', '(free pos-2-1)', '(free pos-3-6)', '(free \
pos-3-4)', '(free pos-1-2)', '(free pos-2-5)', '(free pos-0-3)', '(move-ended)', '(free pos-2-3)', '(free pos-1-4)', '(occupied \
pos-4-3)', '(occupied pos-1-3)', '(free pos-5-2)', '(occupied pos-2-2)', '(occupied pos-4-2)', '(free pos-6-4)', '(free pos-2-4)'})" -> "frozenset({'(free pos-0-2)', '(free pos-4-6)', '(free pos-4-0)', '(free pos-5-4)', '(occupied pos-4-1)', '(free pos-2-1)', '(free \
pos-3-6)', '(free pos-4-4)', '(free pos-3-4)', '(free pos-2-6)', '(free pos-0-4)', '(free pos-1-2)', '(free pos-2-5)', '(free pos-0-3)', '(\
free pos-2-3)', '(free pos-6-2)', '(free pos-2-4)', '(occupied pos-3-1)', '(last-visited pos-4-5)', '(free pos-1-4)', '(free pos-4-3)', '(\
occupied pos-4-2)', '(free pos-6-3)', '(free pos-5-3)', '(free pos-3-5)', '(occupied pos-1-3)', '(free pos-3-2)', '(free pos-5-2)', '(\
occupied pos-2-2)', '(free pos-3-3)', '(free pos-6-4)', '(occupied pos-4-5)', '(free pos-2-0)', '(free pos-3-0)'})" [key=0,
action="(jump-new-move pos-4-3 pos-4-4 pos-4-5)
  PRE: (move-ended)
  PRE: (free pos-4-5)
  PRE: (occupied pos-4-3)
  PRE: (occupied pos-4-4)
  \
ADD: (free pos-4-3)
  ADD: (free pos-4-4)
  ADD: (occupied pos-4-5)
  ADD: (last-visited pos-4-5)
  DEL: (move-ended)
  DEL: (free \
pos-4-5)
  DEL: (occupied pos-4-3)
  DEL: (occupied pos-4-4)
"];
"frozenset({'(free pos-0-2)', '(free pos-4-6)', '(free pos-4-0)', '(free pos-2-6)', '(free pos-0-4)', '(free pos-6-2)', '(occupied \
pos-3-1)', '(occupied pos-4-4)', '(free pos-6-3)', '(free pos-5-3)', '(free pos-3-5)', '(free pos-3-2)', '(free pos-3-3)', '(free \
pos-2-0)', '(free pos-3-0)', '(free pos-4-5)', '(free pos-5-4)', '(occupied pos-4-1)', '(free pos-2-1)', '(free pos-3-6)', '(free \
pos-3-4)', '(free pos-1-2)', '(free pos-2-5)', '(free pos-0-3)', '(move-ended)', '(free pos-2-3)', '(free pos-1-4)', '(occupied \
pos-4-3)', '(occupied pos-1-3)', '(free pos-5-2)', '(occupied pos-2-2)', '(occupied pos-4-2)', '(free pos-6-4)', '(free pos-2-4)'})" -> "frozenset({'(free pos-0-2)', '(free pos-4-5)', '(free pos-4-6)', '(free pos-5-4)', '(free pos-2-1)', '(free pos-3-6)', '(free pos-4-2)', '(\
free pos-3-4)', '(free pos-2-6)', '(free pos-0-4)', '(free pos-1-2)', '(free pos-2-5)', '(free pos-0-3)', '(free pos-2-3)', '(free \
pos-6-2)', '(free pos-2-4)', '(occupied pos-3-1)', '(occupied pos-4-4)', '(free pos-1-4)', '(occupied pos-4-0)', '(free pos-6-3)', '(\
free pos-5-3)', '(occupied pos-4-3)', '(free pos-3-5)', '(occupied pos-1-3)', '(free pos-4-1)', '(last-visited pos-4-0)', '(free \
pos-3-2)', '(free pos-5-2)', '(occupied pos-2-2)', '(free pos-3-3)', '(free pos-6-4)', '(free pos-2-0)', '(free pos-3-0)'})" [key=0,
action="(jump-new-move pos-4-2 pos-4-1 pos-4-0)
  PRE: (move-ended)
  PRE: (occupied pos-4-1)
  PRE: (occupied pos-4-2)
  PRE: (free pos-4-0)
  \
ADD: (free pos-4-1)
  ADD: (free pos-4-2)
  ADD: (occupied pos-4-0)
  ADD: (last-visited pos-4-0)
  DEL: (move-ended)
  DEL: (free \
pos-4-0)
  DEL: (occupied pos-4-2)
  DEL: (occupied pos-4-1)
"];
"frozenset({'(free pos-0-2)', '(free pos-4-5)', '(free pos-4-6)', '(free pos-2-2)', '(free pos-4-0)', '(free pos-5-4)', '(free pos-2-1)', '(\
free pos-3-6)', '(free pos-3-4)', '(free pos-2-6)', '(free pos-0-4)', '(free pos-1-2)', '(free pos-2-5)', '(free pos-0-3)', '(free \
pos-2-3)', '(free pos-6-2)', '(occupied pos-4-4)', '(free pos-1-4)', '(occupied pos-4-2)', '(last-visited pos-2-0)', '(occupied \
pos-2-0)', '(free pos-6-3)', '(free pos-5-3)', '(occupied pos-4-3)', '(free pos-3-5)', '(free pos-3-1)', '(occupied pos-1-3)', '(\
free pos-4-1)', '(free pos-3-2)', '(free pos-5-2)', '(free pos-3-3)', '(free pos-6-4)', '(free pos-2-4)', '(free pos-3-0)'})" [id=14];
"frozenset({'(free pos-0-2)', '(free pos-4-6)', '(free pos-4-0)', '(free pos-2-6)', '(free pos-0-4)', '(free pos-6-2)', '(occupied \
pos-4-4)', '(free pos-6-3)', '(free pos-5-3)', '(free pos-3-5)', '(free pos-4-1)', '(free pos-3-2)', '(free pos-3-3)', '(free pos-2-0)', '(\
free pos-3-0)', '(free pos-4-5)', '(free pos-5-4)', '(free pos-3-6)', '(free pos-3-4)', '(free pos-1-2)', '(free pos-2-5)', '(free \
pos-0-3)', '(move-ended)', '(free pos-2-3)', '(occupied pos-2-1)', '(free pos-1-4)', '(occupied pos-4-3)', '(free pos-3-1)', '(occupied \
pos-1-3)', '(free pos-5-2)', '(occupied pos-2-2)', '(occupied pos-4-2)', '(free pos-6-4)', '(free pos-2-4)'})" -> "frozenset({'(free pos-0-2)', '(free pos-4-5)', '(free pos-4-6)', '(free pos-2-2)', '(free pos-4-0)', '(free pos-5-4)', '(free pos-2-1)', '(\
free pos-3-6)', '(free pos-3-4)', '(free pos-2-6)', '(free pos-0-4)', '(free pos-1-2)', '(free pos-2-5)', '(free pos-0-3)', '(free \
pos-2-3)', '(free pos-6-2)', '(occupied pos-4-4)', '(free pos-1-4)', '(occupied pos-4-2)', '(last-visited pos-2-0)', '(occupied \
pos-2-0)', '(free pos-6-3)', '(free pos-5-3)', '(occupied pos-4-3)', '(free pos-3-5)', '(free pos-3-1)', '(occupied pos-1-3)', '(\
free pos-4-1)', '(free pos-3-2)', '(free pos-5-2)', '(free pos-3-3)', '(free pos-6-4)', '(free pos-2-4)', '(free pos-3-0)'})" [key=0,
action="(jump-new-move pos-2-2 pos-2-1 pos-2-0)
  PRE: (move-ended)
  PRE: (occupied pos-2-2)
  PRE: (occupied pos-2-1)
  PRE: (free pos-2-0)
  \
ADD: (free pos-2-1)
  ADD: (last-visited pos-2-0)
  ADD: (free pos-2-2)
  ADD: (occupied pos-2-0)
  DEL: (move-ended)
  DEL: (occupied \
pos-2-2)
  DEL: (occupied pos-2-1)
  DEL: (free pos-2-0)
"];
"frozenset({'(free pos-0-2)', '(free pos-4-6)', '(free pos-4-0)', '(free pos-2-6)', '(free pos-0-4)', '(free pos-6-2)', '(occupied \
pos-4-4)', '(free pos-6-3)', '(free pos-5-3)', '(free pos-3-5)', '(free pos-4-1)', '(free pos-3-2)', '(free pos-3-3)', '(free pos-2-0)', '(\
free pos-3-0)', '(free pos-4-5)', '(free pos-5-4)', '(free pos-3-6)', '(free pos-3-4)', '(free pos-1-2)', '(free pos-2-5)', '(free \
pos-0-3)', '(move-ended)', '(free pos-2-3)', '(occupied pos-2-1)', '(free pos-1-4)', '(occupied pos-4-3)', '(free pos-3-1)', '(occupied \
pos-1-3)', '(free pos-5-2)', '(occupied pos-2-2)', '(occupied pos-4-2)', '(free pos-6-4)', '(free pos-2-4)'})" -> "frozenset({'(free pos-0-2)', '(free pos-4-5)', '(free pos-4-6)', '(last-visited pos-2-3)', '(free pos-2-2)', '(free pos-4-0)', '(\
free pos-5-4)', '(free pos-2-1)', '(free pos-3-6)', '(free pos-3-4)', '(free pos-2-6)', '(free pos-0-4)', '(free pos-1-2)', '(free \
pos-2-5)', '(free pos-0-3)', '(free pos-2-4)', '(free pos-6-2)', '(occupied pos-4-4)', '(free pos-1-4)', '(occupied pos-4-2)', '(\
occupied pos-2-3)', '(free pos-6-3)', '(free pos-5-3)', '(occupied pos-4-3)', '(free pos-3-5)', '(free pos-3-1)', '(occupied pos-1-3)', '(\
free pos-4-1)', '(free pos-3-2)', '(free pos-5-2)', '(free pos-3-3)', '(free pos-6-4)', '(free pos-2-0)', '(free pos-3-0)'})" [key=0,
action="(jump-new-move pos-2-1 pos-2-2 pos-2-3)
  PRE: (move-ended)
  PRE: (occupied pos-2-2)
  PRE: (occupied pos-2-1)
  PRE: (free pos-2-3)
  \
ADD: (last-visited pos-2-3)
  ADD: (free pos-2-2)
  ADD: (occupied pos-2-3)
  ADD: (free pos-2-1)
  DEL: (move-ended)
  DEL: (free \
pos-2-3)
  DEL: (occupied pos-2-1)
  DEL: (occupied pos-2-2)
"];
"frozenset({'(free pos-0-2)', '(free pos-4-5)', '(free pos-4-6)', '(free pos-4-0)', '(free pos-5-4)', '(occupied pos-4-1)', '(free \
pos-3-6)', '(free pos-4-2)', '(free pos-3-4)', '(free pos-2-6)', '(free pos-0-4)', '(free pos-1-2)', '(free pos-2-5)', '(free pos-0-3)', '(\
free pos-2-3)', '(free pos-6-2)', '(occupied pos-2-1)', '(free pos-2-4)', '(occupied pos-4-4)', '(free pos-1-4)', '(free pos-4-3)', '(\
free pos-6-3)', '(free pos-5-3)', '(last-visited pos-4-1)', '(free pos-3-5)', '(free pos-3-1)', '(occupied pos-1-3)', '(free pos-3-2)', '(\
free pos-5-2)', '(occupied pos-2-2)', '(free pos-3-3)', '(free pos-6-4)', '(free pos-2-0)', '(free pos-3-0)'})" [id=13];
"frozenset({'(free pos-0-2)', '(free pos-4-6)', '(free pos-4-0)', '(free pos-2-6)', '(free pos-0-4)', '(free pos-6-2)', '(occupied \
pos-4-4)', '(free pos-6-3)', '(free pos-5-3)', '(free pos-3-5)', '(free pos-4-1)', '(free pos-3-2)', '(free pos-3-3)', '(free pos-2-0)', '(\
free pos-3-0)', '(free pos-4-5)', '(free pos-5-4)', '(free pos-3-6)', '(free pos-3-4)', '(free pos-1-2)', '(free pos-2-5)', '(free \
pos-0-3)', '(move-ended)', '(free pos-2-3)', '(occupied pos-2-1)', '(free pos-1-4)', '(occupied pos-4-3)', '(free pos-3-1)', '(occupied \
pos-1-3)', '(free pos-5-2)', '(occupied pos-2-2)', '(occupied pos-4-2)', '(free pos-6-4)', '(free pos-2-4)'})" -> "frozenset({'(free pos-0-2)', '(free pos-4-5)', '(free pos-4-6)', '(free pos-4-0)', '(free pos-5-4)', '(occupied pos-4-1)', '(free \
pos-3-6)', '(free pos-4-2)', '(free pos-3-4)', '(free pos-2-6)', '(free pos-0-4)', '(free pos-1-2)', '(free pos-2-5)', '(free pos-0-3)', '(\
free pos-2-3)', '(free pos-6-2)', '(occupied pos-2-1)', '(free pos-2-4)', '(occupied pos-4-4)', '(free pos-1-4)', '(free pos-4-3)', '(\
free pos-6-3)', '(free pos-5-3)', '(last-visited pos-4-1)', '(free pos-3-5)', '(free pos-3-1)', '(occupied pos-1-3)', '(free pos-3-2)', '(\
free pos-5-2)', '(occupied pos-2-2)', '(free pos-3-3)', '(free pos-6-4)', '(free pos-2-0)', '(free pos-3-0)'})" [key=0,
action="(jump-new-move pos-4-3 pos-4-2 pos-4-1)
  PRE: (move-ended)
  PRE: (occupied pos-4-2)
  PRE: (occupied pos-4-3)
  PRE: (free pos-4-1)
  \
ADD: (occupied pos-4-1)
  ADD: (last-visited pos-4-1)
  ADD: (free pos-4-2)
  ADD: (free pos-4-3)
  DEL: (move-ended)
  DEL: (occupied \
pos-4-2)
  DEL: (occupied pos-4-3)
  DEL: (free pos-4-1)
"];
"frozenset({'(free pos-0-2)', '(free pos-4-6)', '(free pos-4-0)', '(free pos-5-4)', '(free pos-3-6)', '(free pos-4-4)', '(free pos-3-4)', '(\
free pos-2-6)', '(free pos-0-4)', '(free pos-1-2)', '(free pos-2-5)', '(free pos-0-3)', '(free pos-2-3)', '(free pos-6-2)', '(occupied \
pos-2-1)', '(free pos-2-4)', '(last-visited pos-4-5)', '(free pos-1-4)', '(free pos-4-3)', '(occupied pos-4-2)', '(free pos-6-3)', '(\
free pos-5-3)', '(free pos-3-5)', '(free pos-3-1)', '(occupied pos-1-3)', '(free pos-4-1)', '(free pos-3-2)', '(free pos-5-2)', '(\
occupied pos-2-2)', '(free pos-3-3)', '(free pos-6-4)', '(occupied pos-4-5)', '(free pos-2-0)', '(free pos-3-0)'})" [id=12];
"frozenset({'(free pos-0-2)', '(free pos-4-6)', '(free pos-4-0)', '(free pos-2-6)', '(free pos-0-4)', '(free pos-6-2)', '(occupied \
pos-4-4)', '(free pos-6-3)', '(free pos-5-3)', '(free pos-3-5)', '(free pos-4-1)', '(free pos-3-2)', '(free pos-3-3)', '(free pos-2-0)', '(\
free pos-3-0)', '(free pos-4-5)', '(free pos-5-4)', '(free pos-3-6)', '(free pos-3-4)', '(free pos-1-2)', '(free pos-2-5)', '(free \
pos-0-3)', '(move-ended)', '(free pos-2-3)', '(occupied pos-2-1)', '(free pos-1-4)', '(occupied pos-4-3)', '(free pos-3-1)', '(occupied \
pos-1-3)', '(free pos-5-2)', '(occupied pos-2-2)', '(occupied pos-4-2)', '(free pos-6-4)', '(free pos-2-4)'})" -> "frozenset({'(free pos-0-2)', '(free pos-4-6)', '(free pos-4-0)', '(free pos-5-4)', '(free pos-3-6)', '(free pos-4-4)', '(free pos-3-4)', '(\
free pos-2-6)', '(free pos-0-4)', '(free pos-1-2)', '(free pos-2-5)', '(free pos-0-3)', '(free pos-2-3)', '(free pos-6-2)', '(occupied \
pos-2-1)', '(free pos-2-4)', '(last-visited pos-4-5)', '(free pos-1-4)', '(free pos-4-3)', '(occupied pos-4-2)', '(free pos-6-3)', '(\
free pos-5-3)', '(free pos-3-5)', '(free pos-3-1)', '(occupied pos-1-3)', '(free pos-4-1)', '(free pos-3-2)', '(free pos-5-2)', '(\
occupied pos-2-2)', '(free pos-3-3)', '(free pos-6-4)', '(occupied pos-4-5)', '(free pos-2-0)', '(free pos-3-0)'})" [key=0,
action="(jump-new-move pos-4-3 pos-4-4 pos-4-5)
  PRE: (move-ended)
  PRE: (free pos-4-5)
  PRE: (occupied pos-4-3)
  PRE: (occupied pos-4-4)
  \
ADD: (free pos-4-3)
  ADD: (free pos-4-4)
  ADD: (occupied pos-4-5)
  ADD: (last-visited pos-4-5)
  DEL: (move-ended)
  DEL: (free \
pos-4-5)
  DEL: (occupied pos-4-3)
  DEL: (occupied pos-4-4)
"];
"frozenset({'(free pos-0-2)', '(free pos-4-5)', '(free pos-4-6)', '(last-visited pos-2-3)', '(free pos-2-2)', '(free pos-4-0)', '(\
free pos-5-4)', '(free pos-2-1)', '(free pos-3-6)', '(free pos-3-4)', '(free pos-2-6)', '(free pos-0-4)', '(free pos-1-2)', '(free \
pos-2-5)', '(free pos-0-3)', '(free pos-2-4)', '(free pos-6-2)', '(occupied pos-4-4)', '(free pos-1-4)', '(occupied pos-4-2)', '(\
occupied pos-2-3)', '(free pos-6-3)', '(free pos-5-3)', '(occupied pos-4-3)', '(free pos-3-5)', '(free pos-3-1)', '(occupied pos-1-3)', '(\
free pos-4-1)', '(free pos-3-2)', '(free pos-5-2)', '(free pos-3-3)', '(free pos-6-4)', '(free pos-2-0)', '(free pos-3-0)'})" -> "frozenset({'(free pos-0-2)', '(free pos-4-5)', '(free pos-4-6)', '(free pos-2-2)', '(free pos-4-0)', '(free pos-5-4)', '(free pos-2-1)', '(\
free pos-3-6)', '(free pos-3-4)', '(free pos-2-6)', '(free pos-0-4)', '(free pos-1-2)', '(free pos-2-5)', '(free pos-2-3)', '(free \
pos-2-4)', '(free pos-6-2)', '(occupied pos-0-3)', '(occupied pos-4-4)', '(free pos-1-4)', '(free pos-1-3)', '(last-visited pos-0-3)', '(\
occupied pos-4-2)', '(free pos-6-3)', '(free pos-5-3)', '(occupied pos-4-3)', '(free pos-3-5)', '(free pos-3-1)', '(free pos-4-1)', '(\
free pos-3-2)', '(free pos-5-2)', '(free pos-3-3)', '(free pos-6-4)', '(free pos-2-0)', '(free pos-3-0)'})" [key=0,
action="(jump-continue-move pos-2-3 pos-1-3 pos-0-3)
  PRE: (last-visited pos-2-3)
  PRE: (occupied pos-1-3)
  PRE: (occupied pos-2-3)
  \
PRE: (free pos-0-3)
  ADD: (free pos-2-3)
  ADD: (free pos-1-3)
  ADD: (last-visited pos-0-3)
  ADD: (occupied pos-0-3)
  DEL: (\
last-visited pos-2-3)
  DEL: (occupied pos-1-3)
  DEL: (occupied pos-2-3)
  DEL: (free pos-0-3)
"];
"frozenset({'(free pos-0-2)', '(free pos-4-6)', '(free pos-2-2)', '(free pos-4-0)', '(free pos-2-6)', '(free pos-0-4)', '(free pos-6-2)', '(\
occupied pos-4-4)', '(free pos-6-3)', '(free pos-5-3)', '(free pos-3-5)', '(free pos-4-1)', '(free pos-3-2)', '(free pos-3-3)', '(\
free pos-2-0)', '(free pos-3-0)', '(free pos-4-5)', '(free pos-5-4)', '(free pos-2-1)', '(free pos-3-6)', '(free pos-3-4)', '(free \
pos-1-2)', '(free pos-2-5)', '(free pos-0-3)', '(move-ended)', '(free pos-1-4)', '(occupied pos-2-3)', '(occupied pos-4-3)', '(free \
pos-3-1)', '(occupied pos-1-3)', '(free pos-5-2)', '(occupied pos-4-2)', '(free pos-6-4)', '(free pos-2-4)'})" [id=16];
"frozenset({'(free pos-0-2)', '(free pos-4-5)', '(free pos-4-6)', '(last-visited pos-2-3)', '(free pos-2-2)', '(free pos-4-0)', '(\
free pos-5-4)', '(free pos-2-1)', '(free pos-3-6)', '(free pos-3-4)', '(free pos-2-6)', '(free pos-0-4)', '(free pos-1-2)', '(free \
pos-2-5)', '(free pos-0-3)', '(free pos-2-4)', '(free pos-6-2)', '(occupied pos-4-4)', '(free pos-1-4)', '(occupied pos-4-2)', '(\
occupied pos-2-3)', '(free pos-6-3)', '(free pos-5-3)', '(occupied pos-4-3)', '(free pos-3-5)', '(free pos-3-1)', '(occupied pos-1-3)', '(\
free pos-4-1)', '(free pos-3-2)', '(free pos-5-2)', '(free pos-3-3)', '(free pos-6-4)', '(free pos-2-0)', '(free pos-3-0)'})" -> "frozenset({'(free pos-0-2)', '(free pos-4-6)', '(free pos-2-2)', '(free pos-4-0)', '(free pos-2-6)', '(free pos-0-4)', '(free pos-6-2)', '(\
occupied pos-4-4)', '(free pos-6-3)', '(free pos-5-3)', '(free pos-3-5)', '(free pos-4-1)', '(free pos-3-2)', '(free pos-3-3)', '(\
free pos-2-0)', '(free pos-3-0)', '(free pos-4-5)', '(free pos-5-4)', '(free pos-2-1)', '(free pos-3-6)', '(free pos-3-4)', '(free \
pos-1-2)', '(free pos-2-5)', '(free pos-0-3)', '(move-ended)', '(free pos-1-4)', '(occupied pos-2-3)', '(occupied pos-4-3)', '(free \
pos-3-1)', '(occupied pos-1-3)', '(free pos-5-2)', '(occupied pos-4-2)', '(free pos-6-4)', '(free pos-2-4)'})" [key=0,
action="(end-move pos-2-3)
  PRE: (last-visited pos-2-3)
  ADD: (move-ended)
  DEL: (last-visited pos-2-3)
"];
"frozenset({'(free pos-0-2)', '(free pos-4-5)', '(free pos-4-6)', '(free pos-3-3)', '(free pos-2-2)', '(free pos-4-0)', '(free pos-5-4)', '(\
free pos-2-1)', '(free pos-3-6)', '(free pos-3-4)', '(free pos-2-6)', '(free pos-0-4)', '(free pos-1-2)', '(free pos-2-5)', '(free \
pos-0-3)', '(free pos-2-3)', '(free pos-6-2)', '(free pos-2-4)', '(last-visited pos-5-3)', '(occupied pos-4-4)', '(free pos-1-4)', '(\
free pos-4-3)', '(free pos-1-3)', '(free pos-6-3)', '(free pos-3-5)', '(free pos-3-1)', '(free pos-4-1)', '(free pos-3-2)', '(free \
pos-5-2)', '(occupied pos-4-2)', '(free pos-6-4)', '(occupied pos-5-3)', '(free pos-2-0)', '(free pos-3-0)'})" [id=22];
"frozenset({'(free pos-0-2)', '(free pos-4-5)', '(free pos-4-6)', '(free pos-3-3)', '(free pos-4-0)', '(free pos-5-4)', '(occupied \
pos-4-1)', '(free pos-2-1)', '(free pos-3-6)', '(free pos-3-4)', '(free pos-2-6)', '(free pos-0-4)', '(free pos-1-2)', '(free pos-2-5)', '(\
free pos-0-3)', '(free pos-2-4)', '(free pos-6-2)', '(free pos-2-3)', '(occupied pos-3-1)', '(occupied pos-4-4)', '(free pos-1-4)', '(\
free pos-6-3)', '(free pos-5-3)', '(occupied pos-4-3)', '(free pos-3-5)', '(occupied pos-1-3)', '(free pos-3-2)', '(free pos-5-2)', '(\
occupied pos-2-2)', '(occupied pos-4-2)', '(free pos-6-4)', '(last-visited pos-4-3)', '(free pos-2-0)', '(free pos-3-0)'})" [id=3];
"frozenset({'(free pos-0-2)', '(free pos-4-5)', '(free pos-4-6)', '(free pos-3-3)', '(free pos-4-0)', '(free pos-5-4)', '(occupied \
pos-4-1)', '(free pos-2-1)', '(free pos-3-6)', '(free pos-3-4)', '(free pos-2-6)', '(free pos-0-4)', '(free pos-1-2)', '(free pos-2-5)', '(\
free pos-0-3)', '(free pos-2-4)', '(free pos-6-2)', '(free pos-2-3)', '(occupied pos-3-1)', '(occupied pos-4-4)', '(free pos-1-4)', '(\
free pos-6-3)', '(free pos-5-3)', '(occupied pos-4-3)', '(free pos-3-5)', '(occupied pos-1-3)', '(free pos-3-2)', '(free pos-5-2)', '(\
occupied pos-2-2)', '(occupied pos-4-2)', '(free pos-6-4)', '(last-visited pos-4-3)', '(free pos-2-0)', '(free pos-3-0)'})" -> "frozenset({'(free pos-0-2)', '(free pos-4-6)', '(free pos-4-0)', '(free pos-5-4)', '(occupied pos-4-1)', '(free pos-2-1)', '(free \
pos-3-6)', '(free pos-4-4)', '(free pos-3-4)', '(free pos-2-6)', '(free pos-0-4)', '(free pos-1-2)', '(free pos-2-5)', '(free pos-0-3)', '(\
free pos-2-3)', '(free pos-6-2)', '(free pos-2-4)', '(occupied pos-3-1)', '(last-visited pos-4-5)', '(free pos-1-4)', '(free pos-4-3)', '(\
occupied pos-4-2)', '(free pos-6-3)', '(free pos-5-3)', '(free pos-3-5)', '(occupied pos-1-3)', '(free pos-3-2)', '(free pos-5-2)', '(\
occupied pos-2-2)', '(free pos-3-3)', '(free pos-6-4)', '(occupied pos-4-5)', '(free pos-2-0)', '(free pos-3-0)'})" [key=0,
action="(jump-continue-move pos-4-3 pos-4-4 pos-4-5)
  PRE: (free pos-4-5)
  PRE: (occupied pos-4-3)
  PRE: (last-visited pos-4-3)
  PRE: (\
occupied pos-4-4)
  ADD: (free pos-4-3)
  ADD: (occupied pos-4-5)
  ADD: (free pos-4-4)
  ADD: (last-visited pos-4-5)
  DEL: (free \
pos-4-5)
  DEL: (occupied pos-4-3)
  DEL: (last-visited pos-4-3)
  DEL: (occupied pos-4-4)
"];
"frozenset({'(free pos-0-2)', '(free pos-4-5)', '(free pos-4-6)', '(free pos-3-3)', '(free pos-4-0)', '(free pos-5-4)', '(occupied \
pos-4-1)', '(free pos-2-1)', '(free pos-3-6)', '(free pos-3-4)', '(free pos-2-6)', '(free pos-0-4)', '(free pos-1-2)', '(free pos-2-5)', '(\
free pos-0-3)', '(free pos-2-4)', '(free pos-6-2)', '(free pos-2-3)', '(occupied pos-3-1)', '(occupied pos-4-4)', '(free pos-1-4)', '(\
free pos-6-3)', '(free pos-5-3)', '(occupied pos-4-3)', '(free pos-3-5)', '(occupied pos-1-3)', '(free pos-3-2)', '(free pos-5-2)', '(\
occupied pos-2-2)', '(occupied pos-4-2)', '(free pos-6-4)', '(last-visited pos-4-3)', '(free pos-2-0)', '(free pos-3-0)'})" -> "frozenset({'(free pos-0-2)', '(free pos-4-6)', '(free pos-4-0)', '(free pos-2-6)', '(free pos-0-4)', '(free pos-6-2)', '(occupied \
pos-3-1)', '(occupied pos-4-4)', '(free pos-6-3)', '(free pos-5-3)', '(free pos-3-5)', '(free pos-3-2)', '(free pos-3-3)', '(free \
pos-2-0)', '(free pos-3-0)', '(free pos-4-5)', '(free pos-5-4)', '(occupied pos-4-1)', '(free pos-2-1)', '(free pos-3-6)', '(free \
pos-3-4)', '(free pos-1-2)', '(free pos-2-5)', '(free pos-0-3)', '(move-ended)', '(free pos-2-3)', '(free pos-1-4)', '(occupied \
pos-4-3)', '(occupied pos-1-3)', '(free pos-5-2)', '(occupied pos-2-2)', '(occupied pos-4-2)', '(free pos-6-4)', '(free pos-2-4)'})" [key=0,
action="(end-move pos-4-3)
  PRE: (last-visited pos-4-3)
  ADD: (move-ended)
  DEL: (last-visited pos-4-3)
"];
"frozenset({'(free pos-0-2)', '(free pos-4-5)', '(free pos-4-6)', '(last-visited pos-2-3)', '(free pos-4-0)', '(free pos-5-4)', '(\
occupied pos-4-1)', '(free pos-2-1)', '(free pos-3-6)', '(free pos-3-4)', '(free pos-2-6)', '(free pos-0-4)', '(free pos-1-2)', '(\
free pos-0-3)', '(free pos-2-5)', '(free pos-2-4)', '(free pos-6-2)', '(occupied pos-3-1)', '(occupied pos-4-4)', '(free pos-1-4)', '(\
free pos-4-3)', '(occupied pos-2-3)', '(free pos-6-3)', '(free pos-5-3)', '(free pos-3-5)', '(occupied pos-3-3)', '(occupied pos-1-3)', '(\
free pos-3-2)', '(free pos-5-2)', '(occupied pos-2-2)', '(occupied pos-4-2)', '(free pos-6-4)', '(free pos-2-0)', '(free pos-3-0)'})" -> "frozenset({'(free pos-0-2)', '(free pos-4-5)', '(free pos-4-6)', '(free pos-3-3)', '(free pos-4-0)', '(free pos-5-4)', '(occupied \
pos-4-1)', '(free pos-2-1)', '(free pos-3-6)', '(free pos-3-4)', '(free pos-2-6)', '(free pos-0-4)', '(free pos-1-2)', '(free pos-2-5)', '(\
free pos-0-3)', '(free pos-2-4)', '(free pos-6-2)', '(free pos-2-3)', '(occupied pos-3-1)', '(occupied pos-4-4)', '(free pos-1-4)', '(\
free pos-6-3)', '(free pos-5-3)', '(occupied pos-4-3)', '(free pos-3-5)', '(occupied pos-1-3)', '(free pos-3-2)', '(free pos-5-2)', '(\
occupied pos-2-2)', '(occupied pos-4-2)', '(free pos-6-4)', '(last-visited pos-4-3)', '(free pos-2-0)', '(free pos-3-0)'})" [key=0,
action="(jump-continue-move pos-2-3 pos-3-3 pos-4-3)
  PRE: (last-visited pos-2-3)
  PRE: (free pos-4-3)
  PRE: (occupied pos-2-3)
  PRE: (\
occupied pos-3-3)
  ADD: (free pos-2-3)
  ADD: (free pos-3-3)
  ADD: (occupied pos-4-3)
  ADD: (last-visited pos-4-3)
  DEL: (last-visited \
pos-2-3)
  DEL: (free pos-4-3)
  DEL: (occupied pos-2-3)
  DEL: (occupied pos-3-3)
"];
"frozenset({'(free pos-0-2)', '(free pos-4-6)', '(free pos-2-2)', '(free pos-4-0)', '(free pos-2-6)', '(free pos-0-4)', '(free pos-6-2)', '(\
free pos-6-3)', '(free pos-5-3)', '(free pos-3-5)', '(free pos-4-1)', '(free pos-3-2)', '(free pos-3-3)', '(occupied pos-4-5)', '(\
free pos-2-0)', '(free pos-3-0)', '(free pos-5-4)', '(free pos-2-1)', '(free pos-3-6)', '(free pos-4-4)', '(free pos-3-4)', '(free \
pos-1-2)', '(free pos-2-5)', '(free pos-0-3)', '(move-ended)', '(free pos-1-4)', '(free pos-4-3)', '(occupied pos-2-3)', '(free \
pos-3-1)', '(occupied pos-1-3)', '(free pos-5-2)', '(occupied pos-4-2)', '(free pos-6-4)', '(free pos-2-4)'})" [id=20];
"frozenset({'(free pos-0-2)', '(free pos-4-6)', '(free pos-2-2)', '(free pos-4-0)', '(free pos-5-4)', '(free pos-2-1)', '(free pos-3-6)', '(\
free pos-4-4)', '(free pos-3-4)', '(free pos-2-6)', '(free pos-0-4)', '(free pos-1-2)', '(free pos-2-5)', '(free pos-0-3)', '(free \
pos-2-4)', '(free pos-6-2)', '(last-visited pos-4-5)', '(free pos-1-4)', '(free pos-4-3)', '(occupied pos-2-3)', '(occupied pos-4-2)', '(\
free pos-6-3)', '(free pos-5-3)', '(free pos-3-5)', '(free pos-3-1)', '(occupied pos-1-3)', '(free pos-4-1)', '(free pos-3-2)', '(\
free pos-5-2)', '(free pos-3-3)', '(free pos-6-4)', '(occupied pos-4-5)', '(free pos-2-0)', '(free pos-3-0)'})" [id=17];
"frozenset({'(free pos-0-2)', '(free pos-4-6)', '(free pos-2-2)', '(free pos-4-0)', '(free pos-5-4)', '(free pos-2-1)', '(free pos-3-6)', '(\
free pos-4-4)', '(free pos-3-4)', '(free pos-2-6)', '(free pos-0-4)', '(free pos-1-2)', '(free pos-2-5)', '(free pos-0-3)', '(free \
pos-2-4)', '(free pos-6-2)', '(last-visited pos-4-5)', '(free pos-1-4)', '(free pos-4-3)', '(occupied pos-2-3)', '(occupied pos-4-2)', '(\
free pos-6-3)', '(free pos-5-3)', '(free pos-3-5)', '(free pos-3-1)', '(occupied pos-1-3)', '(free pos-4-1)', '(free pos-3-2)', '(\
free pos-5-2)', '(free pos-3-3)', '(free pos-6-4)', '(occupied pos-4-5)', '(free pos-2-0)', '(free pos-3-0)'})" -> "frozenset({'(free pos-0-2)', '(free pos-4-6)', '(free pos-2-2)', '(free pos-4-0)', '(free pos-2-6)', '(free pos-0-4)', '(free pos-6-2)', '(\
free pos-6-3)', '(free pos-5-3)', '(free pos-3-5)', '(free pos-4-1)', '(free pos-3-2)', '(free pos-3-3)', '(occupied pos-4-5)', '(\
free pos-2-0)', '(free pos-3-0)', '(free pos-5-4)', '(free pos-2-1)', '(free pos-3-6)', '(free pos-4-4)', '(free pos-3-4)', '(free \
pos-1-2)', '(free pos-2-5)', '(free pos-0-3)', '(move-ended)', '(free pos-1-4)', '(free pos-4-3)', '(occupied pos-2-3)', '(free \
pos-3-1)', '(occupied pos-1-3)', '(free pos-5-2)', '(occupied pos-4-2)', '(free pos-6-4)', '(free pos-2-4)'})" [key=0,
action="(end-move pos-4-5)
  PRE: (last-visited pos-4-5)
  ADD: (move-ended)
  DEL: (last-visited pos-4-5)
"];
"frozenset({'(free pos-0-2)', '(free pos-4-5)', '(free pos-4-6)', '(free pos-2-2)', '(free pos-4-0)', '(free pos-5-4)', '(free pos-2-1)', '(\
occupied pos-4-1)', '(free pos-3-6)', '(free pos-4-2)', '(free pos-3-4)', '(free pos-2-6)', '(free pos-0-4)', '(free pos-1-2)', '(\
free pos-2-5)', '(free pos-0-3)', '(free pos-2-4)', '(free pos-6-2)', '(occupied pos-4-4)', '(free pos-1-4)', '(free pos-4-3)', '(\
occupied pos-2-3)', '(free pos-6-3)', '(free pos-5-3)', '(last-visited pos-4-1)', '(free pos-3-5)', '(free pos-3-1)', '(occupied \
pos-1-3)', '(free pos-3-2)', '(free pos-5-2)', '(free pos-3-3)', '(free pos-6-4)', '(free pos-2-0)', '(free pos-3-0)'})" [id=18];
"frozenset({'(free pos-0-2)', '(free pos-4-5)', '(free pos-4-6)', '(free pos-2-2)', '(free pos-4-0)', '(free pos-5-4)', '(free pos-2-1)', '(\
occupied pos-4-1)', '(free pos-3-6)', '(free pos-4-2)', '(free pos-3-4)', '(free pos-2-6)', '(free pos-0-4)', '(free pos-1-2)', '(\
free pos-2-5)', '(free pos-0-3)', '(free pos-2-4)', '(free pos-6-2)', '(occupied pos-4-4)', '(free pos-1-4)', '(free pos-4-3)', '(\
occupied pos-2-3)', '(free pos-6-3)', '(free pos-5-3)', '(last-visited pos-4-1)', '(free pos-3-5)', '(free pos-3-1)', '(occupied \
pos-1-3)', '(free pos-3-2)', '(free pos-5-2)', '(free pos-3-3)', '(free pos-6-4)', '(free pos-2-0)', '(free pos-3-0)'})" -> "frozenset({'(free pos-0-2)', '(free pos-4-6)', '(free pos-2-2)', '(free pos-4-0)', '(free pos-2-6)', '(free pos-0-4)', '(free pos-6-2)', '(\
occupied pos-4-4)', '(free pos-6-3)', '(free pos-5-3)', '(free pos-3-5)', '(free pos-3-2)', '(free pos-3-3)', '(free pos-2-0)', '(\
free pos-3-0)', '(free pos-4-5)', '(free pos-5-4)', '(free pos-2-1)', '(occupied pos-4-1)', '(free pos-3-6)', '(free pos-4-2)', '(\
free pos-3-4)', '(free pos-1-2)', '(free pos-2-5)', '(free pos-0-3)', '(move-ended)', '(free pos-1-4)', '(free pos-4-3)', '(occupied \
pos-2-3)', '(free pos-3-1)', '(occupied pos-1-3)', '(free pos-5-2)', '(free pos-6-4)', '(free pos-2-4)'})" [key=0,
action="(end-move pos-4-1)
  PRE: (last-visited pos-4-1)
  ADD: (move-ended)
  DEL: (last-visited pos-4-1)
"];
"frozenset({'(free pos-0-2)', '(free pos-4-6)', '(free pos-2-2)', '(free pos-4-0)', '(free pos-2-6)', '(free pos-0-4)', '(free pos-6-2)', '(\
occupied pos-4-4)', '(free pos-6-3)', '(free pos-5-3)', '(free pos-3-5)', '(free pos-4-1)', '(free pos-3-2)', '(free pos-3-3)', '(\
free pos-2-0)', '(free pos-3-0)', '(free pos-4-5)', '(free pos-5-4)', '(free pos-2-1)', '(free pos-3-6)', '(free pos-3-4)', '(free \
pos-1-2)', '(free pos-2-5)', '(free pos-0-3)', '(move-ended)', '(free pos-1-4)', '(occupied pos-2-3)', '(occupied pos-4-3)', '(free \
pos-3-1)', '(occupied pos-1-3)', '(free pos-5-2)', '(occupied pos-4-2)', '(free pos-6-4)', '(free pos-2-4)'})" -> "frozenset({'(free pos-0-2)', '(free pos-4-5)', '(free pos-4-6)', '(free pos-2-2)', '(free pos-4-0)', '(free pos-5-4)', '(free pos-2-1)', '(\
free pos-3-6)', '(free pos-3-4)', '(free pos-2-6)', '(free pos-0-4)', '(free pos-1-2)', '(free pos-2-5)', '(free pos-2-3)', '(free \
pos-2-4)', '(free pos-6-2)', '(occupied pos-0-3)', '(occupied pos-4-4)', '(free pos-1-4)', '(free pos-1-3)', '(last-visited pos-0-3)', '(\
occupied pos-4-2)', '(free pos-6-3)', '(free pos-5-3)', '(occupied pos-4-3)', '(free pos-3-5)', '(free pos-3-1)', '(free pos-4-1)', '(\
free pos-3-2)', '(free pos-5-2)', '(free pos-3-3)', '(free pos-6-4)', '(free pos-2-0)', '(free pos-3-0)'})" [key=0,
action="(jump-new-move pos-2-3 pos-1-3 pos-0-3)
  PRE: (move-ended)
  PRE: (occupied pos-1-3)
  PRE: (occupied pos-2-3)
  PRE: (free pos-0-3)
  \
ADD: (free pos-2-3)
  ADD: (free pos-1-3)
  ADD: (last-visited pos-0-3)
  ADD: (occupied pos-0-3)
  DEL: (move-ended)
  DEL: (occupied \
pos-1-3)
  DEL: (occupied pos-2-3)
  DEL: (free pos-0-3)
"];
"frozenset({'(free pos-0-2)', '(free pos-4-6)', '(free pos-2-2)', '(free pos-4-0)', '(free pos-2-6)', '(free pos-0-4)', '(free pos-6-2)', '(\
occupied pos-4-4)', '(free pos-6-3)', '(free pos-5-3)', '(free pos-3-5)', '(free pos-4-1)', '(free pos-3-2)', '(free pos-3-3)', '(\
free pos-2-0)', '(free pos-3-0)', '(free pos-4-5)', '(free pos-5-4)', '(free pos-2-1)', '(free pos-3-6)', '(free pos-3-4)', '(free \
pos-1-2)', '(free pos-2-5)', '(free pos-0-3)', '(move-ended)', '(free pos-1-4)', '(occupied pos-2-3)', '(occupied pos-4-3)', '(free \
pos-3-1)', '(occupied pos-1-3)', '(free pos-5-2)', '(occupied pos-4-2)', '(free pos-6-4)', '(free pos-2-4)'})" -> "frozenset({'(free pos-0-2)', '(free pos-4-6)', '(free pos-2-2)', '(free pos-4-0)', '(free pos-5-4)', '(free pos-2-1)', '(free pos-3-6)', '(\
free pos-4-4)', '(free pos-3-4)', '(free pos-2-6)', '(free pos-0-4)', '(free pos-1-2)', '(free pos-2-5)', '(free pos-0-3)', '(free \
pos-2-4)', '(free pos-6-2)', '(last-visited pos-4-5)', '(free pos-1-4)', '(free pos-4-3)', '(occupied pos-2-3)', '(occupied pos-4-2)', '(\
free pos-6-3)', '(free pos-5-3)', '(free pos-3-5)', '(free pos-3-1)', '(occupied pos-1-3)', '(free pos-4-1)', '(free pos-3-2)', '(\
free pos-5-2)', '(free pos-3-3)', '(free pos-6-4)', '(occupied pos-4-5)', '(free pos-2-0)', '(free pos-3-0)'})" [key=0,
action="(jump-new-move pos-4-3 pos-4-4 pos-4-5)
  PRE: (move-ended)
  PRE: (free pos-4-5)
  PRE: (occupied pos-4-3)
  PRE: (occupied pos-4-4)
  \
ADD: (free pos-4-3)
  ADD: (free pos-4-4)
  ADD: (occupied pos-4-5)
  ADD: (last-visited pos-4-5)
  DEL: (move-ended)
  DEL: (free \
pos-4-5)
  DEL: (occupied pos-4-3)
  DEL: (occupied pos-4-4)
"];
"frozenset({'(free pos-0-2)', '(free pos-4-6)', '(free pos-2-2)', '(free pos-4-0)', '(free pos-2-6)', '(free pos-0-4)', '(free pos-6-2)', '(\
occupied pos-4-4)', '(free pos-6-3)', '(free pos-5-3)', '(free pos-3-5)', '(free pos-4-1)', '(free pos-3-2)', '(free pos-3-3)', '(\
free pos-2-0)', '(free pos-3-0)', '(free pos-4-5)', '(free pos-5-4)', '(free pos-2-1)', '(free pos-3-6)', '(free pos-3-4)', '(free \
pos-1-2)', '(free pos-2-5)', '(free pos-0-3)', '(move-ended)', '(free pos-1-4)', '(occupied pos-2-3)', '(occupied pos-4-3)', '(free \
pos-3-1)', '(occupied pos-1-3)', '(free pos-5-2)', '(occupied pos-4-2)', '(free pos-6-4)', '(free pos-2-4)'})" -> "frozenset({'(free pos-0-2)', '(free pos-4-5)', '(free pos-4-6)', '(free pos-2-2)', '(free pos-4-0)', '(free pos-5-4)', '(free pos-2-1)', '(\
occupied pos-4-1)', '(free pos-3-6)', '(free pos-4-2)', '(free pos-3-4)', '(free pos-2-6)', '(free pos-0-4)', '(free pos-1-2)', '(\
free pos-2-5)', '(free pos-0-3)', '(free pos-2-4)', '(free pos-6-2)', '(occupied pos-4-4)', '(free pos-1-4)', '(free pos-4-3)', '(\
occupied pos-2-3)', '(free pos-6-3)', '(free pos-5-3)', '(last-visited pos-4-1)', '(free pos-3-5)', '(free pos-3-1)', '(occupied \
pos-1-3)', '(free pos-3-2)', '(free pos-5-2)', '(free pos-3-3)', '(free pos-6-4)', '(free pos-2-0)', '(free pos-3-0)'})" [key=0,
action="(jump-new-move pos-4-3 pos-4-2 pos-4-1)
  PRE: (move-ended)
  PRE: (occupied pos-4-2)
  PRE: (occupied pos-4-3)
  PRE: (free pos-4-1)
  \
ADD: (occupied pos-4-1)
  ADD: (last-visited pos-4-1)
  ADD: (free pos-4-2)
  ADD: (free pos-4-3)
  DEL: (move-ended)
  DEL: (occupied \
pos-4-2)
  DEL: (occupied pos-4-3)
  DEL: (free pos-4-1)
"];
"frozenset({'(free pos-0-2)', '(free pos-4-5)', '(free pos-4-6)', '(free pos-2-2)', '(free pos-4-0)', '(free pos-5-4)', '(free pos-2-1)', '(\
free pos-3-6)', '(last-visited pos-3-3)', '(free pos-3-4)', '(free pos-2-6)', '(free pos-0-4)', '(free pos-1-2)', '(free pos-2-5)', '(\
free pos-0-3)', '(free pos-2-4)', '(free pos-6-2)', '(free pos-2-3)', '(occupied pos-4-4)', '(free pos-1-4)', '(free pos-1-3)', '(\
free pos-6-3)', '(free pos-5-3)', '(occupied pos-4-3)', '(free pos-3-5)', '(free pos-3-1)', '(occupied pos-3-3)', '(free pos-4-1)', '(\
free pos-3-2)', '(free pos-5-2)', '(occupied pos-4-2)', '(free pos-6-4)', '(free pos-2-0)', '(free pos-3-0)'})" [id=19];
"frozenset({'(free pos-0-2)', '(free pos-4-6)', '(free pos-2-2)', '(free pos-4-0)', '(free pos-2-6)', '(free pos-0-4)', '(free pos-6-2)', '(\
occupied pos-4-4)', '(free pos-6-3)', '(free pos-5-3)', '(free pos-3-5)', '(free pos-4-1)', '(free pos-3-2)', '(free pos-3-3)', '(\
free pos-2-0)', '(free pos-3-0)', '(free pos-4-5)', '(free pos-5-4)', '(free pos-2-1)', '(free pos-3-6)', '(free pos-3-4)', '(free \
pos-1-2)', '(free pos-2-5)', '(free pos-0-3)', '(move-ended)', '(free pos-1-4)', '(occupied pos-2-3)', '(occupied pos-4-3)', '(free \
pos-3-1)', '(occupied pos-1-3)', '(free pos-5-2)', '(occupied pos-4-2)', '(free pos-6-4)', '(free pos-2-4)'})" -> "frozenset({'(free pos-0-2)', '(free pos-4-5)', '(free pos-4-6)', '(free pos-2-2)', '(free pos-4-0)', '(free pos-5-4)', '(free pos-2-1)', '(\
free pos-3-6)', '(last-visited pos-3-3)', '(free pos-3-4)', '(free pos-2-6)', '(free pos-0-4)', '(free pos-1-2)', '(free pos-2-5)', '(\
free pos-0-3)', '(free pos-2-4)', '(free pos-6-2)', '(free pos-2-3)', '(occupied pos-4-4)', '(free pos-1-4)', '(free pos-1-3)', '(\
free pos-6-3)', '(free pos-5-3)', '(occupied pos-4-3)', '(free pos-3-5)', '(free pos-3-1)', '(occupied pos-3-3)', '(free pos-4-1)', '(\
free pos-3-2)', '(free pos-5-2)', '(occupied pos-4-2)', '(free pos-6-4)', '(free pos-2-0)', '(free pos-3-0)'})" [key=0,
action="(jump-new-move pos-1-3 pos-2-3 pos-3-3)
  PRE: (move-ended)
  PRE: (occupied pos-1-3)
  PRE: (occupied pos-2-3)
  PRE: (free pos-3-3)
  \
ADD: (free pos-2-3)
  ADD: (free pos-1-3)
  ADD: (last-visited pos-3-3)
  ADD: (occupied pos-3-3)
  DEL: (move-ended)
  DEL: (free \
pos-3-3)
  DEL: (occupied pos-1-3)
  DEL: (occupied pos-2-3)
"];
"frozenset({'(free pos-0-2)', '(free pos-4-5)', '(free pos-4-6)', '(free pos-2-2)', '(free pos-4-0)', '(free pos-5-4)', '(free pos-2-1)', '(\
free pos-3-6)', '(last-visited pos-3-3)', '(free pos-3-4)', '(free pos-2-6)', '(free pos-0-4)', '(free pos-1-2)', '(free pos-2-5)', '(\
free pos-0-3)', '(free pos-2-4)', '(free pos-6-2)', '(free pos-2-3)', '(occupied pos-4-4)', '(free pos-1-4)', '(free pos-1-3)', '(\
free pos-6-3)', '(free pos-5-3)', '(occupied pos-4-3)', '(free pos-3-5)', '(free pos-3-1)', '(occupied pos-3-3)', '(free pos-4-1)', '(\
free pos-3-2)', '(free pos-5-2)', '(occupied pos-4-2)', '(free pos-6-4)', '(free pos-2-0)', '(free pos-3-0)'})" -> "frozenset({'(free pos-0-2)', '(free pos-4-6)', '(free pos-2-2)', '(free pos-4-0)', '(free pos-2-6)', '(free pos-0-4)', '(free pos-6-2)', '(\
occupied pos-4-4)', '(free pos-1-3)', '(free pos-6-3)', '(free pos-5-3)', '(free pos-3-5)', '(free pos-4-1)', '(free pos-3-2)', '(\
free pos-2-0)', '(free pos-3-0)', '(free pos-4-5)', '(free pos-5-4)', '(free pos-2-1)', '(free pos-3-6)', '(free pos-3-4)', '(free \
pos-1-2)', '(free pos-2-5)', '(free pos-0-3)', '(move-ended)', '(free pos-2-3)', '(free pos-1-4)', '(occupied pos-4-3)', '(free \
pos-3-1)', '(occupied pos-3-3)', '(free pos-5-2)', '(occupied pos-4-2)', '(free pos-6-4)', '(free pos-2-4)'})" [key=0,
action="(end-move pos-3-3)
  PRE: (last-visited pos-3-3)
  ADD: (move-ended)
  DEL: (last-visited pos-3-3)
"];
"frozenset({'(free pos-0-2)', '(free pos-4-5)', '(free pos-4-6)', '(free pos-2-2)', '(free pos-4-0)', '(free pos-5-4)', '(free pos-2-1)', '(\
free pos-3-6)', '(last-visited pos-3-3)', '(free pos-3-4)', '(free pos-2-6)', '(free pos-0-4)', '(free pos-1-2)', '(free pos-2-5)', '(\
free pos-0-3)', '(free pos-2-4)', '(free pos-6-2)', '(free pos-2-3)', '(occupied pos-4-4)', '(free pos-1-4)', '(free pos-1-3)', '(\
free pos-6-3)', '(free pos-5-3)', '(occupied pos-4-3)', '(free pos-3-5)', '(free pos-3-1)', '(occupied pos-3-3)', '(free pos-4-1)', '(\
free pos-3-2)', '(free pos-5-2)', '(occupied pos-4-2)', '(free pos-6-4)', '(free pos-2-0)', '(free pos-3-0)'})" -> "frozenset({'(free pos-0-2)', '(free pos-4-5)', '(free pos-4-6)', '(free pos-3-3)', '(free pos-2-2)', '(free pos-4-0)', '(free pos-5-4)', '(\
free pos-2-1)', '(free pos-3-6)', '(free pos-3-4)', '(free pos-2-6)', '(free pos-0-4)', '(free pos-1-2)', '(free pos-2-5)', '(free \
pos-0-3)', '(free pos-2-3)', '(free pos-6-2)', '(free pos-2-4)', '(last-visited pos-5-3)', '(occupied pos-4-4)', '(free pos-1-4)', '(\
free pos-4-3)', '(free pos-1-3)', '(free pos-6-3)', '(free pos-3-5)', '(free pos-3-1)', '(free pos-4-1)', '(free pos-3-2)', '(free \
pos-5-2)', '(occupied pos-4-2)', '(free pos-6-4)', '(occupied pos-5-3)', '(free pos-2-0)', '(free pos-3-0)'})" [key=0,
action="(jump-continue-move pos-3-3 pos-4-3 pos-5-3)
  PRE: (free pos-5-3)
  PRE: (occupied pos-4-3)
  PRE: (last-visited pos-3-3)
  PRE: (\
occupied pos-3-3)
  ADD: (free pos-4-3)
  ADD: (free pos-3-3)
  ADD: (last-visited pos-5-3)
  ADD: (occupied pos-5-3)
  DEL: (free \
pos-5-3)
  DEL: (occupied pos-4-3)
  DEL: (last-visited pos-3-3)
  DEL: (occupied pos-3-3)
"];
}
