digraph  {
	"frozenset({'(free pos-3-2)', '(occupied pos-4-2)', '(free pos-0-2)', '(free pos-3-0)', '(free pos-2-6)', '(free pos-4-6)', '(free \
pos-4-5)', '(free pos-5-2)', '(free pos-3-4)', '(free pos-6-2)', '(free pos-5-4)', '(last-visited pos-0-3)', '(free pos-1-3)', '(\
free pos-2-3)', '(occupied pos-2-2)', '(free pos-6-4)', '(occupied pos-4-1)', '(free pos-3-5)', '(free pos-1-2)', '(free pos-4-0)', '(\
occupied pos-3-1)', '(free pos-2-0)', '(occupied pos-0-3)', '(free pos-4-3)', '(free pos-5-3)', '(free pos-2-5)', '(free pos-0-4)', '(\
free pos-2-1)', '(occupied pos-4-4)', '(occupied pos-3-3)', '(free pos-2-4)', '(free pos-1-4)', '(free pos-6-3)', '(free pos-3-6)'})"	 [id=3];
	"frozenset({'(occupied pos-4-2)', '(free pos-0-2)', '(free pos-2-6)', '(free pos-6-2)', '(free pos-2-3)', '(occupied pos-2-2)', '(\
free pos-6-4)', '(occupied pos-4-1)', '(free pos-3-5)', '(free pos-1-2)', '(occupied pos-3-1)', '(free pos-2-0)', '(free pos-4-3)', '(\
free pos-2-5)', '(free pos-0-4)', '(occupied pos-3-3)', '(free pos-2-4)', '(free pos-3-6)', '(free pos-3-2)', '(free pos-3-0)', '(\
free pos-4-6)', '(free pos-4-5)', '(free pos-5-2)', '(free pos-3-4)', '(free pos-5-4)', '(move-ended)', '(free pos-1-3)', '(free \
pos-4-0)', '(occupied pos-0-3)', '(free pos-5-3)', '(free pos-2-1)', '(occupied pos-4-4)', '(free pos-1-4)', '(free pos-6-3)'})"	 [id=4];
	"frozenset({'(free pos-3-2)', '(occupied pos-4-2)', '(free pos-0-2)', '(free pos-3-0)', '(free pos-2-6)', '(free pos-4-6)', '(free \
pos-4-5)', '(free pos-5-2)', '(free pos-3-4)', '(free pos-6-2)', '(free pos-5-4)', '(last-visited pos-0-3)', '(free pos-1-3)', '(\
free pos-2-3)', '(occupied pos-2-2)', '(free pos-6-4)', '(occupied pos-4-1)', '(free pos-3-5)', '(free pos-1-2)', '(free pos-4-0)', '(\
occupied pos-3-1)', '(free pos-2-0)', '(occupied pos-0-3)', '(free pos-4-3)', '(free pos-5-3)', '(free pos-2-5)', '(free pos-0-4)', '(\
free pos-2-1)', '(occupied pos-4-4)', '(occupied pos-3-3)', '(free pos-2-4)', '(free pos-1-4)', '(free pos-6-3)', '(free pos-3-6)'})" -> "frozenset({'(occupied pos-4-2)', '(free pos-0-2)', '(free pos-2-6)', '(free pos-6-2)', '(free pos-2-3)', '(occupied pos-2-2)', '(\
free pos-6-4)', '(occupied pos-4-1)', '(free pos-3-5)', '(free pos-1-2)', '(occupied pos-3-1)', '(free pos-2-0)', '(free pos-4-3)', '(\
free pos-2-5)', '(free pos-0-4)', '(occupied pos-3-3)', '(free pos-2-4)', '(free pos-3-6)', '(free pos-3-2)', '(free pos-3-0)', '(\
free pos-4-6)', '(free pos-4-5)', '(free pos-5-2)', '(free pos-3-4)', '(free pos-5-4)', '(move-ended)', '(free pos-1-3)', '(free \
pos-4-0)', '(occupied pos-0-3)', '(free pos-5-3)', '(free pos-2-1)', '(occupied pos-4-4)', '(free pos-1-4)', '(free pos-6-3)'})" [key=0,
	action="(end-move pos-0-3)
  PRE: (last-visited pos-0-3)
  ADD: (move-ended)
  DEL: (last-visited pos-0-3)
"];
"frozenset({'(free pos-3-2)', '(free pos-0-2)', '(free pos-4-1)', '(free pos-3-0)', '(free pos-2-6)', '(free pos-4-6)', '(free pos-4-5)', '(\
free pos-5-2)', '(free pos-3-4)', '(free pos-6-2)', '(occupied pos-4-3)', '(free pos-5-4)', '(free pos-1-3)', '(free pos-2-3)', '(\
occupied pos-2-2)', '(free pos-6-4)', '(free pos-3-5)', '(free pos-1-2)', '(free pos-4-0)', '(last-visited pos-4-3)', '(occupied \
pos-3-1)', '(free pos-2-0)', '(occupied pos-0-3)', '(free pos-5-3)', '(free pos-4-2)', '(free pos-2-5)', '(free pos-0-4)', '(free \
pos-2-1)', '(occupied pos-4-4)', '(occupied pos-3-3)', '(free pos-2-4)', '(free pos-1-4)', '(free pos-6-3)', '(free pos-3-6)'})" [id=6];
"frozenset({'(occupied pos-4-2)', '(free pos-0-2)', '(free pos-2-6)', '(free pos-6-2)', '(free pos-2-3)', '(occupied pos-2-2)', '(\
free pos-6-4)', '(occupied pos-4-1)', '(free pos-3-5)', '(free pos-1-2)', '(occupied pos-3-1)', '(free pos-2-0)', '(free pos-4-3)', '(\
free pos-2-5)', '(free pos-0-4)', '(occupied pos-3-3)', '(free pos-2-4)', '(free pos-3-6)', '(free pos-3-2)', '(free pos-3-0)', '(\
free pos-4-6)', '(free pos-4-5)', '(free pos-5-2)', '(free pos-3-4)', '(free pos-5-4)', '(move-ended)', '(free pos-1-3)', '(free \
pos-4-0)', '(occupied pos-0-3)', '(free pos-5-3)', '(free pos-2-1)', '(occupied pos-4-4)', '(free pos-1-4)', '(free pos-6-3)'})" -> "frozenset({'(free pos-3-2)', '(free pos-0-2)', '(free pos-4-1)', '(free pos-3-0)', '(free pos-2-6)', '(free pos-4-6)', '(free pos-4-5)', '(\
free pos-5-2)', '(free pos-3-4)', '(free pos-6-2)', '(occupied pos-4-3)', '(free pos-5-4)', '(free pos-1-3)', '(free pos-2-3)', '(\
occupied pos-2-2)', '(free pos-6-4)', '(free pos-3-5)', '(free pos-1-2)', '(free pos-4-0)', '(last-visited pos-4-3)', '(occupied \
pos-3-1)', '(free pos-2-0)', '(occupied pos-0-3)', '(free pos-5-3)', '(free pos-4-2)', '(free pos-2-5)', '(free pos-0-4)', '(free \
pos-2-1)', '(occupied pos-4-4)', '(occupied pos-3-3)', '(free pos-2-4)', '(free pos-1-4)', '(free pos-6-3)', '(free pos-3-6)'})" [key=0,
action="(jump-new-move pos-4-1 pos-4-2 pos-4-3)
  PRE: (free pos-4-3)
  PRE: (occupied pos-4-2)
  PRE: (occupied pos-4-1)
  PRE: (move-ended)
  \
ADD: (free pos-4-2)
  ADD: (occupied pos-4-3)
  ADD: (free pos-4-1)
  ADD: (last-visited pos-4-3)
  DEL: (free pos-4-3)
  DEL: (\
occupied pos-4-2)
  DEL: (occupied pos-4-1)
  DEL: (move-ended)
"];
"frozenset({'(free pos-3-2)', '(free pos-0-2)', '(free pos-4-1)', '(free pos-3-0)', '(free pos-2-6)', '(free pos-4-6)', '(free pos-4-5)', '(\
free pos-5-2)', '(free pos-3-4)', '(free pos-6-2)', '(free pos-5-4)', '(free pos-1-3)', '(free pos-2-3)', '(occupied pos-2-2)', '(\
free pos-6-4)', '(occupied pos-4-0)', '(last-visited pos-4-0)', '(free pos-3-5)', '(free pos-1-2)', '(occupied pos-3-1)', '(free \
pos-2-0)', '(occupied pos-0-3)', '(free pos-4-3)', '(free pos-5-3)', '(free pos-2-5)', '(free pos-4-2)', '(free pos-0-4)', '(free \
pos-2-1)', '(occupied pos-4-4)', '(occupied pos-3-3)', '(free pos-2-4)', '(free pos-1-4)', '(free pos-6-3)', '(free pos-3-6)'})" [id=5];
"frozenset({'(occupied pos-4-2)', '(free pos-0-2)', '(free pos-2-6)', '(free pos-6-2)', '(free pos-2-3)', '(occupied pos-2-2)', '(\
free pos-6-4)', '(occupied pos-4-1)', '(free pos-3-5)', '(free pos-1-2)', '(occupied pos-3-1)', '(free pos-2-0)', '(free pos-4-3)', '(\
free pos-2-5)', '(free pos-0-4)', '(occupied pos-3-3)', '(free pos-2-4)', '(free pos-3-6)', '(free pos-3-2)', '(free pos-3-0)', '(\
free pos-4-6)', '(free pos-4-5)', '(free pos-5-2)', '(free pos-3-4)', '(free pos-5-4)', '(move-ended)', '(free pos-1-3)', '(free \
pos-4-0)', '(occupied pos-0-3)', '(free pos-5-3)', '(free pos-2-1)', '(occupied pos-4-4)', '(free pos-1-4)', '(free pos-6-3)'})" -> "frozenset({'(free pos-3-2)', '(free pos-0-2)', '(free pos-4-1)', '(free pos-3-0)', '(free pos-2-6)', '(free pos-4-6)', '(free pos-4-5)', '(\
free pos-5-2)', '(free pos-3-4)', '(free pos-6-2)', '(free pos-5-4)', '(free pos-1-3)', '(free pos-2-3)', '(occupied pos-2-2)', '(\
free pos-6-4)', '(occupied pos-4-0)', '(last-visited pos-4-0)', '(free pos-3-5)', '(free pos-1-2)', '(occupied pos-3-1)', '(free \
pos-2-0)', '(occupied pos-0-3)', '(free pos-4-3)', '(free pos-5-3)', '(free pos-2-5)', '(free pos-4-2)', '(free pos-0-4)', '(free \
pos-2-1)', '(occupied pos-4-4)', '(occupied pos-3-3)', '(free pos-2-4)', '(free pos-1-4)', '(free pos-6-3)', '(free pos-3-6)'})" [key=0,
action="(jump-new-move pos-4-2 pos-4-1 pos-4-0)
  PRE: (free pos-4-0)
  PRE: (occupied pos-4-2)
  PRE: (occupied pos-4-1)
  PRE: (move-ended)
  \
ADD: (occupied pos-4-0)
  ADD: (free pos-4-2)
  ADD: (free pos-4-1)
  ADD: (last-visited pos-4-0)
  DEL: (move-ended)
  DEL: (occupied \
pos-4-2)
  DEL: (free pos-4-0)
  DEL: (occupied pos-4-1)
"];
"frozenset({'(free pos-2-4)', '(free pos-3-2)', '(occupied pos-4-2)', '(free pos-0-2)', '(free pos-3-0)', '(free pos-2-6)', '(free \
pos-4-6)', '(free pos-4-5)', '(free pos-5-2)', '(free pos-3-4)', '(free pos-6-2)', '(free pos-5-4)', '(occupied pos-2-3)', '(occupied \
pos-2-2)', '(free pos-6-4)', '(occupied pos-4-1)', '(free pos-3-5)', '(free pos-1-2)', '(free pos-4-0)', '(occupied pos-3-1)', '(\
free pos-2-0)', '(occupied pos-1-3)', '(free pos-4-3)', '(free pos-5-3)', '(free pos-2-5)', '(free pos-0-4)', '(free pos-2-1)', '(\
occupied pos-4-4)', '(occupied pos-3-3)', '(free pos-1-4)', '(free pos-6-3)', '(free pos-0-3)', '(free pos-3-6)', '(last-visited \
pos-2-3)'})" [id=2];
"frozenset({'(free pos-2-4)', '(free pos-3-2)', '(occupied pos-4-2)', '(free pos-0-2)', '(free pos-3-0)', '(free pos-2-6)', '(free \
pos-4-6)', '(free pos-4-5)', '(free pos-5-2)', '(free pos-3-4)', '(free pos-6-2)', '(free pos-5-4)', '(occupied pos-2-3)', '(occupied \
pos-2-2)', '(free pos-6-4)', '(occupied pos-4-1)', '(free pos-3-5)', '(free pos-1-2)', '(free pos-4-0)', '(occupied pos-3-1)', '(\
free pos-2-0)', '(occupied pos-1-3)', '(free pos-4-3)', '(free pos-5-3)', '(free pos-2-5)', '(free pos-0-4)', '(free pos-2-1)', '(\
occupied pos-4-4)', '(occupied pos-3-3)', '(free pos-1-4)', '(free pos-6-3)', '(free pos-0-3)', '(free pos-3-6)', '(last-visited \
pos-2-3)'})" -> "frozenset({'(free pos-3-2)', '(occupied pos-4-2)', '(free pos-0-2)', '(free pos-3-0)', '(free pos-2-6)', '(free pos-4-6)', '(free \
pos-4-5)', '(free pos-5-2)', '(free pos-3-4)', '(free pos-6-2)', '(free pos-5-4)', '(last-visited pos-0-3)', '(free pos-1-3)', '(\
free pos-2-3)', '(occupied pos-2-2)', '(free pos-6-4)', '(occupied pos-4-1)', '(free pos-3-5)', '(free pos-1-2)', '(free pos-4-0)', '(\
occupied pos-3-1)', '(free pos-2-0)', '(occupied pos-0-3)', '(free pos-4-3)', '(free pos-5-3)', '(free pos-2-5)', '(free pos-0-4)', '(\
free pos-2-1)', '(occupied pos-4-4)', '(occupied pos-3-3)', '(free pos-2-4)', '(free pos-1-4)', '(free pos-6-3)', '(free pos-3-6)'})" [key=0,
action="(jump-continue-move pos-2-3 pos-1-3 pos-0-3)
  PRE: (occupied pos-2-3)
  PRE: (free pos-0-3)
  PRE: (occupied pos-1-3)
  PRE: (last-visited \
pos-2-3)
  ADD: (occupied pos-0-3)
  ADD: (free pos-2-3)
  ADD: (last-visited pos-0-3)
  ADD: (free pos-1-3)
  DEL: (occupied pos-2-3)
  \
DEL: (free pos-0-3)
  DEL: (occupied pos-1-3)
  DEL: (last-visited pos-2-3)
"];
"frozenset({'(free pos-3-2)', '(free pos-0-2)', '(free pos-4-1)', '(free pos-3-0)', '(free pos-4-4)', '(free pos-2-6)', '(free pos-4-6)', '(\
free pos-5-2)', '(free pos-3-4)', '(free pos-6-2)', '(free pos-5-4)', '(free pos-1-3)', '(free pos-2-3)', '(occupied pos-2-2)', '(\
free pos-6-4)', '(free pos-3-5)', '(free pos-1-2)', '(free pos-4-0)', '(occupied pos-3-1)', '(free pos-2-0)', '(free pos-4-2)', '(\
occupied pos-0-3)', '(free pos-5-3)', '(free pos-2-5)', '(free pos-4-3)', '(occupied pos-4-5)', '(free pos-0-4)', '(free pos-2-1)', '(\
free pos-1-4)', '(occupied pos-3-3)', '(free pos-2-4)', '(free pos-6-3)', '(free pos-3-6)', '(last-visited pos-4-5)'})" [id=7];
"frozenset({'(free pos-3-2)', '(free pos-0-2)', '(free pos-4-1)', '(free pos-3-0)', '(free pos-2-6)', '(free pos-4-6)', '(free pos-4-5)', '(\
free pos-5-2)', '(free pos-3-4)', '(free pos-6-2)', '(occupied pos-4-3)', '(free pos-5-4)', '(free pos-1-3)', '(free pos-2-3)', '(\
occupied pos-2-2)', '(free pos-6-4)', '(free pos-3-5)', '(free pos-1-2)', '(free pos-4-0)', '(last-visited pos-4-3)', '(occupied \
pos-3-1)', '(free pos-2-0)', '(occupied pos-0-3)', '(free pos-5-3)', '(free pos-4-2)', '(free pos-2-5)', '(free pos-0-4)', '(free \
pos-2-1)', '(occupied pos-4-4)', '(occupied pos-3-3)', '(free pos-2-4)', '(free pos-1-4)', '(free pos-6-3)', '(free pos-3-6)'})" -> "frozenset({'(free pos-3-2)', '(free pos-0-2)', '(free pos-4-1)', '(free pos-3-0)', '(free pos-4-4)', '(free pos-2-6)', '(free pos-4-6)', '(\
free pos-5-2)', '(free pos-3-4)', '(free pos-6-2)', '(free pos-5-4)', '(free pos-1-3)', '(free pos-2-3)', '(occupied pos-2-2)', '(\
free pos-6-4)', '(free pos-3-5)', '(free pos-1-2)', '(free pos-4-0)', '(occupied pos-3-1)', '(free pos-2-0)', '(free pos-4-2)', '(\
occupied pos-0-3)', '(free pos-5-3)', '(free pos-2-5)', '(free pos-4-3)', '(occupied pos-4-5)', '(free pos-0-4)', '(free pos-2-1)', '(\
free pos-1-4)', '(occupied pos-3-3)', '(free pos-2-4)', '(free pos-6-3)', '(free pos-3-6)', '(last-visited pos-4-5)'})" [key=0,
action="(jump-continue-move pos-4-3 pos-4-4 pos-4-5)
  PRE: (free pos-4-5)
  PRE: (occupied pos-4-3)
  PRE: (occupied pos-4-4)
  PRE: (last-visited \
pos-4-3)
  ADD: (free pos-4-4)
  ADD: (free pos-4-3)
  ADD: (last-visited pos-4-5)
  ADD: (occupied pos-4-5)
  DEL: (occupied pos-4-3)
  \
DEL: (last-visited pos-4-3)
  DEL: (occupied pos-4-4)
  DEL: (free pos-4-5)
"];
"frozenset({'(occupied pos-4-2)', '(free pos-0-2)', '(free pos-2-6)', '(free pos-6-2)', '(free pos-2-3)', '(occupied pos-2-2)', '(\
free pos-6-4)', '(occupied pos-4-1)', '(occupied pos-2-4)', '(free pos-3-5)', '(free pos-1-2)', '(occupied pos-3-1)', '(free pos-2-0)', '(\
occupied pos-1-3)', '(free pos-4-3)', '(free pos-0-4)', '(occupied pos-3-3)', '(free pos-3-6)', '(free pos-3-2)', '(free pos-3-0)', '(\
free pos-4-6)', '(free pos-4-5)', '(free pos-5-2)', '(free pos-3-4)', '(free pos-5-4)', '(move-ended)', '(occupied pos-2-5)', '(\
free pos-4-0)', '(free pos-5-3)', '(free pos-2-1)', '(occupied pos-4-4)', '(free pos-1-4)', '(free pos-6-3)', '(free pos-0-3)'})" [id=0];
"frozenset({'(occupied pos-4-2)', '(free pos-0-2)', '(free pos-2-6)', '(free pos-6-2)', '(free pos-2-3)', '(occupied pos-2-2)', '(\
free pos-6-4)', '(occupied pos-4-1)', '(occupied pos-2-4)', '(free pos-3-5)', '(free pos-1-2)', '(occupied pos-3-1)', '(free pos-2-0)', '(\
occupied pos-1-3)', '(free pos-4-3)', '(free pos-0-4)', '(occupied pos-3-3)', '(free pos-3-6)', '(free pos-3-2)', '(free pos-3-0)', '(\
free pos-4-6)', '(free pos-4-5)', '(free pos-5-2)', '(free pos-3-4)', '(free pos-5-4)', '(move-ended)', '(occupied pos-2-5)', '(\
free pos-4-0)', '(free pos-5-3)', '(free pos-2-1)', '(occupied pos-4-4)', '(free pos-1-4)', '(free pos-6-3)', '(free pos-0-3)'})" -> "frozenset({'(free pos-2-4)', '(free pos-3-2)', '(occupied pos-4-2)', '(free pos-0-2)', '(free pos-3-0)', '(free pos-2-6)', '(free \
pos-4-6)', '(free pos-4-5)', '(free pos-5-2)', '(free pos-3-4)', '(free pos-6-2)', '(free pos-5-4)', '(occupied pos-2-3)', '(occupied \
pos-2-2)', '(free pos-6-4)', '(occupied pos-4-1)', '(free pos-3-5)', '(free pos-1-2)', '(free pos-4-0)', '(occupied pos-3-1)', '(\
free pos-2-0)', '(occupied pos-1-3)', '(free pos-4-3)', '(free pos-5-3)', '(free pos-2-5)', '(free pos-0-4)', '(free pos-2-1)', '(\
occupied pos-4-4)', '(occupied pos-3-3)', '(free pos-1-4)', '(free pos-6-3)', '(free pos-0-3)', '(free pos-3-6)', '(last-visited \
pos-2-3)'})" [key=0,
action="(jump-new-move pos-2-5 pos-2-4 pos-2-3)
  PRE: (free pos-2-3)
  PRE: (occupied pos-2-4)
  PRE: (occupied pos-2-5)
  PRE: (move-ended)
  \
ADD: (occupied pos-2-3)
  ADD: (free pos-2-5)
  ADD: (last-visited pos-2-3)
  ADD: (free pos-2-4)
  DEL: (free pos-2-3)
  DEL: (\
occupied pos-2-5)
  DEL: (move-ended)
  DEL: (occupied pos-2-4)
"];
"frozenset({'(free pos-3-2)', '(free pos-0-2)', '(free pos-4-1)', '(free pos-3-0)', '(free pos-2-6)', '(free pos-4-6)', '(free pos-4-5)', '(\
free pos-5-2)', '(free pos-3-4)', '(free pos-6-2)', '(free pos-5-4)', '(free pos-2-3)', '(occupied pos-2-2)', '(free pos-6-4)', '(\
occupied pos-4-0)', '(occupied pos-2-4)', '(free pos-3-5)', '(free pos-1-2)', '(occupied pos-2-5)', '(last-visited pos-4-0)', '(\
occupied pos-3-1)', '(free pos-2-0)', '(free pos-4-2)', '(occupied pos-1-3)', '(free pos-4-3)', '(free pos-5-3)', '(free pos-0-4)', '(\
free pos-2-1)', '(occupied pos-4-4)', '(occupied pos-3-3)', '(free pos-1-4)', '(free pos-6-3)', '(free pos-0-3)', '(free pos-3-6)'})" [id=1];
"frozenset({'(occupied pos-4-2)', '(free pos-0-2)', '(free pos-2-6)', '(free pos-6-2)', '(free pos-2-3)', '(occupied pos-2-2)', '(\
free pos-6-4)', '(occupied pos-4-1)', '(occupied pos-2-4)', '(free pos-3-5)', '(free pos-1-2)', '(occupied pos-3-1)', '(free pos-2-0)', '(\
occupied pos-1-3)', '(free pos-4-3)', '(free pos-0-4)', '(occupied pos-3-3)', '(free pos-3-6)', '(free pos-3-2)', '(free pos-3-0)', '(\
free pos-4-6)', '(free pos-4-5)', '(free pos-5-2)', '(free pos-3-4)', '(free pos-5-4)', '(move-ended)', '(occupied pos-2-5)', '(\
free pos-4-0)', '(free pos-5-3)', '(free pos-2-1)', '(occupied pos-4-4)', '(free pos-1-4)', '(free pos-6-3)', '(free pos-0-3)'})" -> "frozenset({'(free pos-3-2)', '(free pos-0-2)', '(free pos-4-1)', '(free pos-3-0)', '(free pos-2-6)', '(free pos-4-6)', '(free pos-4-5)', '(\
free pos-5-2)', '(free pos-3-4)', '(free pos-6-2)', '(free pos-5-4)', '(free pos-2-3)', '(occupied pos-2-2)', '(free pos-6-4)', '(\
occupied pos-4-0)', '(occupied pos-2-4)', '(free pos-3-5)', '(free pos-1-2)', '(occupied pos-2-5)', '(last-visited pos-4-0)', '(\
occupied pos-3-1)', '(free pos-2-0)', '(free pos-4-2)', '(occupied pos-1-3)', '(free pos-4-3)', '(free pos-5-3)', '(free pos-0-4)', '(\
free pos-2-1)', '(occupied pos-4-4)', '(occupied pos-3-3)', '(free pos-1-4)', '(free pos-6-3)', '(free pos-0-3)', '(free pos-3-6)'})" [key=0,
action="(jump-new-move pos-4-2 pos-4-1 pos-4-0)
  PRE: (free pos-4-0)
  PRE: (occupied pos-4-2)
  PRE: (occupied pos-4-1)
  PRE: (move-ended)
  \
ADD: (occupied pos-4-0)
  ADD: (free pos-4-2)
  ADD: (free pos-4-1)
  ADD: (last-visited pos-4-0)
  DEL: (move-ended)
  DEL: (occupied \
pos-4-2)
  DEL: (free pos-4-0)
  DEL: (occupied pos-4-1)
"];
"frozenset({'(free pos-0-2)', '(free pos-2-6)', '(free pos-6-2)', '(free pos-2-3)', '(occupied pos-2-2)', '(free pos-6-4)', '(free \
pos-3-5)', '(free pos-1-2)', '(occupied pos-3-1)', '(free pos-2-0)', '(free pos-4-2)', '(free pos-4-3)', '(free pos-2-5)', '(free \
pos-0-4)', '(occupied pos-3-3)', '(free pos-2-4)', '(free pos-3-6)', '(free pos-3-2)', '(free pos-4-1)', '(free pos-3-0)', '(free \
pos-4-4)', '(free pos-4-6)', '(free pos-3-4)', '(free pos-5-2)', '(free pos-5-4)', '(move-ended)', '(free pos-1-3)', '(free pos-4-0)', '(\
occupied pos-0-3)', '(free pos-5-3)', '(occupied pos-4-5)', '(free pos-2-1)', '(free pos-1-4)', '(free pos-6-3)'})" [id=8];
"frozenset({'(free pos-3-2)', '(free pos-0-2)', '(free pos-4-1)', '(free pos-3-0)', '(free pos-4-4)', '(free pos-2-6)', '(free pos-4-6)', '(\
free pos-5-2)', '(free pos-3-4)', '(free pos-6-2)', '(free pos-5-4)', '(free pos-1-3)', '(free pos-2-3)', '(occupied pos-2-2)', '(\
free pos-6-4)', '(free pos-3-5)', '(free pos-1-2)', '(free pos-4-0)', '(occupied pos-3-1)', '(free pos-2-0)', '(free pos-4-2)', '(\
occupied pos-0-3)', '(free pos-5-3)', '(free pos-2-5)', '(free pos-4-3)', '(occupied pos-4-5)', '(free pos-0-4)', '(free pos-2-1)', '(\
free pos-1-4)', '(occupied pos-3-3)', '(free pos-2-4)', '(free pos-6-3)', '(free pos-3-6)', '(last-visited pos-4-5)'})" -> "frozenset({'(free pos-0-2)', '(free pos-2-6)', '(free pos-6-2)', '(free pos-2-3)', '(occupied pos-2-2)', '(free pos-6-4)', '(free \
pos-3-5)', '(free pos-1-2)', '(occupied pos-3-1)', '(free pos-2-0)', '(free pos-4-2)', '(free pos-4-3)', '(free pos-2-5)', '(free \
pos-0-4)', '(occupied pos-3-3)', '(free pos-2-4)', '(free pos-3-6)', '(free pos-3-2)', '(free pos-4-1)', '(free pos-3-0)', '(free \
pos-4-4)', '(free pos-4-6)', '(free pos-3-4)', '(free pos-5-2)', '(free pos-5-4)', '(move-ended)', '(free pos-1-3)', '(free pos-4-0)', '(\
occupied pos-0-3)', '(free pos-5-3)', '(occupied pos-4-5)', '(free pos-2-1)', '(free pos-1-4)', '(free pos-6-3)'})" [key=0,
action="(end-move pos-4-5)
  PRE: (last-visited pos-4-5)
  ADD: (move-ended)
  DEL: (last-visited pos-4-5)
"];
}
