digraph  {
	"frozenset({'(on a d)', '(ontable c)', '(ontable h)', '(clear c)', '(clear e)', '(on f g)', '(ontable g)', '(ontable e)', '(clear \
a)', '(clear b)', '(handempty)', '(on d h)', '(on b f)'})"	 [id=23];
	"frozenset({'(holding e)', '(on a d)', '(ontable c)', '(ontable h)', '(clear c)', '(on f g)', '(clear a)', '(on b f)', '(clear b)', '(\
on d h)', '(ontable g)'})"	 [id=28];
	"frozenset({'(on a d)', '(ontable c)', '(ontable h)', '(clear c)', '(clear e)', '(on f g)', '(ontable g)', '(ontable e)', '(clear \
a)', '(clear b)', '(handempty)', '(on d h)', '(on b f)'})" -> "frozenset({'(holding e)', '(on a d)', '(ontable c)', '(ontable h)', '(clear c)', '(on f g)', '(clear a)', '(on b f)', '(clear b)', '(\
on d h)', '(ontable g)'})" [key=0,
	action="(pick-up e)
  PRE: (clear e)
  PRE: (handempty)
  PRE: (ontable e)
  ADD: (holding e)
  DEL: (clear e)
  DEL: (handempty)
  DEL: (\
ontable e)
"];
"frozenset({'(on a d)', '(ontable h)', '(clear e)', '(on f g)', '(holding c)', '(clear a)', '(ontable e)', '(clear b)', '(on b f)', '(\
on d h)', '(ontable g)'})" [id=27];
"frozenset({'(on a d)', '(ontable c)', '(ontable h)', '(clear c)', '(clear e)', '(on f g)', '(ontable g)', '(ontable e)', '(clear \
a)', '(clear b)', '(handempty)', '(on d h)', '(on b f)'})" -> "frozenset({'(on a d)', '(ontable h)', '(clear e)', '(on f g)', '(holding c)', '(clear a)', '(ontable e)', '(clear b)', '(on b f)', '(\
on d h)', '(ontable g)'})" [key=0,
action="(pick-up c)
  PRE: (handempty)
  PRE: (ontable c)
  PRE: (clear c)
  ADD: (holding c)
  DEL: (handempty)
  DEL: (ontable c)
  DEL: (\
clear c)
"];
"frozenset({'(on a d)', '(ontable c)', '(ontable h)', '(holding b)', '(clear c)', '(clear e)', '(on f g)', '(clear f)', '(clear a)', '(\
ontable e)', '(on d h)', '(ontable g)'})" [id=29];
"frozenset({'(on a d)', '(ontable c)', '(ontable h)', '(clear c)', '(clear e)', '(on f g)', '(ontable g)', '(ontable e)', '(clear \
a)', '(clear b)', '(handempty)', '(on d h)', '(on b f)'})" -> "frozenset({'(on a d)', '(ontable c)', '(ontable h)', '(holding b)', '(clear c)', '(clear e)', '(on f g)', '(clear f)', '(clear a)', '(\
ontable e)', '(on d h)', '(ontable g)'})" [key=0,
action="(unstack b f)
  PRE: (clear b)
  PRE: (handempty)
  PRE: (on b f)
  ADD: (holding b)
  ADD: (clear f)
  DEL: (clear b)
  DEL: (handempty)
  \
DEL: (on b f)
"];
"frozenset({'(holding a)', '(ontable c)', '(ontable h)', '(clear c)', '(clear e)', '(on f g)', '(ontable e)', '(clear b)', '(on b \
f)', '(clear d)', '(on d h)', '(ontable g)'})" [id=17];
"frozenset({'(on a d)', '(ontable c)', '(ontable h)', '(clear c)', '(clear e)', '(on f g)', '(ontable g)', '(ontable e)', '(clear \
a)', '(clear b)', '(handempty)', '(on d h)', '(on b f)'})" -> "frozenset({'(holding a)', '(ontable c)', '(ontable h)', '(clear c)', '(clear e)', '(on f g)', '(ontable e)', '(clear b)', '(on b \
f)', '(clear d)', '(on d h)', '(ontable g)'})" [key=0,
action="(unstack a d)
  PRE: (on a d)
  PRE: (handempty)
  PRE: (clear a)
  ADD: (holding a)
  ADD: (clear d)
  DEL: (on a d)
  DEL: (handempty)
  \
DEL: (clear a)
"];
"frozenset({'(holding e)', '(on a d)', '(ontable h)', '(clear c)', '(on f g)', '(clear a)', '(on b f)', '(on c b)', '(on d h)', '(\
ontable g)'})" [id=37];
"frozenset({'(on b f)', '(holding a)', '(ontable h)', '(clear c)', '(clear e)', '(on f g)', '(ontable e)', '(on c b)', '(clear d)', '(\
on d h)', '(ontable g)'})" [id=38];
"frozenset({'(on a d)', '(ontable h)', '(on b e)', '(clear c)', '(on f g)', '(clear f)', '(clear a)', '(ontable e)', '(on c b)', '(\
handempty)', '(on d h)', '(ontable g)'})" [id=43];
"frozenset({'(on a d)', '(holding g)', '(ontable c)', '(on f a)', '(ontable h)', '(on b e)', '(clear c)', '(clear f)', '(ontable \
e)', '(clear b)', '(on d h)'})" [id=49];
"frozenset({'(on a d)', '(ontable c)', '(on f a)', '(ontable h)', '(on b e)', '(clear g)', '(clear f)', '(on g c)', '(ontable e)', '(\
clear b)', '(handempty)', '(on d h)'})" [id=52];
"frozenset({'(on a d)', '(holding g)', '(ontable c)', '(on f a)', '(ontable h)', '(on b e)', '(clear c)', '(clear f)', '(ontable \
e)', '(clear b)', '(on d h)'})" -> "frozenset({'(on a d)', '(ontable c)', '(on f a)', '(ontable h)', '(on b e)', '(clear g)', '(clear f)', '(on g c)', '(ontable e)', '(\
clear b)', '(handempty)', '(on d h)'})" [key=0,
action="(stack g c)
  PRE: (holding g)
  PRE: (clear c)
  ADD: (handempty)
  ADD: (clear g)
  ADD: (on g c)
  DEL: (holding g)
  DEL: (clear \
c)
"];
"frozenset({'(on g f)', '(on a d)', '(ontable c)', '(on f a)', '(ontable h)', '(on b e)', '(clear c)', '(clear g)', '(ontable e)', '(\
clear b)', '(handempty)', '(on d h)'})" [id=53];
"frozenset({'(on a d)', '(holding g)', '(ontable c)', '(on f a)', '(ontable h)', '(on b e)', '(clear c)', '(clear f)', '(ontable \
e)', '(clear b)', '(on d h)'})" -> "frozenset({'(on g f)', '(on a d)', '(ontable c)', '(on f a)', '(ontable h)', '(on b e)', '(clear c)', '(clear g)', '(ontable e)', '(\
clear b)', '(handempty)', '(on d h)'})" [key=0,
action="(stack g f)
  PRE: (holding g)
  PRE: (clear f)
  ADD: (on g f)
  ADD: (handempty)
  ADD: (clear g)
  DEL: (holding g)
  DEL: (clear \
f)
"];
"frozenset({'(on a d)', '(ontable c)', '(on f a)', '(ontable h)', '(on b e)', '(clear c)', '(clear g)', '(clear f)', '(ontable e)', '(\
clear b)', '(handempty)', '(on d h)', '(ontable g)'})" [id=48];
"frozenset({'(on a d)', '(holding g)', '(ontable c)', '(on f a)', '(ontable h)', '(on b e)', '(clear c)', '(clear f)', '(ontable \
e)', '(clear b)', '(on d h)'})" -> "frozenset({'(on a d)', '(ontable c)', '(on f a)', '(ontable h)', '(on b e)', '(clear c)', '(clear g)', '(clear f)', '(ontable e)', '(\
clear b)', '(handempty)', '(on d h)', '(ontable g)'})" [key=0,
action="(put-down g)
  PRE: (holding g)
  ADD: (handempty)
  ADD: (clear g)
  ADD: (ontable g)
  DEL: (holding g)
"];
"frozenset({'(on a d)', '(ontable c)', '(on g b)', '(on f a)', '(ontable h)', '(on b e)', '(clear c)', '(clear g)', '(clear f)', '(\
ontable e)', '(handempty)', '(on d h)'})" [id=54];
"frozenset({'(on a d)', '(holding g)', '(ontable c)', '(on f a)', '(ontable h)', '(on b e)', '(clear c)', '(clear f)', '(ontable \
e)', '(clear b)', '(on d h)'})" -> "frozenset({'(on a d)', '(ontable c)', '(on g b)', '(on f a)', '(ontable h)', '(on b e)', '(clear c)', '(clear g)', '(clear f)', '(\
ontable e)', '(handempty)', '(on d h)'})" [key=0,
action="(stack g b)
  PRE: (clear b)
  PRE: (holding g)
  ADD: (handempty)
  ADD: (clear g)
  ADD: (on g b)
  DEL: (clear b)
  DEL: (holding \
g)
"];
"frozenset({'(on c d)', '(ontable a)', '(ontable h)', '(clear c)', '(clear e)', '(on f g)', '(clear a)', '(ontable e)', '(ontable \
g)', '(clear b)', '(handempty)', '(on d h)', '(on b f)'})" [id=19];
"frozenset({'(on a d)', '(on f a)', '(ontable h)', '(on b e)', '(on c f)', '(clear c)', '(clear g)', '(ontable e)', '(clear b)', '(\
handempty)', '(on d h)', '(ontable g)'})" [id=69];
"frozenset({'(ontable b)', '(on a d)', '(clear b)', '(ontable c)', '(on f a)', '(ontable h)', '(on e c)', '(clear e)', '(clear g)', '(\
on g f)', '(handempty)', '(on d h)'})" [id=76];
"frozenset({'(on a d)', '(ontable c)', '(ontable h)', '(clear e)', '(on f g)', '(clear f)', '(clear a)', '(ontable e)', '(on b c)', '(\
clear b)', '(handempty)', '(on d h)', '(ontable g)'})" [id=34];
"frozenset({'(on a d)', '(handempty)', '(on c b)', '(on f a)', '(on g f)', '(ontable h)', '(on b e)', '(on e g)', '(on d h)', '(clear \
c)'})" [id=85];
"frozenset({'(on a d)', '(ontable h)', '(on b e)', '(clear c)', '(on f g)', '(on c a)', '(clear f)', '(ontable e)', '(clear b)', '(\
handempty)', '(on d h)', '(ontable g)'})" [id=44];
"frozenset({'(on a d)', '(on f a)', '(ontable h)', '(on b e)', '(clear g)', '(clear f)', '(holding c)', '(ontable e)', '(clear b)', '(\
on d h)', '(ontable g)'})" [id=50];
"frozenset({'(on a d)', '(on f a)', '(ontable h)', '(on b e)', '(clear g)', '(clear f)', '(holding c)', '(ontable e)', '(clear b)', '(\
on d h)', '(ontable g)'})" -> "frozenset({'(on a d)', '(on f a)', '(ontable h)', '(on b e)', '(on c f)', '(clear c)', '(clear g)', '(ontable e)', '(clear b)', '(\
handempty)', '(on d h)', '(ontable g)'})" [key=0,
action="(stack c f)
  PRE: (holding c)
  PRE: (clear f)
  ADD: (handempty)
  ADD: (on c f)
  ADD: (clear c)
  DEL: (holding c)
  DEL: (clear \
f)
"];
"frozenset({'(on a d)', '(on f a)', '(ontable h)', '(on b e)', '(clear c)', '(clear g)', '(clear f)', '(ontable e)', '(on c b)', '(\
handempty)', '(on d h)', '(ontable g)'})" [id=64];
"frozenset({'(on a d)', '(on f a)', '(ontable h)', '(on b e)', '(clear g)', '(clear f)', '(holding c)', '(ontable e)', '(clear b)', '(\
on d h)', '(ontable g)'})" -> "frozenset({'(on a d)', '(on f a)', '(ontable h)', '(on b e)', '(clear c)', '(clear g)', '(clear f)', '(ontable e)', '(on c b)', '(\
handempty)', '(on d h)', '(ontable g)'})" [key=0,
action="(stack c b)
  PRE: (clear b)
  PRE: (holding c)
  ADD: (on c b)
  ADD: (handempty)
  ADD: (clear c)
  DEL: (clear b)
  DEL: (holding \
c)
"];
"frozenset({'(on a d)', '(on f a)', '(ontable h)', '(on b e)', '(on c g)', '(clear c)', '(clear f)', '(ontable e)', '(clear b)', '(\
handempty)', '(on d h)', '(ontable g)'})" [id=68];
"frozenset({'(on a d)', '(on f a)', '(ontable h)', '(on b e)', '(clear g)', '(clear f)', '(holding c)', '(ontable e)', '(clear b)', '(\
on d h)', '(ontable g)'})" -> "frozenset({'(on a d)', '(on f a)', '(ontable h)', '(on b e)', '(on c g)', '(clear c)', '(clear f)', '(ontable e)', '(clear b)', '(\
handempty)', '(on d h)', '(ontable g)'})" [key=0,
action="(stack c g)
  PRE: (holding c)
  PRE: (clear g)
  ADD: (handempty)
  ADD: (on c g)
  ADD: (clear c)
  DEL: (clear g)
  DEL: (holding \
c)
"];
"frozenset({'(on a d)', '(on f a)', '(ontable h)', '(on b e)', '(clear g)', '(clear f)', '(holding c)', '(ontable e)', '(clear b)', '(\
on d h)', '(ontable g)'})" -> "frozenset({'(on a d)', '(ontable c)', '(on f a)', '(ontable h)', '(on b e)', '(clear c)', '(clear g)', '(clear f)', '(ontable e)', '(\
clear b)', '(handempty)', '(on d h)', '(ontable g)'})" [key=0,
action="(put-down c)
  PRE: (holding c)
  ADD: (handempty)
  ADD: (ontable c)
  ADD: (clear c)
  DEL: (holding c)
"];
"frozenset({'(ontable c)', '(ontable a)', '(ontable h)', '(on d a)', '(clear h)', '(clear c)', '(clear e)', '(on f g)', '(ontable \
g)', '(ontable e)', '(clear b)', '(handempty)', '(clear d)', '(on b f)'})" [id=14];
"frozenset({'(ontable b)', '(on a d)', '(clear b)', '(on c e)', '(on f a)', '(ontable h)', '(clear c)', '(clear g)', '(ontable e)', '(\
on g f)', '(handempty)', '(on d h)'})" [id=73];
"frozenset({'(ontable c)', '(ontable h)', '(on d b)', '(clear c)', '(clear e)', '(on f g)', '(on a h)', '(ontable g)', '(ontable \
e)', '(clear a)', '(handempty)', '(clear d)', '(on b f)'})" [id=7];
"frozenset({'(on a d)', '(holding g)', '(on f a)', '(ontable h)', '(on b e)', '(clear c)', '(clear f)', '(ontable e)', '(on c b)', '(\
on d h)'})" [id=59];
"frozenset({'(on a d)', '(on f a)', '(ontable h)', '(on b e)', '(clear c)', '(clear g)', '(ontable e)', '(on g f)', '(on c b)', '(\
handempty)', '(on d h)'})" [id=58];
"frozenset({'(on a d)', '(holding g)', '(on f a)', '(ontable h)', '(on b e)', '(clear c)', '(clear f)', '(ontable e)', '(on c b)', '(\
on d h)'})" -> "frozenset({'(on a d)', '(on f a)', '(ontable h)', '(on b e)', '(clear c)', '(clear g)', '(ontable e)', '(on g f)', '(on c b)', '(\
handempty)', '(on d h)'})" [key=0,
action="(stack g f)
  PRE: (holding g)
  PRE: (clear f)
  ADD: (on g f)
  ADD: (handempty)
  ADD: (clear g)
  DEL: (holding g)
  DEL: (clear \
f)
"];
"frozenset({'(on a d)', '(holding g)', '(on f a)', '(ontable h)', '(on b e)', '(clear c)', '(clear f)', '(ontable e)', '(on c b)', '(\
on d h)'})" -> "frozenset({'(on a d)', '(on f a)', '(ontable h)', '(on b e)', '(clear c)', '(clear g)', '(clear f)', '(ontable e)', '(on c b)', '(\
handempty)', '(on d h)', '(ontable g)'})" [key=0,
action="(put-down g)
  PRE: (holding g)
  ADD: (handempty)
  ADD: (clear g)
  ADD: (ontable g)
  DEL: (holding g)
"];
"frozenset({'(on a d)', '(on f a)', '(ontable h)', '(on b e)', '(clear g)', '(clear f)', '(on g c)', '(ontable e)', '(on c b)', '(\
handempty)', '(on d h)'})" [id=65];
"frozenset({'(on a d)', '(holding g)', '(on f a)', '(ontable h)', '(on b e)', '(clear c)', '(clear f)', '(ontable e)', '(on c b)', '(\
on d h)'})" -> "frozenset({'(on a d)', '(on f a)', '(ontable h)', '(on b e)', '(clear g)', '(clear f)', '(on g c)', '(ontable e)', '(on c b)', '(\
handempty)', '(on d h)'})" [key=0,
action="(stack g c)
  PRE: (holding g)
  PRE: (clear c)
  ADD: (handempty)
  ADD: (clear g)
  ADD: (on g c)
  DEL: (holding g)
  DEL: (clear \
c)
"];
"frozenset({'(on a d)', '(ontable c)', '(on f a)', '(ontable h)', '(holding b)', '(clear c)', '(clear e)', '(clear g)', '(clear f)', '(\
ontable e)', '(on d h)', '(ontable g)'})" [id=51];
"frozenset({'(ontable b)', '(on a d)', '(ontable c)', '(ontable h)', '(clear c)', '(clear e)', '(on f g)', '(clear f)', '(clear a)', '(\
ontable e)', '(clear b)', '(handempty)', '(on d h)', '(ontable g)'})" [id=33];
"frozenset({'(ontable c)', '(ontable d)', '(ontable a)', '(ontable h)', '(clear h)', '(clear c)', '(clear e)', '(on f g)', '(clear \
a)', '(ontable e)', '(ontable g)', '(clear b)', '(handempty)', '(clear d)', '(on b f)'})" [id=10];
"frozenset({'(ontable c)', '(ontable a)', '(ontable h)', '(clear h)', '(clear e)', '(on f g)', '(on d c)', '(clear a)', '(ontable \
e)', '(ontable g)', '(clear b)', '(handempty)', '(clear d)', '(on b f)'})" [id=12];
"frozenset({'(on a d)', '(on f a)', '(ontable h)', '(on b e)', '(clear c)', '(clear g)', '(ontable e)', '(on g f)', '(on c b)', '(\
handempty)', '(on d h)'})" -> "frozenset({'(on a d)', '(holding g)', '(on f a)', '(ontable h)', '(on b e)', '(clear c)', '(clear f)', '(ontable e)', '(on c b)', '(\
on d h)'})" [key=0,
action="(unstack g f)
  PRE: (on g f)
  PRE: (handempty)
  PRE: (clear g)
  ADD: (holding g)
  ADD: (clear f)
  DEL: (on g f)
  DEL: (handempty)
  \
DEL: (clear g)
"];
"frozenset({'(clear b)', '(on a d)', '(on f a)', '(ontable h)', '(on b e)', '(clear g)', '(holding c)', '(ontable e)', '(on g f)', '(\
on d h)'})" [id=55];
"frozenset({'(on a d)', '(on f a)', '(ontable h)', '(on b e)', '(clear c)', '(clear g)', '(ontable e)', '(on g f)', '(on c b)', '(\
handempty)', '(on d h)'})" -> "frozenset({'(clear b)', '(on a d)', '(on f a)', '(ontable h)', '(on b e)', '(clear g)', '(holding c)', '(ontable e)', '(on g f)', '(\
on d h)'})" [key=0,
action="(unstack c b)
  PRE: (on c b)
  PRE: (handempty)
  PRE: (clear c)
  ADD: (clear b)
  ADD: (holding c)
  DEL: (on c b)
  DEL: (handempty)
  \
DEL: (clear c)
"];
"frozenset({'(clear b)', '(on a d)', '(ontable c)', '(on f a)', '(ontable h)', '(on e g)', '(clear e)', '(on b c)', '(on g f)', '(\
handempty)', '(on d h)'})" [id=82];
"frozenset({'(on g f)', '(on a d)', '(ontable c)', '(on f a)', '(ontable h)', '(on b e)', '(clear c)', '(clear g)', '(ontable e)', '(\
clear b)', '(handempty)', '(on d h)'})" -> "frozenset({'(on a d)', '(holding g)', '(ontable c)', '(on f a)', '(ontable h)', '(on b e)', '(clear c)', '(clear f)', '(ontable \
e)', '(clear b)', '(on d h)'})" [key=0,
action="(unstack g f)
  PRE: (on g f)
  PRE: (handempty)
  PRE: (clear g)
  ADD: (holding g)
  ADD: (clear f)
  DEL: (on g f)
  DEL: (handempty)
  \
DEL: (clear g)
"];
"frozenset({'(on g f)', '(on a d)', '(ontable c)', '(on f a)', '(ontable h)', '(on b e)', '(clear c)', '(clear g)', '(ontable e)', '(\
clear b)', '(handempty)', '(on d h)'})" -> "frozenset({'(clear b)', '(on a d)', '(on f a)', '(ontable h)', '(on b e)', '(clear g)', '(holding c)', '(ontable e)', '(on g f)', '(\
on d h)'})" [key=0,
action="(pick-up c)
  PRE: (handempty)
  PRE: (ontable c)
  PRE: (clear c)
  ADD: (holding c)
  DEL: (handempty)
  DEL: (ontable c)
  DEL: (\
clear c)
"];
"frozenset({'(on a d)', '(ontable c)', '(on f a)', '(ontable h)', '(holding b)', '(clear c)', '(clear e)', '(clear g)', '(ontable \
e)', '(on g f)', '(on d h)'})" [id=56];
"frozenset({'(on g f)', '(on a d)', '(ontable c)', '(on f a)', '(ontable h)', '(on b e)', '(clear c)', '(clear g)', '(ontable e)', '(\
clear b)', '(handempty)', '(on d h)'})" -> "frozenset({'(on a d)', '(ontable c)', '(on f a)', '(ontable h)', '(holding b)', '(clear c)', '(clear e)', '(clear g)', '(ontable \
e)', '(on g f)', '(on d h)'})" [key=0,
action="(unstack b e)
  PRE: (clear b)
  PRE: (handempty)
  PRE: (on b e)
  ADD: (clear e)
  ADD: (holding b)
  DEL: (clear b)
  DEL: (handempty)
  \
DEL: (on b e)
"];
"frozenset({'(ontable c)', '(ontable a)', '(ontable h)', '(clear c)', '(clear e)', '(on f g)', '(clear a)', '(ontable e)', '(ontable \
g)', '(clear b)', '(handempty)', '(clear d)', '(on d h)', '(on b f)'})" [id=11];
"frozenset({'(holding e)', '(ontable c)', '(ontable a)', '(ontable h)', '(clear c)', '(on f g)', '(clear a)', '(on b f)', '(clear \
b)', '(clear d)', '(on d h)', '(ontable g)'})" [id=16];
"frozenset({'(ontable c)', '(ontable a)', '(ontable h)', '(clear c)', '(clear e)', '(on f g)', '(clear a)', '(ontable e)', '(ontable \
g)', '(clear b)', '(handempty)', '(clear d)', '(on d h)', '(on b f)'})" -> "frozenset({'(holding e)', '(ontable c)', '(ontable a)', '(ontable h)', '(clear c)', '(on f g)', '(clear a)', '(on b f)', '(clear \
b)', '(clear d)', '(on d h)', '(ontable g)'})" [key=0,
action="(pick-up e)
  PRE: (clear e)
  PRE: (handempty)
  PRE: (ontable e)
  ADD: (holding e)
  DEL: (clear e)
  DEL: (handempty)
  DEL: (\
ontable e)
"];
"frozenset({'(ontable a)', '(ontable h)', '(clear e)', '(on f g)', '(holding c)', '(clear a)', '(ontable e)', '(clear b)', '(on b \
f)', '(clear d)', '(on d h)', '(ontable g)'})" [id=15];
"frozenset({'(ontable c)', '(ontable a)', '(ontable h)', '(clear c)', '(clear e)', '(on f g)', '(clear a)', '(ontable e)', '(ontable \
g)', '(clear b)', '(handempty)', '(clear d)', '(on d h)', '(on b f)'})" -> "frozenset({'(ontable a)', '(ontable h)', '(clear e)', '(on f g)', '(holding c)', '(clear a)', '(ontable e)', '(clear b)', '(on b \
f)', '(clear d)', '(on d h)', '(ontable g)'})" [key=0,
action="(pick-up c)
  PRE: (handempty)
  PRE: (ontable c)
  PRE: (clear c)
  ADD: (holding c)
  DEL: (handempty)
  DEL: (ontable c)
  DEL: (\
clear c)
"];
"frozenset({'(ontable c)', '(ontable a)', '(ontable h)', '(clear h)', '(clear c)', '(clear e)', '(on f g)', '(holding d)', '(clear \
a)', '(ontable e)', '(clear b)', '(on b f)', '(ontable g)'})" [id=5];
"frozenset({'(ontable c)', '(ontable a)', '(ontable h)', '(clear c)', '(clear e)', '(on f g)', '(clear a)', '(ontable e)', '(ontable \
g)', '(clear b)', '(handempty)', '(clear d)', '(on d h)', '(on b f)'})" -> "frozenset({'(ontable c)', '(ontable a)', '(ontable h)', '(clear h)', '(clear c)', '(clear e)', '(on f g)', '(holding d)', '(clear \
a)', '(ontable e)', '(clear b)', '(on b f)', '(ontable g)'})" [key=0,
action="(unstack d h)
  PRE: (handempty)
  PRE: (clear d)
  PRE: (on d h)
  ADD: (holding d)
  ADD: (clear h)
  DEL: (handempty)
  DEL: (\
clear d)
  DEL: (on d h)
"];
"frozenset({'(ontable c)', '(ontable a)', '(ontable h)', '(holding b)', '(clear c)', '(clear e)', '(on f g)', '(clear f)', '(clear \
a)', '(ontable e)', '(clear d)', '(on d h)', '(ontable g)'})" [id=18];
"frozenset({'(ontable c)', '(ontable a)', '(ontable h)', '(clear c)', '(clear e)', '(on f g)', '(clear a)', '(ontable e)', '(ontable \
g)', '(clear b)', '(handempty)', '(clear d)', '(on d h)', '(on b f)'})" -> "frozenset({'(ontable c)', '(ontable a)', '(ontable h)', '(holding b)', '(clear c)', '(clear e)', '(on f g)', '(clear f)', '(clear \
a)', '(ontable e)', '(clear d)', '(on d h)', '(ontable g)'})" [key=0,
action="(unstack b f)
  PRE: (clear b)
  PRE: (handempty)
  PRE: (on b f)
  ADD: (holding b)
  ADD: (clear f)
  DEL: (clear b)
  DEL: (handempty)
  \
DEL: (on b f)
"];
"frozenset({'(ontable c)', '(ontable a)', '(ontable h)', '(clear c)', '(clear e)', '(on f g)', '(clear a)', '(ontable e)', '(ontable \
g)', '(clear b)', '(handempty)', '(clear d)', '(on d h)', '(on b f)'})" -> "frozenset({'(holding a)', '(ontable c)', '(ontable h)', '(clear c)', '(clear e)', '(on f g)', '(ontable e)', '(clear b)', '(on b \
f)', '(clear d)', '(on d h)', '(ontable g)'})" [key=0,
action="(pick-up a)
  PRE: (ontable a)
  PRE: (handempty)
  PRE: (clear a)
  ADD: (holding a)
  DEL: (ontable a)
  DEL: (handempty)
  DEL: (\
clear a)
"];
"frozenset({'(ontable a)', '(ontable h)', '(clear c)', '(clear e)', '(on f g)', '(on c a)', '(ontable g)', '(ontable e)', '(clear \
b)', '(handempty)', '(clear d)', '(on d h)', '(on b f)'})" [id=22];
"frozenset({'(on a d)', '(ontable h)', '(clear c)', '(clear e)', '(on f g)', '(clear a)', '(ontable e)', '(ontable g)', '(on c b)', '(\
handempty)', '(on d h)', '(on b f)'})" [id=31];
"frozenset({'(on a d)', '(ontable h)', '(clear c)', '(clear e)', '(on f g)', '(clear a)', '(ontable e)', '(ontable g)', '(on c b)', '(\
handempty)', '(on d h)', '(on b f)'})" -> "frozenset({'(holding e)', '(on a d)', '(ontable h)', '(clear c)', '(on f g)', '(clear a)', '(on b f)', '(on c b)', '(on d h)', '(\
ontable g)'})" [key=0,
action="(pick-up e)
  PRE: (clear e)
  PRE: (handempty)
  PRE: (ontable e)
  ADD: (holding e)
  DEL: (clear e)
  DEL: (handempty)
  DEL: (\
ontable e)
"];
"frozenset({'(on a d)', '(ontable h)', '(clear c)', '(clear e)', '(on f g)', '(clear a)', '(ontable e)', '(ontable g)', '(on c b)', '(\
handempty)', '(on d h)', '(on b f)'})" -> "frozenset({'(on b f)', '(holding a)', '(ontable h)', '(clear c)', '(clear e)', '(on f g)', '(ontable e)', '(on c b)', '(clear d)', '(\
on d h)', '(ontable g)'})" [key=0,
action="(unstack a d)
  PRE: (on a d)
  PRE: (handempty)
  PRE: (clear a)
  ADD: (holding a)
  ADD: (clear d)
  DEL: (on a d)
  DEL: (handempty)
  \
DEL: (clear a)
"];
"frozenset({'(on a d)', '(ontable h)', '(clear c)', '(clear e)', '(on f g)', '(clear a)', '(ontable e)', '(ontable g)', '(on c b)', '(\
handempty)', '(on d h)', '(on b f)'})" -> "frozenset({'(on a d)', '(ontable h)', '(clear e)', '(on f g)', '(holding c)', '(clear a)', '(ontable e)', '(clear b)', '(on b f)', '(\
on d h)', '(ontable g)'})" [key=0,
action="(unstack c b)
  PRE: (on c b)
  PRE: (handempty)
  PRE: (clear c)
  ADD: (clear b)
  ADD: (holding c)
  DEL: (on c b)
  DEL: (handempty)
  \
DEL: (clear c)
"];
"frozenset({'(on a d)', '(ontable h)', '(clear e)', '(on f g)', '(holding c)', '(clear a)', '(ontable e)', '(clear b)', '(on b f)', '(\
on d h)', '(ontable g)'})" -> "frozenset({'(on a d)', '(ontable h)', '(clear c)', '(clear e)', '(on f g)', '(clear a)', '(ontable e)', '(ontable g)', '(on c b)', '(\
handempty)', '(on d h)', '(on b f)'})" [key=0,
action="(stack c b)
  PRE: (clear b)
  PRE: (holding c)
  ADD: (on c b)
  ADD: (handempty)
  ADD: (clear c)
  DEL: (clear b)
  DEL: (holding \
c)
"];
"frozenset({'(on a d)', '(on c e)', '(ontable h)', '(clear c)', '(on f g)', '(clear a)', '(ontable e)', '(ontable g)', '(clear b)', '(\
handempty)', '(on d h)', '(on b f)'})" [id=30];
"frozenset({'(on a d)', '(ontable h)', '(clear e)', '(on f g)', '(holding c)', '(clear a)', '(ontable e)', '(clear b)', '(on b f)', '(\
on d h)', '(ontable g)'})" -> "frozenset({'(on a d)', '(on c e)', '(ontable h)', '(clear c)', '(on f g)', '(clear a)', '(ontable e)', '(ontable g)', '(clear b)', '(\
handempty)', '(on d h)', '(on b f)'})" [key=0,
action="(stack c e)
  PRE: (clear e)
  PRE: (holding c)
  ADD: (handempty)
  ADD: (on c e)
  ADD: (clear c)
  DEL: (clear e)
  DEL: (holding \
c)
"];
"frozenset({'(on a d)', '(ontable h)', '(clear c)', '(clear e)', '(on f g)', '(on c a)', '(ontable g)', '(ontable e)', '(clear b)', '(\
handempty)', '(on d h)', '(on b f)'})" [id=32];
"frozenset({'(on a d)', '(ontable h)', '(clear e)', '(on f g)', '(holding c)', '(clear a)', '(ontable e)', '(clear b)', '(on b f)', '(\
on d h)', '(ontable g)'})" -> "frozenset({'(on a d)', '(ontable h)', '(clear c)', '(clear e)', '(on f g)', '(on c a)', '(ontable g)', '(ontable e)', '(clear b)', '(\
handempty)', '(on d h)', '(on b f)'})" [key=0,
action="(stack c a)
  PRE: (holding c)
  PRE: (clear a)
  ADD: (handempty)
  ADD: (on c a)
  ADD: (clear c)
  DEL: (holding c)
  DEL: (clear \
a)
"];
"frozenset({'(on a d)', '(ontable h)', '(clear e)', '(on f g)', '(holding c)', '(clear a)', '(ontable e)', '(clear b)', '(on b f)', '(\
on d h)', '(ontable g)'})" -> "frozenset({'(on a d)', '(ontable c)', '(ontable h)', '(clear c)', '(clear e)', '(on f g)', '(clear a)', '(ontable e)', '(ontable \
g)', '(clear b)', '(handempty)', '(on d h)', '(on b f)'})" [key=0,
action="(put-down c)
  PRE: (holding c)
  ADD: (handempty)
  ADD: (ontable c)
  ADD: (clear c)
  DEL: (holding c)
"];
"frozenset({'(on a d)', '(ontable c)', '(ontable h)', '(holding b)', '(clear c)', '(clear e)', '(on f g)', '(clear f)', '(clear a)', '(\
ontable e)', '(on d h)', '(ontable g)'})" -> "frozenset({'(on a d)', '(ontable c)', '(ontable h)', '(clear e)', '(on f g)', '(clear f)', '(clear a)', '(ontable e)', '(on b c)', '(\
clear b)', '(handempty)', '(on d h)', '(ontable g)'})" [key=0,
action="(stack b c)
  PRE: (holding b)
  PRE: (clear c)
  ADD: (on b c)
  ADD: (clear b)
  ADD: (handempty)
  DEL: (holding b)
  DEL: (clear \
c)
"];
"frozenset({'(on a d)', '(ontable c)', '(ontable h)', '(holding b)', '(clear c)', '(clear e)', '(on f g)', '(clear f)', '(clear a)', '(\
ontable e)', '(on d h)', '(ontable g)'})" -> "frozenset({'(ontable b)', '(on a d)', '(ontable c)', '(ontable h)', '(clear c)', '(clear e)', '(on f g)', '(clear f)', '(clear a)', '(\
ontable e)', '(clear b)', '(handempty)', '(on d h)', '(ontable g)'})" [key=0,
action="(put-down b)
  PRE: (holding b)
  ADD: (ontable b)
  ADD: (clear b)
  ADD: (handempty)
  DEL: (holding b)
"];
"frozenset({'(on a d)', '(ontable c)', '(ontable h)', '(clear c)', '(on b a)', '(clear e)', '(on f g)', '(clear f)', '(ontable e)', '(\
clear b)', '(handempty)', '(on d h)', '(ontable g)'})" [id=36];
"frozenset({'(on a d)', '(ontable c)', '(ontable h)', '(holding b)', '(clear c)', '(clear e)', '(on f g)', '(clear f)', '(clear a)', '(\
ontable e)', '(on d h)', '(ontable g)'})" -> "frozenset({'(on a d)', '(ontable c)', '(ontable h)', '(clear c)', '(on b a)', '(clear e)', '(on f g)', '(clear f)', '(ontable e)', '(\
clear b)', '(handempty)', '(on d h)', '(ontable g)'})" [key=0,
action="(stack b a)
  PRE: (holding b)
  PRE: (clear a)
  ADD: (on b a)
  ADD: (clear b)
  ADD: (handempty)
  DEL: (holding b)
  DEL: (clear \
a)
"];
"frozenset({'(on a d)', '(ontable c)', '(ontable h)', '(on b e)', '(clear c)', '(on f g)', '(clear f)', '(clear a)', '(ontable e)', '(\
clear b)', '(handempty)', '(on d h)', '(ontable g)'})" [id=35];
"frozenset({'(on a d)', '(ontable c)', '(ontable h)', '(holding b)', '(clear c)', '(clear e)', '(on f g)', '(clear f)', '(clear a)', '(\
ontable e)', '(on d h)', '(ontable g)'})" -> "frozenset({'(on a d)', '(ontable c)', '(ontable h)', '(on b e)', '(clear c)', '(on f g)', '(clear f)', '(clear a)', '(ontable e)', '(\
clear b)', '(handempty)', '(on d h)', '(ontable g)'})" [key=0,
action="(stack b e)
  PRE: (clear e)
  PRE: (holding b)
  ADD: (clear b)
  ADD: (handempty)
  ADD: (on b e)
  DEL: (clear e)
  DEL: (holding \
b)
"];
"frozenset({'(on a d)', '(ontable c)', '(ontable h)', '(holding b)', '(clear c)', '(clear e)', '(on f g)', '(clear f)', '(clear a)', '(\
ontable e)', '(on d h)', '(ontable g)'})" -> "frozenset({'(on a d)', '(ontable c)', '(ontable h)', '(clear c)', '(clear e)', '(on f g)', '(clear a)', '(ontable e)', '(clear b)', '(\
on b f)', '(handempty)', '(on d h)', '(ontable g)'})" [key=0,
action="(stack b f)
  PRE: (clear f)
  PRE: (holding b)
  ADD: (clear b)
  ADD: (handempty)
  ADD: (on b f)
  DEL: (clear f)
  DEL: (holding \
b)
"];
"frozenset({'(holding a)', '(ontable c)', '(ontable h)', '(on b e)', '(clear c)', '(on f g)', '(clear f)', '(ontable e)', '(clear \
b)', '(clear d)', '(on d h)', '(ontable g)'})" [id=41];
"frozenset({'(on a d)', '(ontable c)', '(ontable h)', '(on d b)', '(clear h)', '(clear c)', '(clear e)', '(on f g)', '(ontable g)', '(\
ontable e)', '(clear a)', '(handempty)', '(on b f)'})" [id=6];
"frozenset({'(ontable b)', '(on a d)', '(on g f)', '(on f a)', '(ontable h)', '(on e g)', '(clear e)', '(holding c)', '(clear b)', '(\
on d h)'})" [id=78];
"frozenset({'(ontable b)', '(on a d)', '(clear b)', '(on c e)', '(on f a)', '(ontable h)', '(on e g)', '(clear c)', '(on g f)', '(\
handempty)', '(on d h)'})" [id=80];
"frozenset({'(ontable b)', '(on a d)', '(on g f)', '(on f a)', '(ontable h)', '(on e g)', '(clear e)', '(holding c)', '(clear b)', '(\
on d h)'})" -> "frozenset({'(ontable b)', '(on a d)', '(clear b)', '(on c e)', '(on f a)', '(ontable h)', '(on e g)', '(clear c)', '(on g f)', '(\
handempty)', '(on d h)'})" [key=0,
action="(stack c e)
  PRE: (clear e)
  PRE: (holding c)
  ADD: (handempty)
  ADD: (on c e)
  ADD: (clear c)
  DEL: (clear e)
  DEL: (holding \
c)
"];
"frozenset({'(ontable b)', '(on a d)', '(on f a)', '(ontable h)', '(on e g)', '(clear c)', '(clear e)', '(on g f)', '(on c b)', '(\
handempty)', '(on d h)'})" [id=81];
"frozenset({'(ontable b)', '(on a d)', '(on g f)', '(on f a)', '(ontable h)', '(on e g)', '(clear e)', '(holding c)', '(clear b)', '(\
on d h)'})" -> "frozenset({'(ontable b)', '(on a d)', '(on f a)', '(ontable h)', '(on e g)', '(clear c)', '(clear e)', '(on g f)', '(on c b)', '(\
handempty)', '(on d h)'})" [key=0,
action="(stack c b)
  PRE: (clear b)
  PRE: (holding c)
  ADD: (on c b)
  ADD: (handempty)
  ADD: (clear c)
  DEL: (clear b)
  DEL: (holding \
c)
"];
"frozenset({'(ontable b)', '(on a d)', '(clear b)', '(ontable c)', '(on f a)', '(ontable h)', '(on e g)', '(clear c)', '(clear e)', '(\
on g f)', '(handempty)', '(on d h)'})" [id=75];
"frozenset({'(ontable b)', '(on a d)', '(on g f)', '(on f a)', '(ontable h)', '(on e g)', '(clear e)', '(holding c)', '(clear b)', '(\
on d h)'})" -> "frozenset({'(ontable b)', '(on a d)', '(clear b)', '(ontable c)', '(on f a)', '(ontable h)', '(on e g)', '(clear c)', '(clear e)', '(\
on g f)', '(handempty)', '(on d h)'})" [key=0,
action="(put-down c)
  PRE: (holding c)
  ADD: (handempty)
  ADD: (ontable c)
  ADD: (clear c)
  DEL: (holding c)
"];
"frozenset({'(ontable a)', '(ontable h)', '(clear c)', '(clear e)', '(on f g)', '(clear a)', '(ontable e)', '(ontable g)', '(on c \
b)', '(handempty)', '(clear d)', '(on d h)', '(on b f)'})" [id=21];
"frozenset({'(on a d)', '(ontable c)', '(on f c)', '(ontable h)', '(on b e)', '(clear g)', '(clear f)', '(clear a)', '(ontable e)', '(\
clear b)', '(handempty)', '(on d h)', '(ontable g)'})" [id=46];
"frozenset({'(clear b)', '(on a d)', '(ontable c)', '(on f a)', '(ontable h)', '(clear e)', '(clear g)', '(ontable e)', '(on b c)', '(\
on g f)', '(handempty)', '(on d h)'})" [id=62];
"frozenset({'(clear b)', '(on a d)', '(ontable c)', '(on f a)', '(ontable h)', '(on b e)', '(on e g)', '(clear c)', '(on g f)', '(\
handempty)', '(on d h)'})" [id=83];
"frozenset({'(on a d)', '(ontable c)', '(on f a)', '(ontable h)', '(on e g)', '(holding b)', '(clear c)', '(clear e)', '(on g f)', '(\
on d h)'})" [id=79];
"frozenset({'(clear b)', '(on a d)', '(ontable c)', '(on f a)', '(ontable h)', '(on b e)', '(on e g)', '(clear c)', '(on g f)', '(\
handempty)', '(on d h)'})" -> "frozenset({'(on a d)', '(ontable c)', '(on f a)', '(ontable h)', '(on e g)', '(holding b)', '(clear c)', '(clear e)', '(on g f)', '(\
on d h)'})" [key=0,
action="(unstack b e)
  PRE: (clear b)
  PRE: (handempty)
  PRE: (on b e)
  ADD: (clear e)
  ADD: (holding b)
  DEL: (clear b)
  DEL: (handempty)
  \
DEL: (on b e)
"];
"frozenset({'(on g f)', '(on a d)', '(on f a)', '(ontable h)', '(on b e)', '(on e g)', '(holding c)', '(clear b)', '(on d h)'})" [id=84];
"frozenset({'(clear b)', '(on a d)', '(ontable c)', '(on f a)', '(ontable h)', '(on b e)', '(on e g)', '(clear c)', '(on g f)', '(\
handempty)', '(on d h)'})" -> "frozenset({'(on g f)', '(on a d)', '(on f a)', '(ontable h)', '(on b e)', '(on e g)', '(holding c)', '(clear b)', '(on d h)'})" [key=0,
action="(pick-up c)
  PRE: (handempty)
  PRE: (ontable c)
  PRE: (clear c)
  ADD: (holding c)
  DEL: (handempty)
  DEL: (ontable c)
  DEL: (\
clear c)
"];
"frozenset({'(ontable b)', '(on a d)', '(holding g)', '(ontable c)', '(on f a)', '(ontable h)', '(clear c)', '(clear e)', '(clear \
f)', '(ontable e)', '(clear b)', '(on d h)'})" [id=72];
"frozenset({'(on a d)', '(ontable h)', '(on b e)', '(on c f)', '(clear c)', '(on f g)', '(clear a)', '(ontable e)', '(clear b)', '(\
handempty)', '(on d h)', '(ontable g)'})" [id=42];
"frozenset({'(clear b)', '(on a d)', '(on f a)', '(ontable h)', '(on c g)', '(clear e)', '(ontable e)', '(on b c)', '(on g f)', '(\
handempty)', '(on d h)'})" [id=67];
"frozenset({'(ontable c)', '(ontable a)', '(ontable h)', '(on d b)', '(clear h)', '(clear c)', '(clear e)', '(on f g)', '(clear a)', '(\
ontable e)', '(ontable g)', '(handempty)', '(clear d)', '(on b f)'})" [id=0];
"frozenset({'(ontable c)', '(ontable a)', '(on d b)', '(clear c)', '(clear e)', '(on f g)', '(clear a)', '(ontable e)', '(holding \
h)', '(on b f)', '(clear d)', '(ontable g)'})" [id=1];
"frozenset({'(ontable c)', '(ontable a)', '(ontable h)', '(on d b)', '(clear h)', '(clear c)', '(clear e)', '(on f g)', '(clear a)', '(\
ontable e)', '(ontable g)', '(handempty)', '(clear d)', '(on b f)'})" -> "frozenset({'(ontable c)', '(ontable a)', '(on d b)', '(clear c)', '(clear e)', '(on f g)', '(clear a)', '(ontable e)', '(holding \
h)', '(on b f)', '(clear d)', '(ontable g)'})" [key=0,
action="(pick-up h)
  PRE: (ontable h)
  PRE: (handempty)
  PRE: (clear h)
  ADD: (holding h)
  DEL: (ontable h)
  DEL: (handempty)
  DEL: (\
clear h)
"];
"frozenset({'(ontable a)', '(ontable h)', '(on d b)', '(clear h)', '(clear e)', '(on f g)', '(holding c)', '(clear a)', '(ontable \
e)', '(on b f)', '(clear d)', '(ontable g)'})" [id=2];
"frozenset({'(ontable c)', '(ontable a)', '(ontable h)', '(on d b)', '(clear h)', '(clear c)', '(clear e)', '(on f g)', '(clear a)', '(\
ontable e)', '(ontable g)', '(handempty)', '(clear d)', '(on b f)'})" -> "frozenset({'(ontable a)', '(ontable h)', '(on d b)', '(clear h)', '(clear e)', '(on f g)', '(holding c)', '(clear a)', '(ontable \
e)', '(on b f)', '(clear d)', '(ontable g)'})" [key=0,
action="(pick-up c)
  PRE: (handempty)
  PRE: (ontable c)
  PRE: (clear c)
  ADD: (holding c)
  DEL: (handempty)
  DEL: (ontable c)
  DEL: (\
clear c)
"];
"frozenset({'(ontable c)', '(ontable a)', '(ontable h)', '(on d b)', '(clear h)', '(clear c)', '(clear e)', '(on f g)', '(clear a)', '(\
ontable e)', '(ontable g)', '(handempty)', '(clear d)', '(on b f)'})" -> "frozenset({'(ontable c)', '(ontable a)', '(ontable h)', '(clear h)', '(clear c)', '(clear e)', '(on f g)', '(holding d)', '(clear \
a)', '(ontable e)', '(clear b)', '(on b f)', '(ontable g)'})" [key=0,
action="(unstack d b)
  PRE: (handempty)
  PRE: (on d b)
  PRE: (clear d)
  ADD: (clear b)
  ADD: (holding d)
  DEL: (handempty)
  DEL: (\
on d b)
  DEL: (clear d)
"];
"frozenset({'(holding a)', '(ontable c)', '(ontable h)', '(on d b)', '(clear h)', '(clear c)', '(clear e)', '(on f g)', '(ontable \
e)', '(on b f)', '(clear d)', '(ontable g)'})" [id=4];
"frozenset({'(ontable c)', '(ontable a)', '(ontable h)', '(on d b)', '(clear h)', '(clear c)', '(clear e)', '(on f g)', '(clear a)', '(\
ontable e)', '(ontable g)', '(handempty)', '(clear d)', '(on b f)'})" -> "frozenset({'(holding a)', '(ontable c)', '(ontable h)', '(on d b)', '(clear h)', '(clear c)', '(clear e)', '(on f g)', '(ontable \
e)', '(on b f)', '(clear d)', '(ontable g)'})" [key=0,
action="(pick-up a)
  PRE: (ontable a)
  PRE: (handempty)
  PRE: (clear a)
  ADD: (holding a)
  DEL: (ontable a)
  DEL: (handempty)
  DEL: (\
clear a)
"];
"frozenset({'(holding e)', '(ontable c)', '(ontable a)', '(ontable h)', '(on d b)', '(clear h)', '(clear c)', '(on f g)', '(clear \
a)', '(on b f)', '(clear d)', '(ontable g)'})" [id=3];
"frozenset({'(ontable c)', '(ontable a)', '(ontable h)', '(on d b)', '(clear h)', '(clear c)', '(clear e)', '(on f g)', '(clear a)', '(\
ontable e)', '(ontable g)', '(handempty)', '(clear d)', '(on b f)'})" -> "frozenset({'(holding e)', '(ontable c)', '(ontable a)', '(ontable h)', '(on d b)', '(clear h)', '(clear c)', '(on f g)', '(clear \
a)', '(on b f)', '(clear d)', '(ontable g)'})" [key=0,
action="(pick-up e)
  PRE: (clear e)
  PRE: (handempty)
  PRE: (ontable e)
  ADD: (holding e)
  DEL: (clear e)
  DEL: (handempty)
  DEL: (\
ontable e)
"];
"frozenset({'(on a d)', '(ontable c)', '(ontable h)', '(on b e)', '(clear c)', '(clear g)', '(clear f)', '(clear a)', '(ontable e)', '(\
on f b)', '(handempty)', '(on d h)', '(ontable g)'})" [id=47];
"frozenset({'(on a d)', '(ontable c)', '(on f a)', '(ontable h)', '(on e g)', '(holding b)', '(clear c)', '(clear e)', '(on g f)', '(\
on d h)'})" -> "frozenset({'(clear b)', '(on a d)', '(ontable c)', '(on f a)', '(ontable h)', '(on e g)', '(clear e)', '(on b c)', '(on g f)', '(\
handempty)', '(on d h)'})" [key=0,
action="(stack b c)
  PRE: (holding b)
  PRE: (clear c)
  ADD: (on b c)
  ADD: (clear b)
  ADD: (handempty)
  DEL: (holding b)
  DEL: (clear \
c)
"];
"frozenset({'(on a d)', '(ontable c)', '(on f a)', '(ontable h)', '(on e g)', '(holding b)', '(clear c)', '(clear e)', '(on g f)', '(\
on d h)'})" -> "frozenset({'(clear b)', '(on a d)', '(ontable c)', '(on f a)', '(ontable h)', '(on b e)', '(on e g)', '(clear c)', '(on g f)', '(\
handempty)', '(on d h)'})" [key=0,
action="(stack b e)
  PRE: (clear e)
  PRE: (holding b)
  ADD: (clear b)
  ADD: (handempty)
  ADD: (on b e)
  DEL: (clear e)
  DEL: (holding \
b)
"];
"frozenset({'(on a d)', '(ontable c)', '(on f a)', '(ontable h)', '(on e g)', '(holding b)', '(clear c)', '(clear e)', '(on g f)', '(\
on d h)'})" -> "frozenset({'(ontable b)', '(on a d)', '(clear b)', '(ontable c)', '(on f a)', '(ontable h)', '(on e g)', '(clear c)', '(clear e)', '(\
on g f)', '(handempty)', '(on d h)'})" [key=0,
action="(put-down b)
  PRE: (holding b)
  ADD: (ontable b)
  ADD: (clear b)
  ADD: (handempty)
  DEL: (holding b)
"];
"frozenset({'(on b g)', '(on a d)', '(clear b)', '(ontable c)', '(on f a)', '(ontable h)', '(clear c)', '(clear e)', '(ontable e)', '(\
on g f)', '(handempty)', '(on d h)'})" [id=61];
"frozenset({'(ontable b)', '(on a d)', '(on g f)', '(ontable c)', '(holding e)', '(on f a)', '(ontable h)', '(clear c)', '(clear \
g)', '(clear b)', '(on d h)'})" [id=71];
"frozenset({'(ontable b)', '(on a d)', '(on g f)', '(ontable c)', '(holding e)', '(on f a)', '(ontable h)', '(clear c)', '(clear \
g)', '(clear b)', '(on d h)'})" -> "frozenset({'(ontable b)', '(on a d)', '(clear b)', '(ontable c)', '(on f a)', '(ontable h)', '(on e c)', '(clear e)', '(clear g)', '(\
on g f)', '(handempty)', '(on d h)'})" [key=0,
action="(stack e c)
  PRE: (holding e)
  PRE: (clear c)
  ADD: (clear e)
  ADD: (handempty)
  ADD: (on e c)
  DEL: (holding e)
  DEL: (clear \
c)
"];
"frozenset({'(ontable b)', '(on a d)', '(on g f)', '(ontable c)', '(holding e)', '(on f a)', '(ontable h)', '(clear c)', '(clear \
g)', '(clear b)', '(on d h)'})" -> "frozenset({'(ontable b)', '(on a d)', '(clear b)', '(ontable c)', '(on f a)', '(ontable h)', '(on e g)', '(clear c)', '(clear e)', '(\
on g f)', '(handempty)', '(on d h)'})" [key=0,
action="(stack e g)
  PRE: (holding e)
  PRE: (clear g)
  ADD: (clear e)
  ADD: (handempty)
  ADD: (on e g)
  DEL: (holding e)
  DEL: (clear \
g)
"];
"frozenset({'(ontable b)', '(on a d)', '(clear b)', '(ontable c)', '(on f a)', '(ontable h)', '(clear c)', '(clear e)', '(clear g)', '(\
ontable e)', '(on g f)', '(handempty)', '(on d h)'})" [id=60];
"frozenset({'(ontable b)', '(on a d)', '(on g f)', '(ontable c)', '(holding e)', '(on f a)', '(ontable h)', '(clear c)', '(clear \
g)', '(clear b)', '(on d h)'})" -> "frozenset({'(ontable b)', '(on a d)', '(clear b)', '(ontable c)', '(on f a)', '(ontable h)', '(clear c)', '(clear e)', '(clear g)', '(\
ontable e)', '(on g f)', '(handempty)', '(on d h)'})" [key=0,
action="(put-down e)
  PRE: (holding e)
  ADD: (clear e)
  ADD: (handempty)
  ADD: (ontable e)
  DEL: (holding e)
"];
"frozenset({'(ontable b)', '(on a d)', '(ontable c)', '(on f a)', '(ontable h)', '(on e b)', '(clear c)', '(clear e)', '(clear g)', '(\
on g f)', '(handempty)', '(on d h)'})" [id=77];
"frozenset({'(ontable b)', '(on a d)', '(on g f)', '(ontable c)', '(holding e)', '(on f a)', '(ontable h)', '(clear c)', '(clear \
g)', '(clear b)', '(on d h)'})" -> "frozenset({'(ontable b)', '(on a d)', '(ontable c)', '(on f a)', '(ontable h)', '(on e b)', '(clear c)', '(clear e)', '(clear g)', '(\
on g f)', '(handempty)', '(on d h)'})" [key=0,
action="(stack e b)
  PRE: (holding e)
  PRE: (clear b)
  ADD: (clear e)
  ADD: (handempty)
  ADD: (on e b)
  DEL: (holding e)
  DEL: (clear \
b)
"];
"frozenset({'(on a d)', '(ontable c)', '(ontable h)', '(on b e)', '(clear c)', '(on f g)', '(clear f)', '(clear a)', '(ontable e)', '(\
clear b)', '(handempty)', '(on d h)', '(ontable g)'})" -> "frozenset({'(on a d)', '(ontable c)', '(ontable h)', '(holding b)', '(clear c)', '(clear e)', '(on f g)', '(clear f)', '(clear a)', '(\
ontable e)', '(on d h)', '(ontable g)'})" [key=0,
action="(unstack b e)
  PRE: (clear b)
  PRE: (handempty)
  PRE: (on b e)
  ADD: (clear e)
  ADD: (holding b)
  DEL: (clear b)
  DEL: (handempty)
  \
DEL: (on b e)
"];
"frozenset({'(on a d)', '(ontable c)', '(ontable h)', '(on b e)', '(clear c)', '(on f g)', '(clear f)', '(clear a)', '(ontable e)', '(\
clear b)', '(handempty)', '(on d h)', '(ontable g)'})" -> "frozenset({'(holding a)', '(ontable c)', '(ontable h)', '(on b e)', '(clear c)', '(on f g)', '(clear f)', '(ontable e)', '(clear \
b)', '(clear d)', '(on d h)', '(ontable g)'})" [key=0,
action="(unstack a d)
  PRE: (on a d)
  PRE: (handempty)
  PRE: (clear a)
  ADD: (holding a)
  ADD: (clear d)
  DEL: (on a d)
  DEL: (handempty)
  \
DEL: (clear a)
"];
"frozenset({'(on a d)', '(ontable h)', '(on b e)', '(on f g)', '(holding c)', '(clear f)', '(clear a)', '(ontable e)', '(clear b)', '(\
on d h)', '(ontable g)'})" [id=39];
"frozenset({'(on a d)', '(ontable c)', '(ontable h)', '(on b e)', '(clear c)', '(on f g)', '(clear f)', '(clear a)', '(ontable e)', '(\
clear b)', '(handempty)', '(on d h)', '(ontable g)'})" -> "frozenset({'(on a d)', '(ontable h)', '(on b e)', '(on f g)', '(holding c)', '(clear f)', '(clear a)', '(ontable e)', '(clear b)', '(\
on d h)', '(ontable g)'})" [key=0,
action="(pick-up c)
  PRE: (handempty)
  PRE: (ontable c)
  PRE: (clear c)
  ADD: (holding c)
  DEL: (handempty)
  DEL: (ontable c)
  DEL: (\
clear c)
"];
"frozenset({'(on a d)', '(ontable c)', '(holding f)', '(ontable h)', '(on b e)', '(clear c)', '(clear g)', '(clear a)', '(ontable \
e)', '(clear b)', '(on d h)', '(ontable g)'})" [id=40];
"frozenset({'(on a d)', '(ontable c)', '(ontable h)', '(on b e)', '(clear c)', '(on f g)', '(clear f)', '(clear a)', '(ontable e)', '(\
clear b)', '(handempty)', '(on d h)', '(ontable g)'})" -> "frozenset({'(on a d)', '(ontable c)', '(holding f)', '(ontable h)', '(on b e)', '(clear c)', '(clear g)', '(clear a)', '(ontable \
e)', '(clear b)', '(on d h)', '(ontable g)'})" [key=0,
action="(unstack f g)
  PRE: (on f g)
  PRE: (handempty)
  PRE: (clear f)
  ADD: (holding f)
  ADD: (clear g)
  DEL: (on f g)
  DEL: (handempty)
  \
DEL: (clear f)
"];
"frozenset({'(ontable c)', '(ontable h)', '(clear c)', '(on f g)', '(ontable g)', '(ontable e)', '(on a e)', '(clear b)', '(clear \
a)', '(handempty)', '(clear d)', '(on d h)', '(on b f)'})" [id=25];
"frozenset({'(clear b)', '(on a d)', '(on f a)', '(ontable h)', '(on b e)', '(clear g)', '(holding c)', '(ontable e)', '(on g f)', '(\
on d h)'})" -> "frozenset({'(on a d)', '(on f a)', '(ontable h)', '(on b e)', '(clear c)', '(clear g)', '(ontable e)', '(on g f)', '(on c b)', '(\
handempty)', '(on d h)'})" [key=0,
action="(stack c b)
  PRE: (clear b)
  PRE: (holding c)
  ADD: (on c b)
  ADD: (handempty)
  ADD: (clear c)
  DEL: (clear b)
  DEL: (holding \
c)
"];
"frozenset({'(clear b)', '(on a d)', '(on f a)', '(ontable h)', '(on b e)', '(clear g)', '(holding c)', '(ontable e)', '(on g f)', '(\
on d h)'})" -> "frozenset({'(on g f)', '(on a d)', '(ontable c)', '(on f a)', '(ontable h)', '(on b e)', '(clear c)', '(clear g)', '(ontable e)', '(\
clear b)', '(handempty)', '(on d h)'})" [key=0,
action="(put-down c)
  PRE: (holding c)
  ADD: (handempty)
  ADD: (ontable c)
  ADD: (clear c)
  DEL: (holding c)
"];
"frozenset({'(on g f)', '(on a d)', '(on f a)', '(ontable h)', '(on b e)', '(on c g)', '(clear c)', '(ontable e)', '(clear b)', '(\
handempty)', '(on d h)'})" [id=57];
"frozenset({'(clear b)', '(on a d)', '(on f a)', '(ontable h)', '(on b e)', '(clear g)', '(holding c)', '(ontable e)', '(on g f)', '(\
on d h)'})" -> "frozenset({'(on g f)', '(on a d)', '(on f a)', '(ontable h)', '(on b e)', '(on c g)', '(clear c)', '(ontable e)', '(clear b)', '(\
handempty)', '(on d h)'})" [key=0,
action="(stack c g)
  PRE: (holding c)
  PRE: (clear g)
  ADD: (handempty)
  ADD: (on c g)
  ADD: (clear c)
  DEL: (clear g)
  DEL: (holding \
c)
"];
"frozenset({'(ontable a)', '(ontable h)', '(clear e)', '(on f g)', '(holding c)', '(clear a)', '(ontable e)', '(clear b)', '(on b \
f)', '(clear d)', '(on d h)', '(ontable g)'})" -> "frozenset({'(on c d)', '(ontable a)', '(ontable h)', '(clear c)', '(clear e)', '(on f g)', '(clear a)', '(ontable e)', '(ontable \
g)', '(clear b)', '(handempty)', '(on d h)', '(on b f)'})" [key=0,
action="(stack c d)
  PRE: (holding c)
  PRE: (clear d)
  ADD: (on c d)
  ADD: (handempty)
  ADD: (clear c)
  DEL: (holding c)
  DEL: (clear \
d)
"];
"frozenset({'(ontable a)', '(ontable h)', '(clear e)', '(on f g)', '(holding c)', '(clear a)', '(ontable e)', '(clear b)', '(on b \
f)', '(clear d)', '(on d h)', '(ontable g)'})" -> "frozenset({'(ontable c)', '(ontable a)', '(ontable h)', '(clear c)', '(clear e)', '(on f g)', '(clear a)', '(ontable e)', '(ontable \
g)', '(clear b)', '(handempty)', '(clear d)', '(on d h)', '(on b f)'})" [key=0,
action="(put-down c)
  PRE: (holding c)
  ADD: (handempty)
  ADD: (ontable c)
  ADD: (clear c)
  DEL: (holding c)
"];
"frozenset({'(ontable a)', '(ontable h)', '(clear e)', '(on f g)', '(holding c)', '(clear a)', '(ontable e)', '(clear b)', '(on b \
f)', '(clear d)', '(on d h)', '(ontable g)'})" -> "frozenset({'(ontable a)', '(ontable h)', '(clear c)', '(clear e)', '(on f g)', '(on c a)', '(ontable g)', '(ontable e)', '(clear \
b)', '(handempty)', '(clear d)', '(on d h)', '(on b f)'})" [key=0,
action="(stack c a)
  PRE: (holding c)
  PRE: (clear a)
  ADD: (handempty)
  ADD: (on c a)
  ADD: (clear c)
  DEL: (holding c)
  DEL: (clear \
a)
"];
"frozenset({'(ontable a)', '(ontable h)', '(clear e)', '(on f g)', '(holding c)', '(clear a)', '(ontable e)', '(clear b)', '(on b \
f)', '(clear d)', '(on d h)', '(ontable g)'})" -> "frozenset({'(ontable a)', '(ontable h)', '(clear c)', '(clear e)', '(on f g)', '(clear a)', '(ontable e)', '(ontable g)', '(on c \
b)', '(handempty)', '(clear d)', '(on d h)', '(on b f)'})" [key=0,
action="(stack c b)
  PRE: (clear b)
  PRE: (holding c)
  ADD: (on c b)
  ADD: (handempty)
  ADD: (clear c)
  DEL: (clear b)
  DEL: (holding \
c)
"];
"frozenset({'(on c e)', '(ontable a)', '(ontable h)', '(clear c)', '(on f g)', '(clear a)', '(ontable e)', '(ontable g)', '(clear \
b)', '(handempty)', '(clear d)', '(on d h)', '(on b f)'})" [id=20];
"frozenset({'(ontable a)', '(ontable h)', '(clear e)', '(on f g)', '(holding c)', '(clear a)', '(ontable e)', '(clear b)', '(on b \
f)', '(clear d)', '(on d h)', '(ontable g)'})" -> "frozenset({'(on c e)', '(ontable a)', '(ontable h)', '(clear c)', '(on f g)', '(clear a)', '(ontable e)', '(ontable g)', '(clear \
b)', '(handempty)', '(clear d)', '(on d h)', '(on b f)'})" [key=0,
action="(stack c e)
  PRE: (clear e)
  PRE: (holding c)
  ADD: (handempty)
  ADD: (on c e)
  ADD: (clear c)
  DEL: (clear e)
  DEL: (holding \
c)
"];
"frozenset({'(ontable b)', '(on a d)', '(on f a)', '(ontable h)', '(clear c)', '(clear e)', '(clear g)', '(ontable e)', '(on g f)', '(\
on c b)', '(handempty)', '(on d h)'})" [id=74];
"frozenset({'(ontable b)', '(on a d)', '(clear b)', '(on f a)', '(ontable h)', '(on c g)', '(clear c)', '(clear e)', '(ontable e)', '(\
on g f)', '(handempty)', '(on d h)'})" [id=66];
"frozenset({'(on a d)', '(ontable h)', '(on b e)', '(on f g)', '(holding c)', '(clear f)', '(clear a)', '(ontable e)', '(clear b)', '(\
on d h)', '(ontable g)'})" -> "frozenset({'(on a d)', '(ontable h)', '(on b e)', '(clear c)', '(on f g)', '(clear f)', '(clear a)', '(ontable e)', '(on c b)', '(\
handempty)', '(on d h)', '(ontable g)'})" [key=0,
action="(stack c b)
  PRE: (clear b)
  PRE: (holding c)
  ADD: (on c b)
  ADD: (handempty)
  ADD: (clear c)
  DEL: (clear b)
  DEL: (holding \
c)
"];
"frozenset({'(on a d)', '(ontable h)', '(on b e)', '(on f g)', '(holding c)', '(clear f)', '(clear a)', '(ontable e)', '(clear b)', '(\
on d h)', '(ontable g)'})" -> "frozenset({'(on a d)', '(ontable h)', '(on b e)', '(clear c)', '(on f g)', '(on c a)', '(clear f)', '(ontable e)', '(clear b)', '(\
handempty)', '(on d h)', '(ontable g)'})" [key=0,
action="(stack c a)
  PRE: (holding c)
  PRE: (clear a)
  ADD: (handempty)
  ADD: (on c a)
  ADD: (clear c)
  DEL: (holding c)
  DEL: (clear \
a)
"];
"frozenset({'(on a d)', '(ontable h)', '(on b e)', '(on f g)', '(holding c)', '(clear f)', '(clear a)', '(ontable e)', '(clear b)', '(\
on d h)', '(ontable g)'})" -> "frozenset({'(on a d)', '(ontable h)', '(on b e)', '(on c f)', '(clear c)', '(on f g)', '(clear a)', '(ontable e)', '(clear b)', '(\
handempty)', '(on d h)', '(ontable g)'})" [key=0,
action="(stack c f)
  PRE: (holding c)
  PRE: (clear f)
  ADD: (handempty)
  ADD: (on c f)
  ADD: (clear c)
  DEL: (holding c)
  DEL: (clear \
f)
"];
"frozenset({'(on a d)', '(ontable h)', '(on b e)', '(on f g)', '(holding c)', '(clear f)', '(clear a)', '(ontable e)', '(clear b)', '(\
on d h)', '(ontable g)'})" -> "frozenset({'(on a d)', '(ontable c)', '(ontable h)', '(on b e)', '(clear c)', '(on f g)', '(clear f)', '(clear a)', '(ontable e)', '(\
clear b)', '(handempty)', '(on d h)', '(ontable g)'})" [key=0,
action="(put-down c)
  PRE: (holding c)
  ADD: (handempty)
  ADD: (ontable c)
  ADD: (clear c)
  DEL: (holding c)
"];
"frozenset({'(on a d)', '(ontable c)', '(on f a)', '(ontable h)', '(on b e)', '(clear c)', '(clear g)', '(clear f)', '(ontable e)', '(\
clear b)', '(handempty)', '(on d h)', '(ontable g)'})" -> "frozenset({'(on a d)', '(holding g)', '(ontable c)', '(on f a)', '(ontable h)', '(on b e)', '(clear c)', '(clear f)', '(ontable \
e)', '(clear b)', '(on d h)'})" [key=0,
action="(pick-up g)
  PRE: (handempty)
  PRE: (clear g)
  PRE: (ontable g)
  ADD: (holding g)
  DEL: (handempty)
  DEL: (clear g)
  DEL: (\
ontable g)
"];
"frozenset({'(on a d)', '(ontable c)', '(on f a)', '(ontable h)', '(on b e)', '(clear c)', '(clear g)', '(clear f)', '(ontable e)', '(\
clear b)', '(handempty)', '(on d h)', '(ontable g)'})" -> "frozenset({'(on a d)', '(on f a)', '(ontable h)', '(on b e)', '(clear g)', '(clear f)', '(holding c)', '(ontable e)', '(clear b)', '(\
on d h)', '(ontable g)'})" [key=0,
action="(pick-up c)
  PRE: (handempty)
  PRE: (ontable c)
  PRE: (clear c)
  ADD: (holding c)
  DEL: (handempty)
  DEL: (ontable c)
  DEL: (\
clear c)
"];
"frozenset({'(on a d)', '(ontable c)', '(on f a)', '(ontable h)', '(on b e)', '(clear c)', '(clear g)', '(clear f)', '(ontable e)', '(\
clear b)', '(handempty)', '(on d h)', '(ontable g)'})" -> "frozenset({'(on a d)', '(ontable c)', '(on f a)', '(ontable h)', '(holding b)', '(clear c)', '(clear e)', '(clear g)', '(clear f)', '(\
ontable e)', '(on d h)', '(ontable g)'})" [key=0,
action="(unstack b e)
  PRE: (clear b)
  PRE: (handempty)
  PRE: (on b e)
  ADD: (clear e)
  ADD: (holding b)
  DEL: (clear b)
  DEL: (handempty)
  \
DEL: (on b e)
"];
"frozenset({'(on a d)', '(ontable c)', '(on f a)', '(ontable h)', '(on b e)', '(clear c)', '(clear g)', '(clear f)', '(ontable e)', '(\
clear b)', '(handempty)', '(on d h)', '(ontable g)'})" -> "frozenset({'(on a d)', '(ontable c)', '(holding f)', '(ontable h)', '(on b e)', '(clear c)', '(clear g)', '(clear a)', '(ontable \
e)', '(clear b)', '(on d h)', '(ontable g)'})" [key=0,
action="(unstack f a)
  PRE: (handempty)
  PRE: (clear f)
  PRE: (on f a)
  ADD: (holding f)
  ADD: (clear a)
  DEL: (handempty)
  DEL: (\
clear f)
  DEL: (on f a)
"];
"frozenset({'(ontable c)', '(ontable h)', '(on d b)', '(on a c)', '(clear h)', '(clear e)', '(on f g)', '(ontable g)', '(ontable \
e)', '(clear a)', '(handempty)', '(clear d)', '(on b f)'})" [id=8];
"frozenset({'(on a d)', '(ontable c)', '(holding f)', '(ontable h)', '(on b e)', '(clear c)', '(clear g)', '(clear a)', '(ontable \
e)', '(clear b)', '(on d h)', '(ontable g)'})" -> "frozenset({'(on a d)', '(ontable c)', '(on f c)', '(ontable h)', '(on b e)', '(clear g)', '(clear f)', '(clear a)', '(ontable e)', '(\
clear b)', '(handempty)', '(on d h)', '(ontable g)'})" [key=0,
action="(stack f c)
  PRE: (holding f)
  PRE: (clear c)
  ADD: (handempty)
  ADD: (clear f)
  ADD: (on f c)
  DEL: (holding f)
  DEL: (clear \
c)
"];
"frozenset({'(on a d)', '(ontable c)', '(holding f)', '(ontable h)', '(on b e)', '(clear c)', '(clear g)', '(clear a)', '(ontable \
e)', '(clear b)', '(on d h)', '(ontable g)'})" -> "frozenset({'(on a d)', '(ontable c)', '(ontable h)', '(on b e)', '(clear c)', '(clear g)', '(clear f)', '(clear a)', '(ontable e)', '(\
on f b)', '(handempty)', '(on d h)', '(ontable g)'})" [key=0,
action="(stack f b)
  PRE: (holding f)
  PRE: (clear b)
  ADD: (on f b)
  ADD: (handempty)
  ADD: (clear f)
  DEL: (holding f)
  DEL: (clear \
b)
"];
"frozenset({'(on a d)', '(ontable c)', '(holding f)', '(ontable h)', '(on b e)', '(clear c)', '(clear g)', '(clear a)', '(ontable \
e)', '(clear b)', '(on d h)', '(ontable g)'})" -> "frozenset({'(on a d)', '(ontable c)', '(ontable h)', '(on b e)', '(clear c)', '(on f g)', '(clear f)', '(clear a)', '(ontable e)', '(\
clear b)', '(handempty)', '(on d h)', '(ontable g)'})" [key=0,
action="(stack f g)
  PRE: (holding f)
  PRE: (clear g)
  ADD: (on f g)
  ADD: (handempty)
  ADD: (clear f)
  DEL: (holding f)
  DEL: (clear \
g)
"];
"frozenset({'(on a d)', '(ontable c)', '(holding f)', '(ontable h)', '(on b e)', '(clear c)', '(clear g)', '(clear a)', '(ontable \
e)', '(clear b)', '(on d h)', '(ontable g)'})" -> "frozenset({'(on a d)', '(ontable c)', '(on f a)', '(ontable h)', '(on b e)', '(clear c)', '(clear g)', '(clear f)', '(ontable e)', '(\
clear b)', '(handempty)', '(on d h)', '(ontable g)'})" [key=0,
action="(stack f a)
  PRE: (holding f)
  PRE: (clear a)
  ADD: (handempty)
  ADD: (clear f)
  ADD: (on f a)
  DEL: (holding f)
  DEL: (clear \
a)
"];
"frozenset({'(on a d)', '(ontable c)', '(ontable h)', '(on b e)', '(ontable f)', '(clear c)', '(clear g)', '(clear f)', '(clear a)', '(\
ontable e)', '(clear b)', '(handempty)', '(on d h)', '(ontable g)'})" [id=45];
"frozenset({'(on a d)', '(ontable c)', '(holding f)', '(ontable h)', '(on b e)', '(clear c)', '(clear g)', '(clear a)', '(ontable \
e)', '(clear b)', '(on d h)', '(ontable g)'})" -> "frozenset({'(on a d)', '(ontable c)', '(ontable h)', '(on b e)', '(ontable f)', '(clear c)', '(clear g)', '(clear f)', '(clear a)', '(\
ontable e)', '(clear b)', '(handempty)', '(on d h)', '(ontable g)'})" [key=0,
action="(put-down f)
  PRE: (holding f)
  ADD: (ontable f)
  ADD: (handempty)
  ADD: (clear f)
  DEL: (holding f)
"];
"frozenset({'(ontable c)', '(ontable h)', '(on a c)', '(clear e)', '(on f g)', '(ontable g)', '(ontable e)', '(clear a)', '(clear \
b)', '(handempty)', '(clear d)', '(on d h)', '(on b f)'})" [id=24];
"frozenset({'(ontable c)', '(ontable h)', '(on a b)', '(clear c)', '(clear e)', '(on f g)', '(ontable g)', '(ontable e)', '(clear \
a)', '(handempty)', '(clear d)', '(on d h)', '(on b f)'})" [id=26];
"frozenset({'(on a d)', '(on f a)', '(ontable h)', '(on c g)', '(holding b)', '(clear c)', '(clear e)', '(ontable e)', '(on g f)', '(\
on d h)'})" [id=63];
"frozenset({'(on g f)', '(on a d)', '(on f a)', '(ontable h)', '(on b e)', '(on c g)', '(clear c)', '(ontable e)', '(clear b)', '(\
handempty)', '(on d h)'})" -> "frozenset({'(on a d)', '(on f a)', '(ontable h)', '(on c g)', '(holding b)', '(clear c)', '(clear e)', '(ontable e)', '(on g f)', '(\
on d h)'})" [key=0,
action="(unstack b e)
  PRE: (clear b)
  PRE: (handempty)
  PRE: (on b e)
  ADD: (clear e)
  ADD: (holding b)
  DEL: (clear b)
  DEL: (handempty)
  \
DEL: (on b e)
"];
"frozenset({'(on g f)', '(on a d)', '(on f a)', '(ontable h)', '(on b e)', '(on c g)', '(clear c)', '(ontable e)', '(clear b)', '(\
handempty)', '(on d h)'})" -> "frozenset({'(clear b)', '(on a d)', '(on f a)', '(ontable h)', '(on b e)', '(holding c)', '(clear g)', '(ontable e)', '(on g f)', '(\
on d h)'})" [key=0,
action="(unstack c g)
  PRE: (handempty)
  PRE: (on c g)
  PRE: (clear c)
  ADD: (holding c)
  ADD: (clear g)
  DEL: (handempty)
  DEL: (\
on c g)
  DEL: (clear c)
"];
"frozenset({'(ontable c)', '(ontable a)', '(ontable h)', '(clear h)', '(clear c)', '(clear e)', '(on f g)', '(holding d)', '(clear \
a)', '(ontable e)', '(clear b)', '(on b f)', '(ontable g)'})" -> "frozenset({'(ontable c)', '(ontable a)', '(ontable h)', '(on d a)', '(clear h)', '(clear c)', '(clear e)', '(on f g)', '(ontable \
g)', '(ontable e)', '(clear b)', '(handempty)', '(clear d)', '(on b f)'})" [key=0,
action="(stack d a)
  PRE: (holding d)
  PRE: (clear a)
  ADD: (handempty)
  ADD: (clear d)
  ADD: (on d a)
  DEL: (holding d)
  DEL: (clear \
a)
"];
"frozenset({'(ontable c)', '(ontable a)', '(ontable h)', '(clear h)', '(clear c)', '(clear e)', '(on f g)', '(holding d)', '(clear \
a)', '(ontable e)', '(clear b)', '(on b f)', '(ontable g)'})" -> "frozenset({'(ontable c)', '(ontable d)', '(ontable a)', '(ontable h)', '(clear h)', '(clear c)', '(clear e)', '(on f g)', '(clear \
a)', '(ontable e)', '(ontable g)', '(clear b)', '(handempty)', '(clear d)', '(on b f)'})" [key=0,
action="(put-down d)
  PRE: (holding d)
  ADD: (handempty)
  ADD: (clear d)
  ADD: (ontable d)
  DEL: (holding d)
"];
"frozenset({'(ontable c)', '(ontable a)', '(ontable h)', '(clear h)', '(clear c)', '(clear e)', '(on f g)', '(holding d)', '(clear \
a)', '(ontable e)', '(clear b)', '(on b f)', '(ontable g)'})" -> "frozenset({'(ontable c)', '(ontable a)', '(ontable h)', '(clear h)', '(clear e)', '(on f g)', '(on d c)', '(clear a)', '(ontable \
e)', '(ontable g)', '(clear b)', '(handempty)', '(clear d)', '(on b f)'})" [key=0,
action="(stack d c)
  PRE: (holding d)
  PRE: (clear c)
  ADD: (on d c)
  ADD: (handempty)
  ADD: (clear d)
  DEL: (holding d)
  DEL: (clear \
c)
"];
"frozenset({'(ontable c)', '(ontable a)', '(ontable h)', '(clear h)', '(clear c)', '(clear e)', '(on f g)', '(holding d)', '(clear \
a)', '(ontable e)', '(clear b)', '(on b f)', '(ontable g)'})" -> "frozenset({'(ontable c)', '(ontable a)', '(ontable h)', '(clear c)', '(clear e)', '(on f g)', '(clear a)', '(ontable e)', '(ontable \
g)', '(clear b)', '(handempty)', '(clear d)', '(on d h)', '(on b f)'})" [key=0,
action="(stack d h)
  PRE: (holding d)
  PRE: (clear h)
  ADD: (handempty)
  ADD: (clear d)
  ADD: (on d h)
  DEL: (holding d)
  DEL: (clear \
h)
"];
"frozenset({'(ontable c)', '(ontable a)', '(ontable h)', '(clear h)', '(clear c)', '(clear e)', '(on f g)', '(holding d)', '(clear \
a)', '(ontable e)', '(clear b)', '(on b f)', '(ontable g)'})" -> "frozenset({'(ontable c)', '(ontable a)', '(ontable h)', '(on d b)', '(clear h)', '(clear c)', '(clear e)', '(on f g)', '(clear a)', '(\
ontable e)', '(ontable g)', '(handempty)', '(clear d)', '(on b f)'})" [key=0,
action="(stack d b)
  PRE: (clear b)
  PRE: (holding d)
  ADD: (handempty)
  ADD: (on d b)
  ADD: (clear d)
  DEL: (clear b)
  DEL: (holding \
d)
"];
"frozenset({'(ontable c)', '(ontable a)', '(ontable h)', '(clear h)', '(clear c)', '(on f g)', '(clear a)', '(ontable e)', '(ontable \
g)', '(clear b)', '(on d e)', '(handempty)', '(clear d)', '(on b f)'})" [id=13];
"frozenset({'(ontable c)', '(ontable a)', '(ontable h)', '(clear h)', '(clear c)', '(clear e)', '(on f g)', '(holding d)', '(clear \
a)', '(ontable e)', '(clear b)', '(on b f)', '(ontable g)'})" -> "frozenset({'(ontable c)', '(ontable a)', '(ontable h)', '(clear h)', '(clear c)', '(on f g)', '(clear a)', '(ontable e)', '(ontable \
g)', '(clear b)', '(on d e)', '(handempty)', '(clear d)', '(on b f)'})" [key=0,
action="(stack d e)
  PRE: (clear e)
  PRE: (holding d)
  ADD: (on d e)
  ADD: (handempty)
  ADD: (clear d)
  DEL: (clear e)
  DEL: (holding \
d)
"];
"frozenset({'(ontable c)', '(ontable h)', '(on d b)', '(clear h)', '(clear c)', '(on f g)', '(ontable g)', '(ontable e)', '(on a \
e)', '(clear a)', '(handempty)', '(clear d)', '(on b f)'})" [id=9];
"frozenset({'(ontable b)', '(on a d)', '(clear b)', '(ontable c)', '(on f a)', '(ontable h)', '(on e g)', '(clear c)', '(clear e)', '(\
on g f)', '(handempty)', '(on d h)'})" -> "frozenset({'(ontable b)', '(on a d)', '(on g f)', '(on f a)', '(ontable h)', '(on e g)', '(clear e)', '(holding c)', '(clear b)', '(\
on d h)'})" [key=0,
action="(pick-up c)
  PRE: (handempty)
  PRE: (ontable c)
  PRE: (clear c)
  ADD: (holding c)
  DEL: (handempty)
  DEL: (ontable c)
  DEL: (\
clear c)
"];
"frozenset({'(ontable b)', '(on a d)', '(clear b)', '(ontable c)', '(on f a)', '(ontable h)', '(on e g)', '(clear c)', '(clear e)', '(\
on g f)', '(handempty)', '(on d h)'})" -> "frozenset({'(on a d)', '(ontable c)', '(on f a)', '(ontable h)', '(on e g)', '(holding b)', '(clear c)', '(clear e)', '(on g f)', '(\
on d h)'})" [key=0,
action="(pick-up b)
  PRE: (ontable b)
  PRE: (clear b)
  PRE: (handempty)
  ADD: (holding b)
  DEL: (ontable b)
  DEL: (clear b)
  DEL: (\
handempty)
"];
"frozenset({'(ontable b)', '(on a d)', '(clear b)', '(ontable c)', '(on f a)', '(ontable h)', '(on e g)', '(clear c)', '(clear e)', '(\
on g f)', '(handempty)', '(on d h)'})" -> "frozenset({'(ontable b)', '(on a d)', '(on g f)', '(ontable c)', '(holding e)', '(on f a)', '(ontable h)', '(clear c)', '(clear \
g)', '(clear b)', '(on d h)'})" [key=0,
action="(unstack e g)
  PRE: (clear e)
  PRE: (handempty)
  PRE: (on e g)
  ADD: (holding e)
  ADD: (clear g)
  DEL: (clear e)
  DEL: (handempty)
  \
DEL: (on e g)
"];
"frozenset({'(ontable b)', '(on a d)', '(clear b)', '(ontable c)', '(on f a)', '(ontable h)', '(clear c)', '(clear e)', '(clear g)', '(\
ontable e)', '(on g f)', '(handempty)', '(on d h)'})" -> "frozenset({'(ontable b)', '(on a d)', '(holding g)', '(ontable c)', '(on f a)', '(ontable h)', '(clear c)', '(clear e)', '(clear \
f)', '(ontable e)', '(clear b)', '(on d h)'})" [key=0,
action="(unstack g f)
  PRE: (on g f)
  PRE: (handempty)
  PRE: (clear g)
  ADD: (holding g)
  ADD: (clear f)
  DEL: (on g f)
  DEL: (handempty)
  \
DEL: (clear g)
"];
"frozenset({'(ontable b)', '(on a d)', '(clear b)', '(ontable c)', '(on f a)', '(ontable h)', '(clear c)', '(clear e)', '(clear g)', '(\
ontable e)', '(on g f)', '(handempty)', '(on d h)'})" -> "frozenset({'(ontable b)', '(on a d)', '(on g f)', '(ontable c)', '(holding e)', '(on f a)', '(ontable h)', '(clear c)', '(clear \
g)', '(clear b)', '(on d h)'})" [key=0,
action="(pick-up e)
  PRE: (clear e)
  PRE: (handempty)
  PRE: (ontable e)
  ADD: (holding e)
  DEL: (clear e)
  DEL: (handempty)
  DEL: (\
ontable e)
"];
"frozenset({'(ontable b)', '(on a d)', '(clear b)', '(ontable c)', '(on f a)', '(ontable h)', '(clear c)', '(clear e)', '(clear g)', '(\
ontable e)', '(on g f)', '(handempty)', '(on d h)'})" -> "frozenset({'(on a d)', '(ontable c)', '(on f a)', '(ontable h)', '(holding b)', '(clear c)', '(clear e)', '(clear g)', '(ontable \
e)', '(on g f)', '(on d h)'})" [key=0,
action="(pick-up b)
  PRE: (ontable b)
  PRE: (clear b)
  PRE: (handempty)
  ADD: (holding b)
  DEL: (ontable b)
  DEL: (clear b)
  DEL: (\
handempty)
"];
"frozenset({'(ontable b)', '(on a d)', '(on g f)', '(on f a)', '(ontable h)', '(clear e)', '(clear g)', '(holding c)', '(ontable \
e)', '(clear b)', '(on d h)'})" [id=70];
"frozenset({'(ontable b)', '(on a d)', '(clear b)', '(ontable c)', '(on f a)', '(ontable h)', '(clear c)', '(clear e)', '(clear g)', '(\
ontable e)', '(on g f)', '(handempty)', '(on d h)'})" -> "frozenset({'(ontable b)', '(on a d)', '(on g f)', '(on f a)', '(ontable h)', '(clear e)', '(clear g)', '(holding c)', '(ontable \
e)', '(clear b)', '(on d h)'})" [key=0,
action="(pick-up c)
  PRE: (handempty)
  PRE: (ontable c)
  PRE: (clear c)
  ADD: (holding c)
  DEL: (handempty)
  DEL: (ontable c)
  DEL: (\
clear c)
"];
"frozenset({'(on g f)', '(on a d)', '(on f a)', '(ontable h)', '(on b e)', '(on e g)', '(holding c)', '(clear b)', '(on d h)'})" -> "frozenset({'(on a d)', '(handempty)', '(on c b)', '(on f a)', '(on g f)', '(ontable h)', '(on b e)', '(on e g)', '(on d h)', '(clear \
c)'})" [key=0,
action="(stack c b)
  PRE: (clear b)
  PRE: (holding c)
  ADD: (on c b)
  ADD: (handempty)
  ADD: (clear c)
  DEL: (clear b)
  DEL: (holding \
c)
"];
"frozenset({'(on g f)', '(on a d)', '(on f a)', '(ontable h)', '(on b e)', '(on e g)', '(holding c)', '(clear b)', '(on d h)'})" -> "frozenset({'(clear b)', '(on a d)', '(ontable c)', '(on f a)', '(ontable h)', '(on b e)', '(on e g)', '(clear c)', '(on g f)', '(\
handempty)', '(on d h)'})" [key=0,
action="(put-down c)
  PRE: (holding c)
  ADD: (handempty)
  ADD: (ontable c)
  ADD: (clear c)
  DEL: (holding c)
"];
"frozenset({'(holding a)', '(ontable c)', '(ontable h)', '(clear c)', '(clear e)', '(on f g)', '(ontable e)', '(clear b)', '(on b \
f)', '(clear d)', '(on d h)', '(ontable g)'})" -> "frozenset({'(on a d)', '(ontable c)', '(ontable h)', '(clear c)', '(clear e)', '(on f g)', '(ontable g)', '(ontable e)', '(clear \
a)', '(clear b)', '(handempty)', '(on d h)', '(on b f)'})" [key=0,
action="(stack a d)
  PRE: (holding a)
  PRE: (clear d)
  ADD: (on a d)
  ADD: (handempty)
  ADD: (clear a)
  DEL: (holding a)
  DEL: (clear \
d)
"];
"frozenset({'(holding a)', '(ontable c)', '(ontable h)', '(clear c)', '(clear e)', '(on f g)', '(ontable e)', '(clear b)', '(on b \
f)', '(clear d)', '(on d h)', '(ontable g)'})" -> "frozenset({'(ontable c)', '(ontable h)', '(clear c)', '(on f g)', '(ontable g)', '(ontable e)', '(on a e)', '(clear b)', '(clear \
a)', '(handempty)', '(clear d)', '(on d h)', '(on b f)'})" [key=0,
action="(stack a e)
  PRE: (clear e)
  PRE: (holding a)
  ADD: (on a e)
  ADD: (handempty)
  ADD: (clear a)
  DEL: (clear e)
  DEL: (holding \
a)
"];
"frozenset({'(holding a)', '(ontable c)', '(ontable h)', '(clear c)', '(clear e)', '(on f g)', '(ontable e)', '(clear b)', '(on b \
f)', '(clear d)', '(on d h)', '(ontable g)'})" -> "frozenset({'(ontable c)', '(ontable h)', '(on a c)', '(clear e)', '(on f g)', '(ontable g)', '(ontable e)', '(clear a)', '(clear \
b)', '(handempty)', '(clear d)', '(on d h)', '(on b f)'})" [key=0,
action="(stack a c)
  PRE: (holding a)
  PRE: (clear c)
  ADD: (handempty)
  ADD: (on a c)
  ADD: (clear a)
  DEL: (holding a)
  DEL: (clear \
c)
"];
"frozenset({'(holding a)', '(ontable c)', '(ontable h)', '(clear c)', '(clear e)', '(on f g)', '(ontable e)', '(clear b)', '(on b \
f)', '(clear d)', '(on d h)', '(ontable g)'})" -> "frozenset({'(ontable c)', '(ontable h)', '(on a b)', '(clear c)', '(clear e)', '(on f g)', '(ontable g)', '(ontable e)', '(clear \
a)', '(handempty)', '(clear d)', '(on d h)', '(on b f)'})" [key=0,
action="(stack a b)
  PRE: (clear b)
  PRE: (holding a)
  ADD: (on a b)
  ADD: (handempty)
  ADD: (clear a)
  DEL: (clear b)
  DEL: (holding \
a)
"];
"frozenset({'(holding a)', '(ontable c)', '(ontable h)', '(clear c)', '(clear e)', '(on f g)', '(ontable e)', '(clear b)', '(on b \
f)', '(clear d)', '(on d h)', '(ontable g)'})" -> "frozenset({'(ontable c)', '(ontable a)', '(ontable h)', '(clear c)', '(clear e)', '(on f g)', '(ontable g)', '(ontable e)', '(clear \
a)', '(clear b)', '(handempty)', '(clear d)', '(on d h)', '(on b f)'})" [key=0,
action="(put-down a)
  PRE: (holding a)
  ADD: (ontable a)
  ADD: (handempty)
  ADD: (clear a)
  DEL: (holding a)
"];
"frozenset({'(on a d)', '(ontable c)', '(on f a)', '(ontable h)', '(holding b)', '(clear c)', '(clear e)', '(clear g)', '(ontable \
e)', '(on g f)', '(on d h)'})" -> "frozenset({'(clear b)', '(on a d)', '(ontable c)', '(on f a)', '(ontable h)', '(clear e)', '(clear g)', '(ontable e)', '(on b c)', '(\
on g f)', '(handempty)', '(on d h)'})" [key=0,
action="(stack b c)
  PRE: (holding b)
  PRE: (clear c)
  ADD: (on b c)
  ADD: (clear b)
  ADD: (handempty)
  DEL: (holding b)
  DEL: (clear \
c)
"];
"frozenset({'(on a d)', '(ontable c)', '(on f a)', '(ontable h)', '(holding b)', '(clear c)', '(clear e)', '(clear g)', '(ontable \
e)', '(on g f)', '(on d h)'})" -> "frozenset({'(on b g)', '(on a d)', '(clear b)', '(ontable c)', '(on f a)', '(ontable h)', '(clear c)', '(clear e)', '(ontable e)', '(\
on g f)', '(handempty)', '(on d h)'})" [key=0,
action="(stack b g)
  PRE: (clear g)
  PRE: (holding b)
  ADD: (on b g)
  ADD: (clear b)
  ADD: (handempty)
  DEL: (clear g)
  DEL: (holding \
b)
"];
"frozenset({'(on a d)', '(ontable c)', '(on f a)', '(ontable h)', '(holding b)', '(clear c)', '(clear e)', '(clear g)', '(ontable \
e)', '(on g f)', '(on d h)'})" -> "frozenset({'(ontable b)', '(on a d)', '(clear b)', '(ontable c)', '(on f a)', '(ontable h)', '(clear c)', '(clear e)', '(clear g)', '(\
ontable e)', '(on g f)', '(handempty)', '(on d h)'})" [key=0,
action="(put-down b)
  PRE: (holding b)
  ADD: (ontable b)
  ADD: (clear b)
  ADD: (handempty)
  DEL: (holding b)
"];
"frozenset({'(on a d)', '(ontable c)', '(on f a)', '(ontable h)', '(holding b)', '(clear c)', '(clear e)', '(clear g)', '(ontable \
e)', '(on g f)', '(on d h)'})" -> "frozenset({'(clear b)', '(on a d)', '(ontable c)', '(on f a)', '(ontable h)', '(on b e)', '(clear c)', '(clear g)', '(ontable e)', '(\
on g f)', '(handempty)', '(on d h)'})" [key=0,
action="(stack b e)
  PRE: (clear e)
  PRE: (holding b)
  ADD: (clear b)
  ADD: (handempty)
  ADD: (on b e)
  DEL: (clear e)
  DEL: (holding \
b)
"];
"frozenset({'(on a d)', '(on f a)', '(ontable h)', '(on c g)', '(holding b)', '(clear c)', '(clear e)', '(ontable e)', '(on g f)', '(\
on d h)'})" -> "frozenset({'(clear b)', '(on a d)', '(on f a)', '(ontable h)', '(on c g)', '(clear e)', '(ontable e)', '(on b c)', '(on g f)', '(\
handempty)', '(on d h)'})" [key=0,
action="(stack b c)
  PRE: (holding b)
  PRE: (clear c)
  ADD: (on b c)
  ADD: (clear b)
  ADD: (handempty)
  DEL: (holding b)
  DEL: (clear \
c)
"];
"frozenset({'(on a d)', '(on f a)', '(ontable h)', '(on c g)', '(holding b)', '(clear c)', '(clear e)', '(ontable e)', '(on g f)', '(\
on d h)'})" -> "frozenset({'(ontable b)', '(on a d)', '(clear b)', '(on f a)', '(ontable h)', '(on c g)', '(clear c)', '(clear e)', '(ontable e)', '(\
on g f)', '(handempty)', '(on d h)'})" [key=0,
action="(put-down b)
  PRE: (holding b)
  ADD: (ontable b)
  ADD: (clear b)
  ADD: (handempty)
  DEL: (holding b)
"];
"frozenset({'(on a d)', '(on f a)', '(ontable h)', '(on c g)', '(holding b)', '(clear c)', '(clear e)', '(ontable e)', '(on g f)', '(\
on d h)'})" -> "frozenset({'(clear b)', '(on a d)', '(on f a)', '(ontable h)', '(on c g)', '(on b e)', '(clear c)', '(ontable e)', '(on g f)', '(\
handempty)', '(on d h)'})" [key=0,
action="(stack b e)
  PRE: (clear e)
  PRE: (holding b)
  ADD: (clear b)
  ADD: (handempty)
  ADD: (on b e)
  DEL: (clear e)
  DEL: (holding \
b)
"];
"frozenset({'(ontable b)', '(on a d)', '(on g f)', '(on f a)', '(ontable h)', '(clear e)', '(clear g)', '(holding c)', '(ontable \
e)', '(clear b)', '(on d h)'})" -> "frozenset({'(ontable b)', '(on a d)', '(clear b)', '(on c e)', '(on f a)', '(ontable h)', '(clear c)', '(clear g)', '(ontable e)', '(\
on g f)', '(handempty)', '(on d h)'})" [key=0,
action="(stack c e)
  PRE: (clear e)
  PRE: (holding c)
  ADD: (handempty)
  ADD: (on c e)
  ADD: (clear c)
  DEL: (clear e)
  DEL: (holding \
c)
"];
"frozenset({'(ontable b)', '(on a d)', '(on g f)', '(on f a)', '(ontable h)', '(clear e)', '(clear g)', '(holding c)', '(ontable \
e)', '(clear b)', '(on d h)'})" -> "frozenset({'(ontable b)', '(on a d)', '(on f a)', '(ontable h)', '(clear c)', '(clear e)', '(clear g)', '(ontable e)', '(on g f)', '(\
on c b)', '(handempty)', '(on d h)'})" [key=0,
action="(stack c b)
  PRE: (clear b)
  PRE: (holding c)
  ADD: (on c b)
  ADD: (handempty)
  ADD: (clear c)
  DEL: (clear b)
  DEL: (holding \
c)
"];
"frozenset({'(ontable b)', '(on a d)', '(on g f)', '(on f a)', '(ontable h)', '(clear e)', '(clear g)', '(holding c)', '(ontable \
e)', '(clear b)', '(on d h)'})" -> "frozenset({'(ontable b)', '(on a d)', '(clear b)', '(on f a)', '(ontable h)', '(on c g)', '(clear c)', '(clear e)', '(ontable e)', '(\
on g f)', '(handempty)', '(on d h)'})" [key=0,
action="(stack c g)
  PRE: (holding c)
  PRE: (clear g)
  ADD: (handempty)
  ADD: (on c g)
  ADD: (clear c)
  DEL: (clear g)
  DEL: (holding \
c)
"];
"frozenset({'(ontable b)', '(on a d)', '(on g f)', '(on f a)', '(ontable h)', '(clear e)', '(clear g)', '(holding c)', '(ontable \
e)', '(clear b)', '(on d h)'})" -> "frozenset({'(ontable b)', '(on a d)', '(clear b)', '(ontable c)', '(on f a)', '(ontable h)', '(clear c)', '(clear e)', '(clear g)', '(\
ontable e)', '(on g f)', '(handempty)', '(on d h)'})" [key=0,
action="(put-down c)
  PRE: (holding c)
  ADD: (handempty)
  ADD: (ontable c)
  ADD: (clear c)
  DEL: (holding c)
"];
"frozenset({'(holding a)', '(ontable c)', '(ontable h)', '(on d b)', '(clear h)', '(clear c)', '(clear e)', '(on f g)', '(ontable \
e)', '(on b f)', '(clear d)', '(ontable g)'})" -> "frozenset({'(ontable c)', '(ontable h)', '(on d b)', '(clear c)', '(clear e)', '(on f g)', '(on a h)', '(ontable g)', '(ontable \
e)', '(clear a)', '(handempty)', '(clear d)', '(on b f)'})" [key=0,
action="(stack a h)
  PRE: (holding a)
  PRE: (clear h)
  ADD: (handempty)
  ADD: (on a h)
  ADD: (clear a)
  DEL: (holding a)
  DEL: (clear \
h)
"];
"frozenset({'(holding a)', '(ontable c)', '(ontable h)', '(on d b)', '(clear h)', '(clear c)', '(clear e)', '(on f g)', '(ontable \
e)', '(on b f)', '(clear d)', '(ontable g)'})" -> "frozenset({'(on a d)', '(ontable c)', '(ontable h)', '(on d b)', '(clear h)', '(clear c)', '(clear e)', '(on f g)', '(ontable g)', '(\
ontable e)', '(clear a)', '(handempty)', '(on b f)'})" [key=0,
action="(stack a d)
  PRE: (holding a)
  PRE: (clear d)
  ADD: (on a d)
  ADD: (handempty)
  ADD: (clear a)
  DEL: (holding a)
  DEL: (clear \
d)
"];
"frozenset({'(holding a)', '(ontable c)', '(ontable h)', '(on d b)', '(clear h)', '(clear c)', '(clear e)', '(on f g)', '(ontable \
e)', '(on b f)', '(clear d)', '(ontable g)'})" -> "frozenset({'(ontable c)', '(ontable h)', '(on d b)', '(on a c)', '(clear h)', '(clear e)', '(on f g)', '(ontable g)', '(ontable \
e)', '(clear a)', '(handempty)', '(clear d)', '(on b f)'})" [key=0,
action="(stack a c)
  PRE: (holding a)
  PRE: (clear c)
  ADD: (handempty)
  ADD: (on a c)
  ADD: (clear a)
  DEL: (holding a)
  DEL: (clear \
c)
"];
"frozenset({'(holding a)', '(ontable c)', '(ontable h)', '(on d b)', '(clear h)', '(clear c)', '(clear e)', '(on f g)', '(ontable \
e)', '(on b f)', '(clear d)', '(ontable g)'})" -> "frozenset({'(ontable c)', '(ontable h)', '(on d b)', '(clear h)', '(clear c)', '(on f g)', '(ontable g)', '(ontable e)', '(on a \
e)', '(clear a)', '(handempty)', '(clear d)', '(on b f)'})" [key=0,
action="(stack a e)
  PRE: (clear e)
  PRE: (holding a)
  ADD: (on a e)
  ADD: (handempty)
  ADD: (clear a)
  DEL: (clear e)
  DEL: (holding \
a)
"];
"frozenset({'(holding a)', '(ontable c)', '(ontable h)', '(on d b)', '(clear h)', '(clear c)', '(clear e)', '(on f g)', '(ontable \
e)', '(on b f)', '(clear d)', '(ontable g)'})" -> "frozenset({'(ontable c)', '(ontable a)', '(ontable h)', '(on d b)', '(clear h)', '(clear c)', '(clear e)', '(on f g)', '(ontable \
g)', '(ontable e)', '(clear a)', '(handempty)', '(clear d)', '(on b f)'})" [key=0,
action="(put-down a)
  PRE: (holding a)
  ADD: (ontable a)
  ADD: (handempty)
  ADD: (clear a)
  DEL: (holding a)
"];
}
