digraph  {
	"frozenset({'(counter-at-zero)', '(movie-rewound)'})"	 [id=13];
	"frozenset({'(have-dip)', '(movie-rewound)'})"	 [id=9];
	"frozenset({'(have-pop)'})"	 [id=4];
	"frozenset({'(counter-at-zero)'})"	 [id=7];
	"frozenset({'(have-crackers)', '(movie-rewound)'})"	 [id=11];
	"frozenset({'(counter-at-zero)', '(have-pop)', '(movie-rewound)', '(have-cheese)', '(have-crackers)', '(have-dip)'})"	 [id=27];
	"frozenset({'(have-chips)'})"	 [id=6];
	"frozenset()"	 [id=0];
	"frozenset()" -> "frozenset({'(have-pop)'})" [key=0,
	action="(get-pop p6)
  ADD: (have-pop)
"];
"frozenset()" -> "frozenset({'(have-pop)'})" [key=1,
action="(get-pop p3)
  ADD: (have-pop)
"];
"frozenset()" -> "frozenset({'(have-pop)'})" [key=2,
action="(get-pop p8)
  ADD: (have-pop)
"];
"frozenset()" -> "frozenset({'(have-pop)'})" [key=3,
action="(get-pop p2)
  ADD: (have-pop)
"];
"frozenset()" -> "frozenset({'(have-pop)'})" [key=4,
action="(get-pop p9)
  ADD: (have-pop)
"];
"frozenset()" -> "frozenset({'(have-pop)'})" [key=5,
action="(get-pop p1)
  ADD: (have-pop)
"];
"frozenset()" -> "frozenset({'(have-pop)'})" [key=6,
action="(get-pop p7)
  ADD: (have-pop)
"];
"frozenset()" -> "frozenset({'(have-pop)'})" [key=7,
action="(get-pop p5)
  ADD: (have-pop)
"];
"frozenset()" -> "frozenset({'(have-pop)'})" [key=8,
action="(get-pop p4)
  ADD: (have-pop)
"];
"frozenset()" -> "frozenset({'(have-pop)'})" [key=9,
action="(get-pop p10)
  ADD: (have-pop)
"];
"frozenset()" -> "frozenset({'(counter-at-zero)'})" [key=0,
action="(reset-counter)
  ADD: (counter-at-zero)
"];
"frozenset()" -> "frozenset({'(have-chips)'})" [key=0,
action="(get-chips c7)
  ADD: (have-chips)
"];
"frozenset()" -> "frozenset({'(have-chips)'})" [key=1,
action="(get-chips c5)
  ADD: (have-chips)
"];
"frozenset()" -> "frozenset({'(have-chips)'})" [key=2,
action="(get-chips c8)
  ADD: (have-chips)
"];
"frozenset()" -> "frozenset({'(have-chips)'})" [key=3,
action="(get-chips c6)
  ADD: (have-chips)
"];
"frozenset()" -> "frozenset({'(have-chips)'})" [key=4,
action="(get-chips c1)
  ADD: (have-chips)
"];
"frozenset()" -> "frozenset({'(have-chips)'})" [key=5,
action="(get-chips c4)
  ADD: (have-chips)
"];
"frozenset()" -> "frozenset({'(have-chips)'})" [key=6,
action="(get-chips c2)
  ADD: (have-chips)
"];
"frozenset()" -> "frozenset({'(have-chips)'})" [key=7,
action="(get-chips c3)
  ADD: (have-chips)
"];
"frozenset()" -> "frozenset({'(have-chips)'})" [key=8,
action="(get-chips c9)
  ADD: (have-chips)
"];
"frozenset()" -> "frozenset({'(have-chips)'})" [key=9,
action="(get-chips c10)
  ADD: (have-chips)
"];
"frozenset({'(have-crackers)'})" [id=5];
"frozenset()" -> "frozenset({'(have-crackers)'})" [key=0,
action="(get-crackers k6)
  ADD: (have-crackers)
"];
"frozenset()" -> "frozenset({'(have-crackers)'})" [key=1,
action="(get-crackers k5)
  ADD: (have-crackers)
"];
"frozenset()" -> "frozenset({'(have-crackers)'})" [key=2,
action="(get-crackers k3)
  ADD: (have-crackers)
"];
"frozenset()" -> "frozenset({'(have-crackers)'})" [key=3,
action="(get-crackers k1)
  ADD: (have-crackers)
"];
"frozenset()" -> "frozenset({'(have-crackers)'})" [key=4,
action="(get-crackers k2)
  ADD: (have-crackers)
"];
"frozenset()" -> "frozenset({'(have-crackers)'})" [key=5,
action="(get-crackers k10)
  ADD: (have-crackers)
"];
"frozenset()" -> "frozenset({'(have-crackers)'})" [key=6,
action="(get-crackers k8)
  ADD: (have-crackers)
"];
"frozenset()" -> "frozenset({'(have-crackers)'})" [key=7,
action="(get-crackers k9)
  ADD: (have-crackers)
"];
"frozenset()" -> "frozenset({'(have-crackers)'})" [key=8,
action="(get-crackers k4)
  ADD: (have-crackers)
"];
"frozenset()" -> "frozenset({'(have-crackers)'})" [key=9,
action="(get-crackers k7)
  ADD: (have-crackers)
"];
"frozenset({'(movie-rewound)'})" [id=1];
"frozenset()" -> "frozenset({'(movie-rewound)'})" [key=0,
action="(rewind-movie)
  ADD: (movie-rewound)
  DEL: (counter-at-zero)
"];
"frozenset({'(have-cheese)'})" [id=2];
"frozenset()" -> "frozenset({'(have-cheese)'})" [key=0,
action="(get-cheese z3)
  ADD: (have-cheese)
"];
"frozenset()" -> "frozenset({'(have-cheese)'})" [key=1,
action="(get-cheese z6)
  ADD: (have-cheese)
"];
"frozenset()" -> "frozenset({'(have-cheese)'})" [key=2,
action="(get-cheese z9)
  ADD: (have-cheese)
"];
"frozenset()" -> "frozenset({'(have-cheese)'})" [key=3,
action="(get-cheese z10)
  ADD: (have-cheese)
"];
"frozenset()" -> "frozenset({'(have-cheese)'})" [key=4,
action="(get-cheese z4)
  ADD: (have-cheese)
"];
"frozenset()" -> "frozenset({'(have-cheese)'})" [key=5,
action="(get-cheese z1)
  ADD: (have-cheese)
"];
"frozenset()" -> "frozenset({'(have-cheese)'})" [key=6,
action="(get-cheese z8)
  ADD: (have-cheese)
"];
"frozenset()" -> "frozenset({'(have-cheese)'})" [key=7,
action="(get-cheese z7)
  ADD: (have-cheese)
"];
"frozenset()" -> "frozenset({'(have-cheese)'})" [key=8,
action="(get-cheese z5)
  ADD: (have-cheese)
"];
"frozenset()" -> "frozenset({'(have-cheese)'})" [key=9,
action="(get-cheese z2)
  ADD: (have-cheese)
"];
"frozenset({'(have-dip)'})" [id=3];
"frozenset()" -> "frozenset({'(have-dip)'})" [key=0,
action="(get-dip d9)
  ADD: (have-dip)
"];
"frozenset()" -> "frozenset({'(have-dip)'})" [key=1,
action="(get-dip d6)
  ADD: (have-dip)
"];
"frozenset()" -> "frozenset({'(have-dip)'})" [key=2,
action="(get-dip d8)
  ADD: (have-dip)
"];
"frozenset()" -> "frozenset({'(have-dip)'})" [key=3,
action="(get-dip d10)
  ADD: (have-dip)
"];
"frozenset()" -> "frozenset({'(have-dip)'})" [key=4,
action="(get-dip d5)
  ADD: (have-dip)
"];
"frozenset()" -> "frozenset({'(have-dip)'})" [key=5,
action="(get-dip d4)
  ADD: (have-dip)
"];
"frozenset()" -> "frozenset({'(have-dip)'})" [key=6,
action="(get-dip d2)
  ADD: (have-dip)
"];
"frozenset()" -> "frozenset({'(have-dip)'})" [key=7,
action="(get-dip d7)
  ADD: (have-dip)
"];
"frozenset()" -> "frozenset({'(have-dip)'})" [key=8,
action="(get-dip d1)
  ADD: (have-dip)
"];
"frozenset()" -> "frozenset({'(have-dip)'})" [key=9,
action="(get-dip d3)
  ADD: (have-dip)
"];
"frozenset({'(have-cheese)', '(have-pop)', '(movie-rewound)'})" [id=15];
"frozenset({'(have-cheese)', '(movie-rewound)'})" [id=8];
"frozenset({'(have-cheese)', '(movie-rewound)'})" -> "frozenset({'(have-cheese)', '(have-pop)', '(movie-rewound)'})" [key=0,
action="(get-pop p6)
  ADD: (have-pop)
"];
"frozenset({'(have-cheese)', '(movie-rewound)'})" -> "frozenset({'(have-cheese)', '(have-pop)', '(movie-rewound)'})" [key=1,
action="(get-pop p3)
  ADD: (have-pop)
"];
"frozenset({'(have-cheese)', '(movie-rewound)'})" -> "frozenset({'(have-cheese)', '(have-pop)', '(movie-rewound)'})" [key=2,
action="(get-pop p8)
  ADD: (have-pop)
"];
"frozenset({'(have-cheese)', '(movie-rewound)'})" -> "frozenset({'(have-cheese)', '(have-pop)', '(movie-rewound)'})" [key=3,
action="(get-pop p2)
  ADD: (have-pop)
"];
"frozenset({'(have-cheese)', '(movie-rewound)'})" -> "frozenset({'(have-cheese)', '(have-pop)', '(movie-rewound)'})" [key=4,
action="(get-pop p9)
  ADD: (have-pop)
"];
"frozenset({'(have-cheese)', '(movie-rewound)'})" -> "frozenset({'(have-cheese)', '(have-pop)', '(movie-rewound)'})" [key=5,
action="(get-pop p1)
  ADD: (have-pop)
"];
"frozenset({'(have-cheese)', '(movie-rewound)'})" -> "frozenset({'(have-cheese)', '(have-pop)', '(movie-rewound)'})" [key=6,
action="(get-pop p7)
  ADD: (have-pop)
"];
"frozenset({'(have-cheese)', '(movie-rewound)'})" -> "frozenset({'(have-cheese)', '(have-pop)', '(movie-rewound)'})" [key=7,
action="(get-pop p5)
  ADD: (have-pop)
"];
"frozenset({'(have-cheese)', '(movie-rewound)'})" -> "frozenset({'(have-cheese)', '(have-pop)', '(movie-rewound)'})" [key=8,
action="(get-pop p4)
  ADD: (have-pop)
"];
"frozenset({'(have-cheese)', '(movie-rewound)'})" -> "frozenset({'(have-cheese)', '(have-pop)', '(movie-rewound)'})" [key=9,
action="(get-pop p10)
  ADD: (have-pop)
"];
"frozenset({'(have-cheese)', '(movie-rewound)'})" -> "frozenset({'(have-cheese)', '(movie-rewound)'})" [key=0,
action="(rewind-movie)
  ADD: (movie-rewound)
  DEL: (counter-at-zero)
"];
"frozenset({'(have-cheese)', '(movie-rewound)'})" -> "frozenset({'(have-cheese)', '(movie-rewound)'})" [key=1,
action="(get-cheese z3)
  ADD: (have-cheese)
"];
"frozenset({'(have-cheese)', '(movie-rewound)'})" -> "frozenset({'(have-cheese)', '(movie-rewound)'})" [key=2,
action="(get-cheese z6)
  ADD: (have-cheese)
"];
"frozenset({'(have-cheese)', '(movie-rewound)'})" -> "frozenset({'(have-cheese)', '(movie-rewound)'})" [key=3,
action="(get-cheese z9)
  ADD: (have-cheese)
"];
"frozenset({'(have-cheese)', '(movie-rewound)'})" -> "frozenset({'(have-cheese)', '(movie-rewound)'})" [key=4,
action="(get-cheese z10)
  ADD: (have-cheese)
"];
"frozenset({'(have-cheese)', '(movie-rewound)'})" -> "frozenset({'(have-cheese)', '(movie-rewound)'})" [key=5,
action="(get-cheese z4)
  ADD: (have-cheese)
"];
"frozenset({'(have-cheese)', '(movie-rewound)'})" -> "frozenset({'(have-cheese)', '(movie-rewound)'})" [key=6,
action="(get-cheese z1)
  ADD: (have-cheese)
"];
"frozenset({'(have-cheese)', '(movie-rewound)'})" -> "frozenset({'(have-cheese)', '(movie-rewound)'})" [key=7,
action="(get-cheese z8)
  ADD: (have-cheese)
"];
"frozenset({'(have-cheese)', '(movie-rewound)'})" -> "frozenset({'(have-cheese)', '(movie-rewound)'})" [key=8,
action="(get-cheese z7)
  ADD: (have-cheese)
"];
"frozenset({'(have-cheese)', '(movie-rewound)'})" -> "frozenset({'(have-cheese)', '(movie-rewound)'})" [key=9,
action="(get-cheese z5)
  ADD: (have-cheese)
"];
"frozenset({'(have-cheese)', '(movie-rewound)'})" -> "frozenset({'(have-cheese)', '(movie-rewound)'})" [key=10,
action="(get-cheese z2)
  ADD: (have-cheese)
"];
"frozenset({'(have-cheese)', '(have-crackers)', '(movie-rewound)'})" [id=16];
"frozenset({'(have-cheese)', '(movie-rewound)'})" -> "frozenset({'(have-cheese)', '(have-crackers)', '(movie-rewound)'})" [key=0,
action="(get-crackers k6)
  ADD: (have-crackers)
"];
"frozenset({'(have-cheese)', '(movie-rewound)'})" -> "frozenset({'(have-cheese)', '(have-crackers)', '(movie-rewound)'})" [key=1,
action="(get-crackers k5)
  ADD: (have-crackers)
"];
"frozenset({'(have-cheese)', '(movie-rewound)'})" -> "frozenset({'(have-cheese)', '(have-crackers)', '(movie-rewound)'})" [key=2,
action="(get-crackers k3)
  ADD: (have-crackers)
"];
"frozenset({'(have-cheese)', '(movie-rewound)'})" -> "frozenset({'(have-cheese)', '(have-crackers)', '(movie-rewound)'})" [key=3,
action="(get-crackers k1)
  ADD: (have-crackers)
"];
"frozenset({'(have-cheese)', '(movie-rewound)'})" -> "frozenset({'(have-cheese)', '(have-crackers)', '(movie-rewound)'})" [key=4,
action="(get-crackers k2)
  ADD: (have-crackers)
"];
"frozenset({'(have-cheese)', '(movie-rewound)'})" -> "frozenset({'(have-cheese)', '(have-crackers)', '(movie-rewound)'})" [key=5,
action="(get-crackers k10)
  ADD: (have-crackers)
"];
"frozenset({'(have-cheese)', '(movie-rewound)'})" -> "frozenset({'(have-cheese)', '(have-crackers)', '(movie-rewound)'})" [key=6,
action="(get-crackers k8)
  ADD: (have-crackers)
"];
"frozenset({'(have-cheese)', '(movie-rewound)'})" -> "frozenset({'(have-cheese)', '(have-crackers)', '(movie-rewound)'})" [key=7,
action="(get-crackers k9)
  ADD: (have-crackers)
"];
"frozenset({'(have-cheese)', '(movie-rewound)'})" -> "frozenset({'(have-cheese)', '(have-crackers)', '(movie-rewound)'})" [key=8,
action="(get-crackers k4)
  ADD: (have-crackers)
"];
"frozenset({'(have-cheese)', '(movie-rewound)'})" -> "frozenset({'(have-cheese)', '(have-crackers)', '(movie-rewound)'})" [key=9,
action="(get-crackers k7)
  ADD: (have-crackers)
"];
"frozenset({'(have-cheese)', '(movie-rewound)', '(counter-at-zero)'})" [id=18];
"frozenset({'(have-cheese)', '(movie-rewound)'})" -> "frozenset({'(have-cheese)', '(movie-rewound)', '(counter-at-zero)'})" [key=0,
action="(reset-counter)
  ADD: (counter-at-zero)
"];
"frozenset({'(have-cheese)', '(have-dip)', '(movie-rewound)'})" [id=14];
"frozenset({'(have-cheese)', '(movie-rewound)'})" -> "frozenset({'(have-cheese)', '(have-dip)', '(movie-rewound)'})" [key=0,
action="(get-dip d9)
  ADD: (have-dip)
"];
"frozenset({'(have-cheese)', '(movie-rewound)'})" -> "frozenset({'(have-cheese)', '(have-dip)', '(movie-rewound)'})" [key=1,
action="(get-dip d6)
  ADD: (have-dip)
"];
"frozenset({'(have-cheese)', '(movie-rewound)'})" -> "frozenset({'(have-cheese)', '(have-dip)', '(movie-rewound)'})" [key=2,
action="(get-dip d8)
  ADD: (have-dip)
"];
"frozenset({'(have-cheese)', '(movie-rewound)'})" -> "frozenset({'(have-cheese)', '(have-dip)', '(movie-rewound)'})" [key=3,
action="(get-dip d10)
  ADD: (have-dip)
"];
"frozenset({'(have-cheese)', '(movie-rewound)'})" -> "frozenset({'(have-cheese)', '(have-dip)', '(movie-rewound)'})" [key=4,
action="(get-dip d5)
  ADD: (have-dip)
"];
"frozenset({'(have-cheese)', '(movie-rewound)'})" -> "frozenset({'(have-cheese)', '(have-dip)', '(movie-rewound)'})" [key=5,
action="(get-dip d4)
  ADD: (have-dip)
"];
"frozenset({'(have-cheese)', '(movie-rewound)'})" -> "frozenset({'(have-cheese)', '(have-dip)', '(movie-rewound)'})" [key=6,
action="(get-dip d2)
  ADD: (have-dip)
"];
"frozenset({'(have-cheese)', '(movie-rewound)'})" -> "frozenset({'(have-cheese)', '(have-dip)', '(movie-rewound)'})" [key=7,
action="(get-dip d7)
  ADD: (have-dip)
"];
"frozenset({'(have-cheese)', '(movie-rewound)'})" -> "frozenset({'(have-cheese)', '(have-dip)', '(movie-rewound)'})" [key=8,
action="(get-dip d1)
  ADD: (have-dip)
"];
"frozenset({'(have-cheese)', '(movie-rewound)'})" -> "frozenset({'(have-cheese)', '(have-dip)', '(movie-rewound)'})" [key=9,
action="(get-dip d3)
  ADD: (have-dip)
"];
"frozenset({'(have-cheese)', '(have-chips)', '(movie-rewound)'})" [id=17];
"frozenset({'(have-cheese)', '(movie-rewound)'})" -> "frozenset({'(have-cheese)', '(have-chips)', '(movie-rewound)'})" [key=0,
action="(get-chips c7)
  ADD: (have-chips)
"];
"frozenset({'(have-cheese)', '(movie-rewound)'})" -> "frozenset({'(have-cheese)', '(have-chips)', '(movie-rewound)'})" [key=1,
action="(get-chips c5)
  ADD: (have-chips)
"];
"frozenset({'(have-cheese)', '(movie-rewound)'})" -> "frozenset({'(have-cheese)', '(have-chips)', '(movie-rewound)'})" [key=2,
action="(get-chips c8)
  ADD: (have-chips)
"];
"frozenset({'(have-cheese)', '(movie-rewound)'})" -> "frozenset({'(have-cheese)', '(have-chips)', '(movie-rewound)'})" [key=3,
action="(get-chips c6)
  ADD: (have-chips)
"];
"frozenset({'(have-cheese)', '(movie-rewound)'})" -> "frozenset({'(have-cheese)', '(have-chips)', '(movie-rewound)'})" [key=4,
action="(get-chips c1)
  ADD: (have-chips)
"];
"frozenset({'(have-cheese)', '(movie-rewound)'})" -> "frozenset({'(have-cheese)', '(have-chips)', '(movie-rewound)'})" [key=5,
action="(get-chips c4)
  ADD: (have-chips)
"];
"frozenset({'(have-cheese)', '(movie-rewound)'})" -> "frozenset({'(have-cheese)', '(have-chips)', '(movie-rewound)'})" [key=6,
action="(get-chips c2)
  ADD: (have-chips)
"];
"frozenset({'(have-cheese)', '(movie-rewound)'})" -> "frozenset({'(have-cheese)', '(have-chips)', '(movie-rewound)'})" [key=7,
action="(get-chips c3)
  ADD: (have-chips)
"];
"frozenset({'(have-cheese)', '(movie-rewound)'})" -> "frozenset({'(have-cheese)', '(have-chips)', '(movie-rewound)'})" [key=8,
action="(get-chips c9)
  ADD: (have-chips)
"];
"frozenset({'(have-cheese)', '(movie-rewound)'})" -> "frozenset({'(have-cheese)', '(have-chips)', '(movie-rewound)'})" [key=9,
action="(get-chips c10)
  ADD: (have-chips)
"];
"frozenset({'(have-pop)', '(movie-rewound)'})" [id=10];
"frozenset({'(movie-rewound)'})" -> "frozenset({'(counter-at-zero)', '(movie-rewound)'})" [key=0,
action="(reset-counter)
  ADD: (counter-at-zero)
"];
"frozenset({'(movie-rewound)'})" -> "frozenset({'(have-dip)', '(movie-rewound)'})" [key=0,
action="(get-dip d9)
  ADD: (have-dip)
"];
"frozenset({'(movie-rewound)'})" -> "frozenset({'(have-dip)', '(movie-rewound)'})" [key=1,
action="(get-dip d6)
  ADD: (have-dip)
"];
"frozenset({'(movie-rewound)'})" -> "frozenset({'(have-dip)', '(movie-rewound)'})" [key=2,
action="(get-dip d8)
  ADD: (have-dip)
"];
"frozenset({'(movie-rewound)'})" -> "frozenset({'(have-dip)', '(movie-rewound)'})" [key=3,
action="(get-dip d10)
  ADD: (have-dip)
"];
"frozenset({'(movie-rewound)'})" -> "frozenset({'(have-dip)', '(movie-rewound)'})" [key=4,
action="(get-dip d5)
  ADD: (have-dip)
"];
"frozenset({'(movie-rewound)'})" -> "frozenset({'(have-dip)', '(movie-rewound)'})" [key=5,
action="(get-dip d4)
  ADD: (have-dip)
"];
"frozenset({'(movie-rewound)'})" -> "frozenset({'(have-dip)', '(movie-rewound)'})" [key=6,
action="(get-dip d2)
  ADD: (have-dip)
"];
"frozenset({'(movie-rewound)'})" -> "frozenset({'(have-dip)', '(movie-rewound)'})" [key=7,
action="(get-dip d7)
  ADD: (have-dip)
"];
"frozenset({'(movie-rewound)'})" -> "frozenset({'(have-dip)', '(movie-rewound)'})" [key=8,
action="(get-dip d1)
  ADD: (have-dip)
"];
"frozenset({'(movie-rewound)'})" -> "frozenset({'(have-dip)', '(movie-rewound)'})" [key=9,
action="(get-dip d3)
  ADD: (have-dip)
"];
"frozenset({'(movie-rewound)'})" -> "frozenset({'(have-crackers)', '(movie-rewound)'})" [key=0,
action="(get-crackers k6)
  ADD: (have-crackers)
"];
"frozenset({'(movie-rewound)'})" -> "frozenset({'(have-crackers)', '(movie-rewound)'})" [key=1,
action="(get-crackers k5)
  ADD: (have-crackers)
"];
"frozenset({'(movie-rewound)'})" -> "frozenset({'(have-crackers)', '(movie-rewound)'})" [key=2,
action="(get-crackers k3)
  ADD: (have-crackers)
"];
"frozenset({'(movie-rewound)'})" -> "frozenset({'(have-crackers)', '(movie-rewound)'})" [key=3,
action="(get-crackers k1)
  ADD: (have-crackers)
"];
"frozenset({'(movie-rewound)'})" -> "frozenset({'(have-crackers)', '(movie-rewound)'})" [key=4,
action="(get-crackers k2)
  ADD: (have-crackers)
"];
"frozenset({'(movie-rewound)'})" -> "frozenset({'(have-crackers)', '(movie-rewound)'})" [key=5,
action="(get-crackers k10)
  ADD: (have-crackers)
"];
"frozenset({'(movie-rewound)'})" -> "frozenset({'(have-crackers)', '(movie-rewound)'})" [key=6,
action="(get-crackers k8)
  ADD: (have-crackers)
"];
"frozenset({'(movie-rewound)'})" -> "frozenset({'(have-crackers)', '(movie-rewound)'})" [key=7,
action="(get-crackers k9)
  ADD: (have-crackers)
"];
"frozenset({'(movie-rewound)'})" -> "frozenset({'(have-crackers)', '(movie-rewound)'})" [key=8,
action="(get-crackers k4)
  ADD: (have-crackers)
"];
"frozenset({'(movie-rewound)'})" -> "frozenset({'(have-crackers)', '(movie-rewound)'})" [key=9,
action="(get-crackers k7)
  ADD: (have-crackers)
"];
"frozenset({'(movie-rewound)'})" -> "frozenset({'(have-cheese)', '(movie-rewound)'})" [key=0,
action="(get-cheese z3)
  ADD: (have-cheese)
"];
"frozenset({'(movie-rewound)'})" -> "frozenset({'(have-cheese)', '(movie-rewound)'})" [key=1,
action="(get-cheese z6)
  ADD: (have-cheese)
"];
"frozenset({'(movie-rewound)'})" -> "frozenset({'(have-cheese)', '(movie-rewound)'})" [key=2,
action="(get-cheese z9)
  ADD: (have-cheese)
"];
"frozenset({'(movie-rewound)'})" -> "frozenset({'(have-cheese)', '(movie-rewound)'})" [key=3,
action="(get-cheese z10)
  ADD: (have-cheese)
"];
"frozenset({'(movie-rewound)'})" -> "frozenset({'(have-cheese)', '(movie-rewound)'})" [key=4,
action="(get-cheese z4)
  ADD: (have-cheese)
"];
"frozenset({'(movie-rewound)'})" -> "frozenset({'(have-cheese)', '(movie-rewound)'})" [key=5,
action="(get-cheese z1)
  ADD: (have-cheese)
"];
"frozenset({'(movie-rewound)'})" -> "frozenset({'(have-cheese)', '(movie-rewound)'})" [key=6,
action="(get-cheese z8)
  ADD: (have-cheese)
"];
"frozenset({'(movie-rewound)'})" -> "frozenset({'(have-cheese)', '(movie-rewound)'})" [key=7,
action="(get-cheese z7)
  ADD: (have-cheese)
"];
"frozenset({'(movie-rewound)'})" -> "frozenset({'(have-cheese)', '(movie-rewound)'})" [key=8,
action="(get-cheese z5)
  ADD: (have-cheese)
"];
"frozenset({'(movie-rewound)'})" -> "frozenset({'(have-cheese)', '(movie-rewound)'})" [key=9,
action="(get-cheese z2)
  ADD: (have-cheese)
"];
"frozenset({'(movie-rewound)'})" -> "frozenset({'(have-pop)', '(movie-rewound)'})" [key=0,
action="(get-pop p6)
  ADD: (have-pop)
"];
"frozenset({'(movie-rewound)'})" -> "frozenset({'(have-pop)', '(movie-rewound)'})" [key=1,
action="(get-pop p3)
  ADD: (have-pop)
"];
"frozenset({'(movie-rewound)'})" -> "frozenset({'(have-pop)', '(movie-rewound)'})" [key=2,
action="(get-pop p8)
  ADD: (have-pop)
"];
"frozenset({'(movie-rewound)'})" -> "frozenset({'(have-pop)', '(movie-rewound)'})" [key=3,
action="(get-pop p2)
  ADD: (have-pop)
"];
"frozenset({'(movie-rewound)'})" -> "frozenset({'(have-pop)', '(movie-rewound)'})" [key=4,
action="(get-pop p9)
  ADD: (have-pop)
"];
"frozenset({'(movie-rewound)'})" -> "frozenset({'(have-pop)', '(movie-rewound)'})" [key=5,
action="(get-pop p1)
  ADD: (have-pop)
"];
"frozenset({'(movie-rewound)'})" -> "frozenset({'(have-pop)', '(movie-rewound)'})" [key=6,
action="(get-pop p7)
  ADD: (have-pop)
"];
"frozenset({'(movie-rewound)'})" -> "frozenset({'(have-pop)', '(movie-rewound)'})" [key=7,
action="(get-pop p5)
  ADD: (have-pop)
"];
"frozenset({'(movie-rewound)'})" -> "frozenset({'(have-pop)', '(movie-rewound)'})" [key=8,
action="(get-pop p4)
  ADD: (have-pop)
"];
"frozenset({'(movie-rewound)'})" -> "frozenset({'(have-pop)', '(movie-rewound)'})" [key=9,
action="(get-pop p10)
  ADD: (have-pop)
"];
"frozenset({'(movie-rewound)'})" -> "frozenset({'(movie-rewound)'})" [key=0,
action="(rewind-movie)
  ADD: (movie-rewound)
  DEL: (counter-at-zero)
"];
"frozenset({'(have-chips)', '(movie-rewound)'})" [id=12];
"frozenset({'(movie-rewound)'})" -> "frozenset({'(have-chips)', '(movie-rewound)'})" [key=0,
action="(get-chips c7)
  ADD: (have-chips)
"];
"frozenset({'(movie-rewound)'})" -> "frozenset({'(have-chips)', '(movie-rewound)'})" [key=1,
action="(get-chips c5)
  ADD: (have-chips)
"];
"frozenset({'(movie-rewound)'})" -> "frozenset({'(have-chips)', '(movie-rewound)'})" [key=2,
action="(get-chips c8)
  ADD: (have-chips)
"];
"frozenset({'(movie-rewound)'})" -> "frozenset({'(have-chips)', '(movie-rewound)'})" [key=3,
action="(get-chips c6)
  ADD: (have-chips)
"];
"frozenset({'(movie-rewound)'})" -> "frozenset({'(have-chips)', '(movie-rewound)'})" [key=4,
action="(get-chips c1)
  ADD: (have-chips)
"];
"frozenset({'(movie-rewound)'})" -> "frozenset({'(have-chips)', '(movie-rewound)'})" [key=5,
action="(get-chips c4)
  ADD: (have-chips)
"];
"frozenset({'(movie-rewound)'})" -> "frozenset({'(have-chips)', '(movie-rewound)'})" [key=6,
action="(get-chips c2)
  ADD: (have-chips)
"];
"frozenset({'(movie-rewound)'})" -> "frozenset({'(have-chips)', '(movie-rewound)'})" [key=7,
action="(get-chips c3)
  ADD: (have-chips)
"];
"frozenset({'(movie-rewound)'})" -> "frozenset({'(have-chips)', '(movie-rewound)'})" [key=8,
action="(get-chips c9)
  ADD: (have-chips)
"];
"frozenset({'(movie-rewound)'})" -> "frozenset({'(have-chips)', '(movie-rewound)'})" [key=9,
action="(get-chips c10)
  ADD: (have-chips)
"];
"frozenset({'(have-cheese)', '(have-crackers)', '(have-pop)', '(have-dip)', '(movie-rewound)'})" [id=23];
"frozenset({'(have-cheese)', '(have-crackers)', '(have-pop)', '(have-dip)', '(movie-rewound)'})" -> "frozenset({'(counter-at-zero)', '(have-pop)', '(movie-rewound)', '(have-cheese)', '(have-crackers)', '(have-dip)'})" [key=0,
action="(reset-counter)
  ADD: (counter-at-zero)
"];
"frozenset({'(have-pop)', '(movie-rewound)', '(have-cheese)', '(have-crackers)', '(have-chips)', '(have-dip)'})" [id=26];
"frozenset({'(have-cheese)', '(have-crackers)', '(have-pop)', '(have-dip)', '(movie-rewound)'})" -> "frozenset({'(have-pop)', '(movie-rewound)', '(have-cheese)', '(have-crackers)', '(have-chips)', '(have-dip)'})" [key=0,
action="(get-chips c7)
  ADD: (have-chips)
"];
"frozenset({'(have-cheese)', '(have-crackers)', '(have-pop)', '(have-dip)', '(movie-rewound)'})" -> "frozenset({'(have-pop)', '(movie-rewound)', '(have-cheese)', '(have-crackers)', '(have-chips)', '(have-dip)'})" [key=1,
action="(get-chips c5)
  ADD: (have-chips)
"];
"frozenset({'(have-cheese)', '(have-crackers)', '(have-pop)', '(have-dip)', '(movie-rewound)'})" -> "frozenset({'(have-pop)', '(movie-rewound)', '(have-cheese)', '(have-crackers)', '(have-chips)', '(have-dip)'})" [key=2,
action="(get-chips c8)
  ADD: (have-chips)
"];
"frozenset({'(have-cheese)', '(have-crackers)', '(have-pop)', '(have-dip)', '(movie-rewound)'})" -> "frozenset({'(have-pop)', '(movie-rewound)', '(have-cheese)', '(have-crackers)', '(have-chips)', '(have-dip)'})" [key=3,
action="(get-chips c6)
  ADD: (have-chips)
"];
"frozenset({'(have-cheese)', '(have-crackers)', '(have-pop)', '(have-dip)', '(movie-rewound)'})" -> "frozenset({'(have-pop)', '(movie-rewound)', '(have-cheese)', '(have-crackers)', '(have-chips)', '(have-dip)'})" [key=4,
action="(get-chips c1)
  ADD: (have-chips)
"];
"frozenset({'(have-cheese)', '(have-crackers)', '(have-pop)', '(have-dip)', '(movie-rewound)'})" -> "frozenset({'(have-pop)', '(movie-rewound)', '(have-cheese)', '(have-crackers)', '(have-chips)', '(have-dip)'})" [key=5,
action="(get-chips c4)
  ADD: (have-chips)
"];
"frozenset({'(have-cheese)', '(have-crackers)', '(have-pop)', '(have-dip)', '(movie-rewound)'})" -> "frozenset({'(have-pop)', '(movie-rewound)', '(have-cheese)', '(have-crackers)', '(have-chips)', '(have-dip)'})" [key=6,
action="(get-chips c2)
  ADD: (have-chips)
"];
"frozenset({'(have-cheese)', '(have-crackers)', '(have-pop)', '(have-dip)', '(movie-rewound)'})" -> "frozenset({'(have-pop)', '(movie-rewound)', '(have-cheese)', '(have-crackers)', '(have-chips)', '(have-dip)'})" [key=7,
action="(get-chips c3)
  ADD: (have-chips)
"];
"frozenset({'(have-cheese)', '(have-crackers)', '(have-pop)', '(have-dip)', '(movie-rewound)'})" -> "frozenset({'(have-pop)', '(movie-rewound)', '(have-cheese)', '(have-crackers)', '(have-chips)', '(have-dip)'})" [key=8,
action="(get-chips c9)
  ADD: (have-chips)
"];
"frozenset({'(have-cheese)', '(have-crackers)', '(have-pop)', '(have-dip)', '(movie-rewound)'})" -> "frozenset({'(have-pop)', '(movie-rewound)', '(have-cheese)', '(have-crackers)', '(have-chips)', '(have-dip)'})" [key=9,
action="(get-chips c10)
  ADD: (have-chips)
"];
"frozenset({'(have-cheese)', '(have-crackers)', '(have-pop)', '(have-dip)', '(movie-rewound)'})" -> "frozenset({'(have-pop)', '(movie-rewound)', '(have-cheese)', '(have-crackers)', '(have-dip)'})" [key=0,
action="(rewind-movie)
  ADD: (movie-rewound)
  DEL: (counter-at-zero)
"];
"frozenset({'(have-cheese)', '(have-crackers)', '(have-pop)', '(have-dip)', '(movie-rewound)'})" -> "frozenset({'(have-pop)', '(movie-rewound)', '(have-cheese)', '(have-crackers)', '(have-dip)'})" [key=1,
action="(get-cheese z3)
  ADD: (have-cheese)
"];
"frozenset({'(have-cheese)', '(have-crackers)', '(have-pop)', '(have-dip)', '(movie-rewound)'})" -> "frozenset({'(have-pop)', '(movie-rewound)', '(have-cheese)', '(have-crackers)', '(have-dip)'})" [key=2,
action="(get-cheese z6)
  ADD: (have-cheese)
"];
"frozenset({'(have-cheese)', '(have-crackers)', '(have-pop)', '(have-dip)', '(movie-rewound)'})" -> "frozenset({'(have-pop)', '(movie-rewound)', '(have-cheese)', '(have-crackers)', '(have-dip)'})" [key=3,
action="(get-cheese z9)
  ADD: (have-cheese)
"];
"frozenset({'(have-cheese)', '(have-crackers)', '(have-pop)', '(have-dip)', '(movie-rewound)'})" -> "frozenset({'(have-pop)', '(movie-rewound)', '(have-cheese)', '(have-crackers)', '(have-dip)'})" [key=4,
action="(get-cheese z10)
  ADD: (have-cheese)
"];
"frozenset({'(have-cheese)', '(have-crackers)', '(have-pop)', '(have-dip)', '(movie-rewound)'})" -> "frozenset({'(have-pop)', '(movie-rewound)', '(have-cheese)', '(have-crackers)', '(have-dip)'})" [key=5,
action="(get-cheese z4)
  ADD: (have-cheese)
"];
"frozenset({'(have-cheese)', '(have-crackers)', '(have-pop)', '(have-dip)', '(movie-rewound)'})" -> "frozenset({'(have-pop)', '(movie-rewound)', '(have-cheese)', '(have-crackers)', '(have-dip)'})" [key=6,
action="(get-cheese z1)
  ADD: (have-cheese)
"];
"frozenset({'(have-cheese)', '(have-crackers)', '(have-pop)', '(have-dip)', '(movie-rewound)'})" -> "frozenset({'(have-pop)', '(movie-rewound)', '(have-cheese)', '(have-crackers)', '(have-dip)'})" [key=7,
action="(get-cheese z8)
  ADD: (have-cheese)
"];
"frozenset({'(have-cheese)', '(have-crackers)', '(have-pop)', '(have-dip)', '(movie-rewound)'})" -> "frozenset({'(have-pop)', '(movie-rewound)', '(have-cheese)', '(have-crackers)', '(have-dip)'})" [key=8,
action="(get-cheese z7)
  ADD: (have-cheese)
"];
"frozenset({'(have-cheese)', '(have-crackers)', '(have-pop)', '(have-dip)', '(movie-rewound)'})" -> "frozenset({'(have-pop)', '(movie-rewound)', '(have-cheese)', '(have-crackers)', '(have-dip)'})" [key=9,
action="(get-cheese z5)
  ADD: (have-cheese)
"];
"frozenset({'(have-cheese)', '(have-crackers)', '(have-pop)', '(have-dip)', '(movie-rewound)'})" -> "frozenset({'(have-pop)', '(movie-rewound)', '(have-cheese)', '(have-crackers)', '(have-dip)'})" [key=10,
action="(get-cheese z2)
  ADD: (have-cheese)
"];
"frozenset({'(have-cheese)', '(have-crackers)', '(have-pop)', '(have-dip)', '(movie-rewound)'})" -> "frozenset({'(have-pop)', '(movie-rewound)', '(have-cheese)', '(have-crackers)', '(have-dip)'})" [key=11,
action="(get-dip d9)
  ADD: (have-dip)
"];
"frozenset({'(have-cheese)', '(have-crackers)', '(have-pop)', '(have-dip)', '(movie-rewound)'})" -> "frozenset({'(have-pop)', '(movie-rewound)', '(have-cheese)', '(have-crackers)', '(have-dip)'})" [key=12,
action="(get-dip d6)
  ADD: (have-dip)
"];
"frozenset({'(have-cheese)', '(have-crackers)', '(have-pop)', '(have-dip)', '(movie-rewound)'})" -> "frozenset({'(have-pop)', '(movie-rewound)', '(have-cheese)', '(have-crackers)', '(have-dip)'})" [key=13,
action="(get-dip d8)
  ADD: (have-dip)
"];
"frozenset({'(have-cheese)', '(have-crackers)', '(have-pop)', '(have-dip)', '(movie-rewound)'})" -> "frozenset({'(have-pop)', '(movie-rewound)', '(have-cheese)', '(have-crackers)', '(have-dip)'})" [key=14,
action="(get-dip d10)
  ADD: (have-dip)
"];
"frozenset({'(have-cheese)', '(have-crackers)', '(have-pop)', '(have-dip)', '(movie-rewound)'})" -> "frozenset({'(have-pop)', '(movie-rewound)', '(have-cheese)', '(have-crackers)', '(have-dip)'})" [key=15,
action="(get-dip d5)
  ADD: (have-dip)
"];
"frozenset({'(have-cheese)', '(have-crackers)', '(have-pop)', '(have-dip)', '(movie-rewound)'})" -> "frozenset({'(have-pop)', '(movie-rewound)', '(have-cheese)', '(have-crackers)', '(have-dip)'})" [key=16,
action="(get-dip d4)
  ADD: (have-dip)
"];
"frozenset({'(have-cheese)', '(have-crackers)', '(have-pop)', '(have-dip)', '(movie-rewound)'})" -> "frozenset({'(have-pop)', '(movie-rewound)', '(have-cheese)', '(have-crackers)', '(have-dip)'})" [key=17,
action="(get-dip d2)
  ADD: (have-dip)
"];
"frozenset({'(have-cheese)', '(have-crackers)', '(have-pop)', '(have-dip)', '(movie-rewound)'})" -> "frozenset({'(have-pop)', '(movie-rewound)', '(have-cheese)', '(have-crackers)', '(have-dip)'})" [key=18,
action="(get-dip d7)
  ADD: (have-dip)
"];
"frozenset({'(have-cheese)', '(have-crackers)', '(have-pop)', '(have-dip)', '(movie-rewound)'})" -> "frozenset({'(have-pop)', '(movie-rewound)', '(have-cheese)', '(have-crackers)', '(have-dip)'})" [key=19,
action="(get-dip d1)
  ADD: (have-dip)
"];
"frozenset({'(have-cheese)', '(have-crackers)', '(have-pop)', '(have-dip)', '(movie-rewound)'})" -> "frozenset({'(have-pop)', '(movie-rewound)', '(have-cheese)', '(have-crackers)', '(have-dip)'})" [key=20,
action="(get-dip d3)
  ADD: (have-dip)
"];
"frozenset({'(have-cheese)', '(have-crackers)', '(have-pop)', '(have-dip)', '(movie-rewound)'})" -> "frozenset({'(have-pop)', '(movie-rewound)', '(have-cheese)', '(have-crackers)', '(have-dip)'})" [key=21,
action="(get-pop p6)
  ADD: (have-pop)
"];
"frozenset({'(have-cheese)', '(have-crackers)', '(have-pop)', '(have-dip)', '(movie-rewound)'})" -> "frozenset({'(have-pop)', '(movie-rewound)', '(have-cheese)', '(have-crackers)', '(have-dip)'})" [key=22,
action="(get-pop p3)
  ADD: (have-pop)
"];
"frozenset({'(have-cheese)', '(have-crackers)', '(have-pop)', '(have-dip)', '(movie-rewound)'})" -> "frozenset({'(have-pop)', '(movie-rewound)', '(have-cheese)', '(have-crackers)', '(have-dip)'})" [key=23,
action="(get-pop p8)
  ADD: (have-pop)
"];
"frozenset({'(have-cheese)', '(have-crackers)', '(have-pop)', '(have-dip)', '(movie-rewound)'})" -> "frozenset({'(have-pop)', '(movie-rewound)', '(have-cheese)', '(have-crackers)', '(have-dip)'})" [key=24,
action="(get-pop p2)
  ADD: (have-pop)
"];
"frozenset({'(have-cheese)', '(have-crackers)', '(have-pop)', '(have-dip)', '(movie-rewound)'})" -> "frozenset({'(have-pop)', '(movie-rewound)', '(have-cheese)', '(have-crackers)', '(have-dip)'})" [key=25,
action="(get-pop p9)
  ADD: (have-pop)
"];
"frozenset({'(have-cheese)', '(have-crackers)', '(have-pop)', '(have-dip)', '(movie-rewound)'})" -> "frozenset({'(have-pop)', '(movie-rewound)', '(have-cheese)', '(have-crackers)', '(have-dip)'})" [key=26,
action="(get-pop p1)
  ADD: (have-pop)
"];
"frozenset({'(have-cheese)', '(have-crackers)', '(have-pop)', '(have-dip)', '(movie-rewound)'})" -> "frozenset({'(have-pop)', '(movie-rewound)', '(have-cheese)', '(have-crackers)', '(have-dip)'})" [key=27,
action="(get-pop p7)
  ADD: (have-pop)
"];
"frozenset({'(have-cheese)', '(have-crackers)', '(have-pop)', '(have-dip)', '(movie-rewound)'})" -> "frozenset({'(have-pop)', '(movie-rewound)', '(have-cheese)', '(have-crackers)', '(have-dip)'})" [key=28,
action="(get-pop p5)
  ADD: (have-pop)
"];
"frozenset({'(have-cheese)', '(have-crackers)', '(have-pop)', '(have-dip)', '(movie-rewound)'})" -> "frozenset({'(have-pop)', '(movie-rewound)', '(have-cheese)', '(have-crackers)', '(have-dip)'})" [key=29,
action="(get-pop p4)
  ADD: (have-pop)
"];
"frozenset({'(have-cheese)', '(have-crackers)', '(have-pop)', '(have-dip)', '(movie-rewound)'})" -> "frozenset({'(have-pop)', '(movie-rewound)', '(have-cheese)', '(have-crackers)', '(have-dip)'})" [key=30,
action="(get-pop p10)
  ADD: (have-pop)
"];
"frozenset({'(have-cheese)', '(have-crackers)', '(have-pop)', '(have-dip)', '(movie-rewound)'})" -> "frozenset({'(have-pop)', '(movie-rewound)', '(have-cheese)', '(have-crackers)', '(have-dip)'})" [key=31,
action="(get-crackers k6)
  ADD: (have-crackers)
"];
"frozenset({'(have-cheese)', '(have-crackers)', '(have-pop)', '(have-dip)', '(movie-rewound)'})" -> "frozenset({'(have-pop)', '(movie-rewound)', '(have-cheese)', '(have-crackers)', '(have-dip)'})" [key=32,
action="(get-crackers k5)
  ADD: (have-crackers)
"];
"frozenset({'(have-cheese)', '(have-crackers)', '(have-pop)', '(have-dip)', '(movie-rewound)'})" -> "frozenset({'(have-pop)', '(movie-rewound)', '(have-cheese)', '(have-crackers)', '(have-dip)'})" [key=33,
action="(get-crackers k3)
  ADD: (have-crackers)
"];
"frozenset({'(have-cheese)', '(have-crackers)', '(have-pop)', '(have-dip)', '(movie-rewound)'})" -> "frozenset({'(have-pop)', '(movie-rewound)', '(have-cheese)', '(have-crackers)', '(have-dip)'})" [key=34,
action="(get-crackers k1)
  ADD: (have-crackers)
"];
"frozenset({'(have-cheese)', '(have-crackers)', '(have-pop)', '(have-dip)', '(movie-rewound)'})" -> "frozenset({'(have-pop)', '(movie-rewound)', '(have-cheese)', '(have-crackers)', '(have-dip)'})" [key=35,
action="(get-crackers k2)
  ADD: (have-crackers)
"];
"frozenset({'(have-cheese)', '(have-crackers)', '(have-pop)', '(have-dip)', '(movie-rewound)'})" -> "frozenset({'(have-pop)', '(movie-rewound)', '(have-cheese)', '(have-crackers)', '(have-dip)'})" [key=36,
action="(get-crackers k10)
  ADD: (have-crackers)
"];
"frozenset({'(have-cheese)', '(have-crackers)', '(have-pop)', '(have-dip)', '(movie-rewound)'})" -> "frozenset({'(have-pop)', '(movie-rewound)', '(have-cheese)', '(have-crackers)', '(have-dip)'})" [key=37,
action="(get-crackers k8)
  ADD: (have-crackers)
"];
"frozenset({'(have-cheese)', '(have-crackers)', '(have-pop)', '(have-dip)', '(movie-rewound)'})" -> "frozenset({'(have-pop)', '(movie-rewound)', '(have-cheese)', '(have-crackers)', '(have-dip)'})" [key=38,
action="(get-crackers k9)
  ADD: (have-crackers)
"];
"frozenset({'(have-cheese)', '(have-crackers)', '(have-pop)', '(have-dip)', '(movie-rewound)'})" -> "frozenset({'(have-pop)', '(movie-rewound)', '(have-cheese)', '(have-crackers)', '(have-dip)'})" [key=39,
action="(get-crackers k4)
  ADD: (have-crackers)
"];
"frozenset({'(have-cheese)', '(have-crackers)', '(have-pop)', '(have-dip)', '(movie-rewound)'})" -> "frozenset({'(have-pop)', '(movie-rewound)', '(have-cheese)', '(have-crackers)', '(have-dip)'})" [key=40,
action="(get-crackers k7)
  ADD: (have-crackers)
"];
"frozenset({'(have-cheese)', '(have-pop)', '(have-dip)', '(movie-rewound)', '(counter-at-zero)'})" [id=25];
"frozenset({'(have-cheese)', '(have-crackers)', '(have-dip)', '(movie-rewound)'})" [id=20];
"frozenset({'(have-cheese)', '(have-chips)', '(have-dip)', '(movie-rewound)'})" [id=21];
"frozenset({'(counter-at-zero)', '(have-pop)', '(movie-rewound)', '(have-cheese)', '(have-crackers)', '(have-chips)', '(have-dip)'})" [id=28];
"frozenset({'(have-cheese)', '(have-dip)', '(movie-rewound)', '(counter-at-zero)'})" [id=22];
"frozenset({'(have-pop)', '(movie-rewound)', '(have-cheese)', '(have-crackers)', '(have-chips)', '(have-dip)'})" -> "frozenset({'(counter-at-zero)', '(have-pop)', '(movie-rewound)', '(have-cheese)', '(have-crackers)', '(have-chips)', '(have-dip)'})" [key=0,
action="(reset-counter)
  ADD: (counter-at-zero)
"];
"frozenset({'(have-pop)', '(movie-rewound)', '(have-cheese)', '(have-crackers)', '(have-chips)', '(have-dip)'})" -> "frozenset({'(have-cheese)', '(have-pop)', '(movie-rewound)', '(have-crackers)', '(have-chips)', '(have-dip)'})" [key=0,
action="(rewind-movie)
  ADD: (movie-rewound)
  DEL: (counter-at-zero)
"];
"frozenset({'(have-pop)', '(movie-rewound)', '(have-cheese)', '(have-crackers)', '(have-chips)', '(have-dip)'})" -> "frozenset({'(have-cheese)', '(have-pop)', '(movie-rewound)', '(have-crackers)', '(have-chips)', '(have-dip)'})" [key=1,
action="(get-cheese z3)
  ADD: (have-cheese)
"];
"frozenset({'(have-pop)', '(movie-rewound)', '(have-cheese)', '(have-crackers)', '(have-chips)', '(have-dip)'})" -> "frozenset({'(have-cheese)', '(have-pop)', '(movie-rewound)', '(have-crackers)', '(have-chips)', '(have-dip)'})" [key=2,
action="(get-cheese z6)
  ADD: (have-cheese)
"];
"frozenset({'(have-pop)', '(movie-rewound)', '(have-cheese)', '(have-crackers)', '(have-chips)', '(have-dip)'})" -> "frozenset({'(have-cheese)', '(have-pop)', '(movie-rewound)', '(have-crackers)', '(have-chips)', '(have-dip)'})" [key=3,
action="(get-cheese z9)
  ADD: (have-cheese)
"];
"frozenset({'(have-pop)', '(movie-rewound)', '(have-cheese)', '(have-crackers)', '(have-chips)', '(have-dip)'})" -> "frozenset({'(have-cheese)', '(have-pop)', '(movie-rewound)', '(have-crackers)', '(have-chips)', '(have-dip)'})" [key=4,
action="(get-cheese z10)
  ADD: (have-cheese)
"];
"frozenset({'(have-pop)', '(movie-rewound)', '(have-cheese)', '(have-crackers)', '(have-chips)', '(have-dip)'})" -> "frozenset({'(have-cheese)', '(have-pop)', '(movie-rewound)', '(have-crackers)', '(have-chips)', '(have-dip)'})" [key=5,
action="(get-cheese z4)
  ADD: (have-cheese)
"];
"frozenset({'(have-pop)', '(movie-rewound)', '(have-cheese)', '(have-crackers)', '(have-chips)', '(have-dip)'})" -> "frozenset({'(have-cheese)', '(have-pop)', '(movie-rewound)', '(have-crackers)', '(have-chips)', '(have-dip)'})" [key=6,
action="(get-cheese z1)
  ADD: (have-cheese)
"];
"frozenset({'(have-pop)', '(movie-rewound)', '(have-cheese)', '(have-crackers)', '(have-chips)', '(have-dip)'})" -> "frozenset({'(have-cheese)', '(have-pop)', '(movie-rewound)', '(have-crackers)', '(have-chips)', '(have-dip)'})" [key=7,
action="(get-cheese z8)
  ADD: (have-cheese)
"];
"frozenset({'(have-pop)', '(movie-rewound)', '(have-cheese)', '(have-crackers)', '(have-chips)', '(have-dip)'})" -> "frozenset({'(have-cheese)', '(have-pop)', '(movie-rewound)', '(have-crackers)', '(have-chips)', '(have-dip)'})" [key=8,
action="(get-cheese z7)
  ADD: (have-cheese)
"];
"frozenset({'(have-pop)', '(movie-rewound)', '(have-cheese)', '(have-crackers)', '(have-chips)', '(have-dip)'})" -> "frozenset({'(have-cheese)', '(have-pop)', '(movie-rewound)', '(have-crackers)', '(have-chips)', '(have-dip)'})" [key=9,
action="(get-cheese z5)
  ADD: (have-cheese)
"];
"frozenset({'(have-pop)', '(movie-rewound)', '(have-cheese)', '(have-crackers)', '(have-chips)', '(have-dip)'})" -> "frozenset({'(have-cheese)', '(have-pop)', '(movie-rewound)', '(have-crackers)', '(have-chips)', '(have-dip)'})" [key=10,
action="(get-cheese z2)
  ADD: (have-cheese)
"];
"frozenset({'(have-pop)', '(movie-rewound)', '(have-cheese)', '(have-crackers)', '(have-chips)', '(have-dip)'})" -> "frozenset({'(have-cheese)', '(have-pop)', '(movie-rewound)', '(have-crackers)', '(have-chips)', '(have-dip)'})" [key=11,
action="(get-dip d9)
  ADD: (have-dip)
"];
"frozenset({'(have-pop)', '(movie-rewound)', '(have-cheese)', '(have-crackers)', '(have-chips)', '(have-dip)'})" -> "frozenset({'(have-cheese)', '(have-pop)', '(movie-rewound)', '(have-crackers)', '(have-chips)', '(have-dip)'})" [key=12,
action="(get-dip d6)
  ADD: (have-dip)
"];
"frozenset({'(have-pop)', '(movie-rewound)', '(have-cheese)', '(have-crackers)', '(have-chips)', '(have-dip)'})" -> "frozenset({'(have-cheese)', '(have-pop)', '(movie-rewound)', '(have-crackers)', '(have-chips)', '(have-dip)'})" [key=13,
action="(get-dip d8)
  ADD: (have-dip)
"];
"frozenset({'(have-pop)', '(movie-rewound)', '(have-cheese)', '(have-crackers)', '(have-chips)', '(have-dip)'})" -> "frozenset({'(have-cheese)', '(have-pop)', '(movie-rewound)', '(have-crackers)', '(have-chips)', '(have-dip)'})" [key=14,
action="(get-dip d10)
  ADD: (have-dip)
"];
"frozenset({'(have-pop)', '(movie-rewound)', '(have-cheese)', '(have-crackers)', '(have-chips)', '(have-dip)'})" -> "frozenset({'(have-cheese)', '(have-pop)', '(movie-rewound)', '(have-crackers)', '(have-chips)', '(have-dip)'})" [key=15,
action="(get-dip d5)
  ADD: (have-dip)
"];
"frozenset({'(have-pop)', '(movie-rewound)', '(have-cheese)', '(have-crackers)', '(have-chips)', '(have-dip)'})" -> "frozenset({'(have-cheese)', '(have-pop)', '(movie-rewound)', '(have-crackers)', '(have-chips)', '(have-dip)'})" [key=16,
action="(get-dip d4)
  ADD: (have-dip)
"];
"frozenset({'(have-pop)', '(movie-rewound)', '(have-cheese)', '(have-crackers)', '(have-chips)', '(have-dip)'})" -> "frozenset({'(have-cheese)', '(have-pop)', '(movie-rewound)', '(have-crackers)', '(have-chips)', '(have-dip)'})" [key=17,
action="(get-dip d2)
  ADD: (have-dip)
"];
"frozenset({'(have-pop)', '(movie-rewound)', '(have-cheese)', '(have-crackers)', '(have-chips)', '(have-dip)'})" -> "frozenset({'(have-cheese)', '(have-pop)', '(movie-rewound)', '(have-crackers)', '(have-chips)', '(have-dip)'})" [key=18,
action="(get-dip d7)
  ADD: (have-dip)
"];
"frozenset({'(have-pop)', '(movie-rewound)', '(have-cheese)', '(have-crackers)', '(have-chips)', '(have-dip)'})" -> "frozenset({'(have-cheese)', '(have-pop)', '(movie-rewound)', '(have-crackers)', '(have-chips)', '(have-dip)'})" [key=19,
action="(get-dip d1)
  ADD: (have-dip)
"];
"frozenset({'(have-pop)', '(movie-rewound)', '(have-cheese)', '(have-crackers)', '(have-chips)', '(have-dip)'})" -> "frozenset({'(have-cheese)', '(have-pop)', '(movie-rewound)', '(have-crackers)', '(have-chips)', '(have-dip)'})" [key=20,
action="(get-dip d3)
  ADD: (have-dip)
"];
"frozenset({'(have-pop)', '(movie-rewound)', '(have-cheese)', '(have-crackers)', '(have-chips)', '(have-dip)'})" -> "frozenset({'(have-cheese)', '(have-pop)', '(movie-rewound)', '(have-crackers)', '(have-chips)', '(have-dip)'})" [key=21,
action="(get-pop p6)
  ADD: (have-pop)
"];
"frozenset({'(have-pop)', '(movie-rewound)', '(have-cheese)', '(have-crackers)', '(have-chips)', '(have-dip)'})" -> "frozenset({'(have-cheese)', '(have-pop)', '(movie-rewound)', '(have-crackers)', '(have-chips)', '(have-dip)'})" [key=22,
action="(get-pop p3)
  ADD: (have-pop)
"];
"frozenset({'(have-pop)', '(movie-rewound)', '(have-cheese)', '(have-crackers)', '(have-chips)', '(have-dip)'})" -> "frozenset({'(have-cheese)', '(have-pop)', '(movie-rewound)', '(have-crackers)', '(have-chips)', '(have-dip)'})" [key=23,
action="(get-pop p8)
  ADD: (have-pop)
"];
"frozenset({'(have-pop)', '(movie-rewound)', '(have-cheese)', '(have-crackers)', '(have-chips)', '(have-dip)'})" -> "frozenset({'(have-cheese)', '(have-pop)', '(movie-rewound)', '(have-crackers)', '(have-chips)', '(have-dip)'})" [key=24,
action="(get-pop p2)
  ADD: (have-pop)
"];
"frozenset({'(have-pop)', '(movie-rewound)', '(have-cheese)', '(have-crackers)', '(have-chips)', '(have-dip)'})" -> "frozenset({'(have-cheese)', '(have-pop)', '(movie-rewound)', '(have-crackers)', '(have-chips)', '(have-dip)'})" [key=25,
action="(get-pop p9)
  ADD: (have-pop)
"];
"frozenset({'(have-pop)', '(movie-rewound)', '(have-cheese)', '(have-crackers)', '(have-chips)', '(have-dip)'})" -> "frozenset({'(have-cheese)', '(have-pop)', '(movie-rewound)', '(have-crackers)', '(have-chips)', '(have-dip)'})" [key=26,
action="(get-pop p1)
  ADD: (have-pop)
"];
"frozenset({'(have-pop)', '(movie-rewound)', '(have-cheese)', '(have-crackers)', '(have-chips)', '(have-dip)'})" -> "frozenset({'(have-cheese)', '(have-pop)', '(movie-rewound)', '(have-crackers)', '(have-chips)', '(have-dip)'})" [key=27,
action="(get-pop p7)
  ADD: (have-pop)
"];
"frozenset({'(have-pop)', '(movie-rewound)', '(have-cheese)', '(have-crackers)', '(have-chips)', '(have-dip)'})" -> "frozenset({'(have-cheese)', '(have-pop)', '(movie-rewound)', '(have-crackers)', '(have-chips)', '(have-dip)'})" [key=28,
action="(get-pop p5)
  ADD: (have-pop)
"];
"frozenset({'(have-pop)', '(movie-rewound)', '(have-cheese)', '(have-crackers)', '(have-chips)', '(have-dip)'})" -> "frozenset({'(have-cheese)', '(have-pop)', '(movie-rewound)', '(have-crackers)', '(have-chips)', '(have-dip)'})" [key=29,
action="(get-pop p4)
  ADD: (have-pop)
"];
"frozenset({'(have-pop)', '(movie-rewound)', '(have-cheese)', '(have-crackers)', '(have-chips)', '(have-dip)'})" -> "frozenset({'(have-cheese)', '(have-pop)', '(movie-rewound)', '(have-crackers)', '(have-chips)', '(have-dip)'})" [key=30,
action="(get-pop p10)
  ADD: (have-pop)
"];
"frozenset({'(have-pop)', '(movie-rewound)', '(have-cheese)', '(have-crackers)', '(have-chips)', '(have-dip)'})" -> "frozenset({'(have-cheese)', '(have-pop)', '(movie-rewound)', '(have-crackers)', '(have-chips)', '(have-dip)'})" [key=31,
action="(get-crackers k6)
  ADD: (have-crackers)
"];
"frozenset({'(have-pop)', '(movie-rewound)', '(have-cheese)', '(have-crackers)', '(have-chips)', '(have-dip)'})" -> "frozenset({'(have-cheese)', '(have-pop)', '(movie-rewound)', '(have-crackers)', '(have-chips)', '(have-dip)'})" [key=32,
action="(get-crackers k5)
  ADD: (have-crackers)
"];
"frozenset({'(have-pop)', '(movie-rewound)', '(have-cheese)', '(have-crackers)', '(have-chips)', '(have-dip)'})" -> "frozenset({'(have-cheese)', '(have-pop)', '(movie-rewound)', '(have-crackers)', '(have-chips)', '(have-dip)'})" [key=33,
action="(get-crackers k3)
  ADD: (have-crackers)
"];
"frozenset({'(have-pop)', '(movie-rewound)', '(have-cheese)', '(have-crackers)', '(have-chips)', '(have-dip)'})" -> "frozenset({'(have-cheese)', '(have-pop)', '(movie-rewound)', '(have-crackers)', '(have-chips)', '(have-dip)'})" [key=34,
action="(get-crackers k1)
  ADD: (have-crackers)
"];
"frozenset({'(have-pop)', '(movie-rewound)', '(have-cheese)', '(have-crackers)', '(have-chips)', '(have-dip)'})" -> "frozenset({'(have-cheese)', '(have-pop)', '(movie-rewound)', '(have-crackers)', '(have-chips)', '(have-dip)'})" [key=35,
action="(get-crackers k2)
  ADD: (have-crackers)
"];
"frozenset({'(have-pop)', '(movie-rewound)', '(have-cheese)', '(have-crackers)', '(have-chips)', '(have-dip)'})" -> "frozenset({'(have-cheese)', '(have-pop)', '(movie-rewound)', '(have-crackers)', '(have-chips)', '(have-dip)'})" [key=36,
action="(get-crackers k10)
  ADD: (have-crackers)
"];
"frozenset({'(have-pop)', '(movie-rewound)', '(have-cheese)', '(have-crackers)', '(have-chips)', '(have-dip)'})" -> "frozenset({'(have-cheese)', '(have-pop)', '(movie-rewound)', '(have-crackers)', '(have-chips)', '(have-dip)'})" [key=37,
action="(get-crackers k8)
  ADD: (have-crackers)
"];
"frozenset({'(have-pop)', '(movie-rewound)', '(have-cheese)', '(have-crackers)', '(have-chips)', '(have-dip)'})" -> "frozenset({'(have-cheese)', '(have-pop)', '(movie-rewound)', '(have-crackers)', '(have-chips)', '(have-dip)'})" [key=38,
action="(get-crackers k9)
  ADD: (have-crackers)
"];
"frozenset({'(have-pop)', '(movie-rewound)', '(have-cheese)', '(have-crackers)', '(have-chips)', '(have-dip)'})" -> "frozenset({'(have-cheese)', '(have-pop)', '(movie-rewound)', '(have-crackers)', '(have-chips)', '(have-dip)'})" [key=39,
action="(get-crackers k4)
  ADD: (have-crackers)
"];
"frozenset({'(have-pop)', '(movie-rewound)', '(have-cheese)', '(have-crackers)', '(have-chips)', '(have-dip)'})" -> "frozenset({'(have-cheese)', '(have-pop)', '(movie-rewound)', '(have-crackers)', '(have-chips)', '(have-dip)'})" [key=40,
action="(get-crackers k7)
  ADD: (have-crackers)
"];
"frozenset({'(have-pop)', '(movie-rewound)', '(have-cheese)', '(have-crackers)', '(have-chips)', '(have-dip)'})" -> "frozenset({'(have-cheese)', '(have-pop)', '(movie-rewound)', '(have-crackers)', '(have-chips)', '(have-dip)'})" [key=41,
action="(get-chips c7)
  ADD: (have-chips)
"];
"frozenset({'(have-pop)', '(movie-rewound)', '(have-cheese)', '(have-crackers)', '(have-chips)', '(have-dip)'})" -> "frozenset({'(have-cheese)', '(have-pop)', '(movie-rewound)', '(have-crackers)', '(have-chips)', '(have-dip)'})" [key=42,
action="(get-chips c5)
  ADD: (have-chips)
"];
"frozenset({'(have-pop)', '(movie-rewound)', '(have-cheese)', '(have-crackers)', '(have-chips)', '(have-dip)'})" -> "frozenset({'(have-cheese)', '(have-pop)', '(movie-rewound)', '(have-crackers)', '(have-chips)', '(have-dip)'})" [key=43,
action="(get-chips c8)
  ADD: (have-chips)
"];
"frozenset({'(have-pop)', '(movie-rewound)', '(have-cheese)', '(have-crackers)', '(have-chips)', '(have-dip)'})" -> "frozenset({'(have-cheese)', '(have-pop)', '(movie-rewound)', '(have-crackers)', '(have-chips)', '(have-dip)'})" [key=44,
action="(get-chips c6)
  ADD: (have-chips)
"];
"frozenset({'(have-pop)', '(movie-rewound)', '(have-cheese)', '(have-crackers)', '(have-chips)', '(have-dip)'})" -> "frozenset({'(have-cheese)', '(have-pop)', '(movie-rewound)', '(have-crackers)', '(have-chips)', '(have-dip)'})" [key=45,
action="(get-chips c1)
  ADD: (have-chips)
"];
"frozenset({'(have-pop)', '(movie-rewound)', '(have-cheese)', '(have-crackers)', '(have-chips)', '(have-dip)'})" -> "frozenset({'(have-cheese)', '(have-pop)', '(movie-rewound)', '(have-crackers)', '(have-chips)', '(have-dip)'})" [key=46,
action="(get-chips c4)
  ADD: (have-chips)
"];
"frozenset({'(have-pop)', '(movie-rewound)', '(have-cheese)', '(have-crackers)', '(have-chips)', '(have-dip)'})" -> "frozenset({'(have-cheese)', '(have-pop)', '(movie-rewound)', '(have-crackers)', '(have-chips)', '(have-dip)'})" [key=47,
action="(get-chips c2)
  ADD: (have-chips)
"];
"frozenset({'(have-pop)', '(movie-rewound)', '(have-cheese)', '(have-crackers)', '(have-chips)', '(have-dip)'})" -> "frozenset({'(have-cheese)', '(have-pop)', '(movie-rewound)', '(have-crackers)', '(have-chips)', '(have-dip)'})" [key=48,
action="(get-chips c3)
  ADD: (have-chips)
"];
"frozenset({'(have-pop)', '(movie-rewound)', '(have-cheese)', '(have-crackers)', '(have-chips)', '(have-dip)'})" -> "frozenset({'(have-cheese)', '(have-pop)', '(movie-rewound)', '(have-crackers)', '(have-chips)', '(have-dip)'})" [key=49,
action="(get-chips c9)
  ADD: (have-chips)
"];
"frozenset({'(have-pop)', '(movie-rewound)', '(have-cheese)', '(have-crackers)', '(have-chips)', '(have-dip)'})" -> "frozenset({'(have-cheese)', '(have-pop)', '(movie-rewound)', '(have-crackers)', '(have-chips)', '(have-dip)'})" [key=50,
action="(get-chips c10)
  ADD: (have-chips)
"];
"frozenset({'(have-cheese)', '(have-chips)', '(have-pop)', '(have-dip)', '(movie-rewound)'})" [id=24];
"frozenset({'(have-cheese)', '(have-dip)', '(movie-rewound)'})" -> "frozenset({'(have-cheese)', '(have-crackers)', '(have-dip)', '(movie-rewound)'})" [key=0,
action="(get-crackers k6)
  ADD: (have-crackers)
"];
"frozenset({'(have-cheese)', '(have-dip)', '(movie-rewound)'})" -> "frozenset({'(have-cheese)', '(have-crackers)', '(have-dip)', '(movie-rewound)'})" [key=1,
action="(get-crackers k5)
  ADD: (have-crackers)
"];
"frozenset({'(have-cheese)', '(have-dip)', '(movie-rewound)'})" -> "frozenset({'(have-cheese)', '(have-crackers)', '(have-dip)', '(movie-rewound)'})" [key=2,
action="(get-crackers k3)
  ADD: (have-crackers)
"];
"frozenset({'(have-cheese)', '(have-dip)', '(movie-rewound)'})" -> "frozenset({'(have-cheese)', '(have-crackers)', '(have-dip)', '(movie-rewound)'})" [key=3,
action="(get-crackers k1)
  ADD: (have-crackers)
"];
"frozenset({'(have-cheese)', '(have-dip)', '(movie-rewound)'})" -> "frozenset({'(have-cheese)', '(have-crackers)', '(have-dip)', '(movie-rewound)'})" [key=4,
action="(get-crackers k2)
  ADD: (have-crackers)
"];
"frozenset({'(have-cheese)', '(have-dip)', '(movie-rewound)'})" -> "frozenset({'(have-cheese)', '(have-crackers)', '(have-dip)', '(movie-rewound)'})" [key=5,
action="(get-crackers k10)
  ADD: (have-crackers)
"];
"frozenset({'(have-cheese)', '(have-dip)', '(movie-rewound)'})" -> "frozenset({'(have-cheese)', '(have-crackers)', '(have-dip)', '(movie-rewound)'})" [key=6,
action="(get-crackers k8)
  ADD: (have-crackers)
"];
"frozenset({'(have-cheese)', '(have-dip)', '(movie-rewound)'})" -> "frozenset({'(have-cheese)', '(have-crackers)', '(have-dip)', '(movie-rewound)'})" [key=7,
action="(get-crackers k9)
  ADD: (have-crackers)
"];
"frozenset({'(have-cheese)', '(have-dip)', '(movie-rewound)'})" -> "frozenset({'(have-cheese)', '(have-crackers)', '(have-dip)', '(movie-rewound)'})" [key=8,
action="(get-crackers k4)
  ADD: (have-crackers)
"];
"frozenset({'(have-cheese)', '(have-dip)', '(movie-rewound)'})" -> "frozenset({'(have-cheese)', '(have-crackers)', '(have-dip)', '(movie-rewound)'})" [key=9,
action="(get-crackers k7)
  ADD: (have-crackers)
"];
"frozenset({'(have-cheese)', '(have-dip)', '(movie-rewound)'})" -> "frozenset({'(have-cheese)', '(have-chips)', '(have-dip)', '(movie-rewound)'})" [key=0,
action="(get-chips c7)
  ADD: (have-chips)
"];
"frozenset({'(have-cheese)', '(have-dip)', '(movie-rewound)'})" -> "frozenset({'(have-cheese)', '(have-chips)', '(have-dip)', '(movie-rewound)'})" [key=1,
action="(get-chips c5)
  ADD: (have-chips)
"];
"frozenset({'(have-cheese)', '(have-dip)', '(movie-rewound)'})" -> "frozenset({'(have-cheese)', '(have-chips)', '(have-dip)', '(movie-rewound)'})" [key=2,
action="(get-chips c8)
  ADD: (have-chips)
"];
"frozenset({'(have-cheese)', '(have-dip)', '(movie-rewound)'})" -> "frozenset({'(have-cheese)', '(have-chips)', '(have-dip)', '(movie-rewound)'})" [key=3,
action="(get-chips c6)
  ADD: (have-chips)
"];
"frozenset({'(have-cheese)', '(have-dip)', '(movie-rewound)'})" -> "frozenset({'(have-cheese)', '(have-chips)', '(have-dip)', '(movie-rewound)'})" [key=4,
action="(get-chips c1)
  ADD: (have-chips)
"];
"frozenset({'(have-cheese)', '(have-dip)', '(movie-rewound)'})" -> "frozenset({'(have-cheese)', '(have-chips)', '(have-dip)', '(movie-rewound)'})" [key=5,
action="(get-chips c4)
  ADD: (have-chips)
"];
"frozenset({'(have-cheese)', '(have-dip)', '(movie-rewound)'})" -> "frozenset({'(have-cheese)', '(have-chips)', '(have-dip)', '(movie-rewound)'})" [key=6,
action="(get-chips c2)
  ADD: (have-chips)
"];
"frozenset({'(have-cheese)', '(have-dip)', '(movie-rewound)'})" -> "frozenset({'(have-cheese)', '(have-chips)', '(have-dip)', '(movie-rewound)'})" [key=7,
action="(get-chips c3)
  ADD: (have-chips)
"];
"frozenset({'(have-cheese)', '(have-dip)', '(movie-rewound)'})" -> "frozenset({'(have-cheese)', '(have-chips)', '(have-dip)', '(movie-rewound)'})" [key=8,
action="(get-chips c9)
  ADD: (have-chips)
"];
"frozenset({'(have-cheese)', '(have-dip)', '(movie-rewound)'})" -> "frozenset({'(have-cheese)', '(have-chips)', '(have-dip)', '(movie-rewound)'})" [key=9,
action="(get-chips c10)
  ADD: (have-chips)
"];
"frozenset({'(have-cheese)', '(have-dip)', '(movie-rewound)'})" -> "frozenset({'(have-cheese)', '(have-dip)', '(movie-rewound)', '(counter-at-zero)'})" [key=0,
action="(reset-counter)
  ADD: (counter-at-zero)
"];
"frozenset({'(have-cheese)', '(have-dip)', '(movie-rewound)'})" -> "frozenset({'(have-cheese)', '(have-dip)', '(movie-rewound)'})" [key=0,
action="(rewind-movie)
  ADD: (movie-rewound)
  DEL: (counter-at-zero)
"];
"frozenset({'(have-cheese)', '(have-dip)', '(movie-rewound)'})" -> "frozenset({'(have-cheese)', '(have-dip)', '(movie-rewound)'})" [key=1,
action="(get-cheese z3)
  ADD: (have-cheese)
"];
"frozenset({'(have-cheese)', '(have-dip)', '(movie-rewound)'})" -> "frozenset({'(have-cheese)', '(have-dip)', '(movie-rewound)'})" [key=2,
action="(get-cheese z6)
  ADD: (have-cheese)
"];
"frozenset({'(have-cheese)', '(have-dip)', '(movie-rewound)'})" -> "frozenset({'(have-cheese)', '(have-dip)', '(movie-rewound)'})" [key=3,
action="(get-cheese z9)
  ADD: (have-cheese)
"];
"frozenset({'(have-cheese)', '(have-dip)', '(movie-rewound)'})" -> "frozenset({'(have-cheese)', '(have-dip)', '(movie-rewound)'})" [key=4,
action="(get-cheese z10)
  ADD: (have-cheese)
"];
"frozenset({'(have-cheese)', '(have-dip)', '(movie-rewound)'})" -> "frozenset({'(have-cheese)', '(have-dip)', '(movie-rewound)'})" [key=5,
action="(get-cheese z4)
  ADD: (have-cheese)
"];
"frozenset({'(have-cheese)', '(have-dip)', '(movie-rewound)'})" -> "frozenset({'(have-cheese)', '(have-dip)', '(movie-rewound)'})" [key=6,
action="(get-cheese z1)
  ADD: (have-cheese)
"];
"frozenset({'(have-cheese)', '(have-dip)', '(movie-rewound)'})" -> "frozenset({'(have-cheese)', '(have-dip)', '(movie-rewound)'})" [key=7,
action="(get-cheese z8)
  ADD: (have-cheese)
"];
"frozenset({'(have-cheese)', '(have-dip)', '(movie-rewound)'})" -> "frozenset({'(have-cheese)', '(have-dip)', '(movie-rewound)'})" [key=8,
action="(get-cheese z7)
  ADD: (have-cheese)
"];
"frozenset({'(have-cheese)', '(have-dip)', '(movie-rewound)'})" -> "frozenset({'(have-cheese)', '(have-dip)', '(movie-rewound)'})" [key=9,
action="(get-cheese z5)
  ADD: (have-cheese)
"];
"frozenset({'(have-cheese)', '(have-dip)', '(movie-rewound)'})" -> "frozenset({'(have-cheese)', '(have-dip)', '(movie-rewound)'})" [key=10,
action="(get-cheese z2)
  ADD: (have-cheese)
"];
"frozenset({'(have-cheese)', '(have-dip)', '(movie-rewound)'})" -> "frozenset({'(have-cheese)', '(have-dip)', '(movie-rewound)'})" [key=11,
action="(get-dip d9)
  ADD: (have-dip)
"];
"frozenset({'(have-cheese)', '(have-dip)', '(movie-rewound)'})" -> "frozenset({'(have-cheese)', '(have-dip)', '(movie-rewound)'})" [key=12,
action="(get-dip d6)
  ADD: (have-dip)
"];
"frozenset({'(have-cheese)', '(have-dip)', '(movie-rewound)'})" -> "frozenset({'(have-cheese)', '(have-dip)', '(movie-rewound)'})" [key=13,
action="(get-dip d8)
  ADD: (have-dip)
"];
"frozenset({'(have-cheese)', '(have-dip)', '(movie-rewound)'})" -> "frozenset({'(have-cheese)', '(have-dip)', '(movie-rewound)'})" [key=14,
action="(get-dip d10)
  ADD: (have-dip)
"];
"frozenset({'(have-cheese)', '(have-dip)', '(movie-rewound)'})" -> "frozenset({'(have-cheese)', '(have-dip)', '(movie-rewound)'})" [key=15,
action="(get-dip d5)
  ADD: (have-dip)
"];
"frozenset({'(have-cheese)', '(have-dip)', '(movie-rewound)'})" -> "frozenset({'(have-cheese)', '(have-dip)', '(movie-rewound)'})" [key=16,
action="(get-dip d4)
  ADD: (have-dip)
"];
"frozenset({'(have-cheese)', '(have-dip)', '(movie-rewound)'})" -> "frozenset({'(have-cheese)', '(have-dip)', '(movie-rewound)'})" [key=17,
action="(get-dip d2)
  ADD: (have-dip)
"];
"frozenset({'(have-cheese)', '(have-dip)', '(movie-rewound)'})" -> "frozenset({'(have-cheese)', '(have-dip)', '(movie-rewound)'})" [key=18,
action="(get-dip d7)
  ADD: (have-dip)
"];
"frozenset({'(have-cheese)', '(have-dip)', '(movie-rewound)'})" -> "frozenset({'(have-cheese)', '(have-dip)', '(movie-rewound)'})" [key=19,
action="(get-dip d1)
  ADD: (have-dip)
"];
"frozenset({'(have-cheese)', '(have-dip)', '(movie-rewound)'})" -> "frozenset({'(have-cheese)', '(have-dip)', '(movie-rewound)'})" [key=20,
action="(get-dip d3)
  ADD: (have-dip)
"];
"frozenset({'(have-cheese)', '(have-pop)', '(have-dip)', '(movie-rewound)'})" [id=19];
"frozenset({'(have-cheese)', '(have-dip)', '(movie-rewound)'})" -> "frozenset({'(have-cheese)', '(have-pop)', '(have-dip)', '(movie-rewound)'})" [key=0,
action="(get-pop p6)
  ADD: (have-pop)
"];
"frozenset({'(have-cheese)', '(have-dip)', '(movie-rewound)'})" -> "frozenset({'(have-cheese)', '(have-pop)', '(have-dip)', '(movie-rewound)'})" [key=1,
action="(get-pop p3)
  ADD: (have-pop)
"];
"frozenset({'(have-cheese)', '(have-dip)', '(movie-rewound)'})" -> "frozenset({'(have-cheese)', '(have-pop)', '(have-dip)', '(movie-rewound)'})" [key=2,
action="(get-pop p8)
  ADD: (have-pop)
"];
"frozenset({'(have-cheese)', '(have-dip)', '(movie-rewound)'})" -> "frozenset({'(have-cheese)', '(have-pop)', '(have-dip)', '(movie-rewound)'})" [key=3,
action="(get-pop p2)
  ADD: (have-pop)
"];
"frozenset({'(have-cheese)', '(have-dip)', '(movie-rewound)'})" -> "frozenset({'(have-cheese)', '(have-pop)', '(have-dip)', '(movie-rewound)'})" [key=4,
action="(get-pop p9)
  ADD: (have-pop)
"];
"frozenset({'(have-cheese)', '(have-dip)', '(movie-rewound)'})" -> "frozenset({'(have-cheese)', '(have-pop)', '(have-dip)', '(movie-rewound)'})" [key=5,
action="(get-pop p1)
  ADD: (have-pop)
"];
"frozenset({'(have-cheese)', '(have-dip)', '(movie-rewound)'})" -> "frozenset({'(have-cheese)', '(have-pop)', '(have-dip)', '(movie-rewound)'})" [key=6,
action="(get-pop p7)
  ADD: (have-pop)
"];
"frozenset({'(have-cheese)', '(have-dip)', '(movie-rewound)'})" -> "frozenset({'(have-cheese)', '(have-pop)', '(have-dip)', '(movie-rewound)'})" [key=7,
action="(get-pop p5)
  ADD: (have-pop)
"];
"frozenset({'(have-cheese)', '(have-dip)', '(movie-rewound)'})" -> "frozenset({'(have-cheese)', '(have-pop)', '(have-dip)', '(movie-rewound)'})" [key=8,
action="(get-pop p4)
  ADD: (have-pop)
"];
"frozenset({'(have-cheese)', '(have-dip)', '(movie-rewound)'})" -> "frozenset({'(have-cheese)', '(have-pop)', '(have-dip)', '(movie-rewound)'})" [key=9,
action="(get-pop p10)
  ADD: (have-pop)
"];
"frozenset({'(have-cheese)', '(have-pop)', '(have-dip)', '(movie-rewound)'})" -> "frozenset({'(have-cheese)', '(have-crackers)', '(have-pop)', '(have-dip)', '(movie-rewound)'})" [key=0,
action="(get-crackers k6)
  ADD: (have-crackers)
"];
"frozenset({'(have-cheese)', '(have-pop)', '(have-dip)', '(movie-rewound)'})" -> "frozenset({'(have-cheese)', '(have-crackers)', '(have-pop)', '(have-dip)', '(movie-rewound)'})" [key=1,
action="(get-crackers k5)
  ADD: (have-crackers)
"];
"frozenset({'(have-cheese)', '(have-pop)', '(have-dip)', '(movie-rewound)'})" -> "frozenset({'(have-cheese)', '(have-crackers)', '(have-pop)', '(have-dip)', '(movie-rewound)'})" [key=2,
action="(get-crackers k3)
  ADD: (have-crackers)
"];
"frozenset({'(have-cheese)', '(have-pop)', '(have-dip)', '(movie-rewound)'})" -> "frozenset({'(have-cheese)', '(have-crackers)', '(have-pop)', '(have-dip)', '(movie-rewound)'})" [key=3,
action="(get-crackers k1)
  ADD: (have-crackers)
"];
"frozenset({'(have-cheese)', '(have-pop)', '(have-dip)', '(movie-rewound)'})" -> "frozenset({'(have-cheese)', '(have-crackers)', '(have-pop)', '(have-dip)', '(movie-rewound)'})" [key=4,
action="(get-crackers k2)
  ADD: (have-crackers)
"];
"frozenset({'(have-cheese)', '(have-pop)', '(have-dip)', '(movie-rewound)'})" -> "frozenset({'(have-cheese)', '(have-crackers)', '(have-pop)', '(have-dip)', '(movie-rewound)'})" [key=5,
action="(get-crackers k10)
  ADD: (have-crackers)
"];
"frozenset({'(have-cheese)', '(have-pop)', '(have-dip)', '(movie-rewound)'})" -> "frozenset({'(have-cheese)', '(have-crackers)', '(have-pop)', '(have-dip)', '(movie-rewound)'})" [key=6,
action="(get-crackers k8)
  ADD: (have-crackers)
"];
"frozenset({'(have-cheese)', '(have-pop)', '(have-dip)', '(movie-rewound)'})" -> "frozenset({'(have-cheese)', '(have-crackers)', '(have-pop)', '(have-dip)', '(movie-rewound)'})" [key=7,
action="(get-crackers k9)
  ADD: (have-crackers)
"];
"frozenset({'(have-cheese)', '(have-pop)', '(have-dip)', '(movie-rewound)'})" -> "frozenset({'(have-cheese)', '(have-crackers)', '(have-pop)', '(have-dip)', '(movie-rewound)'})" [key=8,
action="(get-crackers k4)
  ADD: (have-crackers)
"];
"frozenset({'(have-cheese)', '(have-pop)', '(have-dip)', '(movie-rewound)'})" -> "frozenset({'(have-cheese)', '(have-crackers)', '(have-pop)', '(have-dip)', '(movie-rewound)'})" [key=9,
action="(get-crackers k7)
  ADD: (have-crackers)
"];
"frozenset({'(have-cheese)', '(have-pop)', '(have-dip)', '(movie-rewound)'})" -> "frozenset({'(have-cheese)', '(have-pop)', '(have-dip)', '(movie-rewound)', '(counter-at-zero)'})" [key=0,
action="(reset-counter)
  ADD: (counter-at-zero)
"];
"frozenset({'(have-cheese)', '(have-pop)', '(have-dip)', '(movie-rewound)'})" -> "frozenset({'(have-cheese)', '(have-chips)', '(have-pop)', '(have-dip)', '(movie-rewound)'})" [key=0,
action="(get-chips c7)
  ADD: (have-chips)
"];
"frozenset({'(have-cheese)', '(have-pop)', '(have-dip)', '(movie-rewound)'})" -> "frozenset({'(have-cheese)', '(have-chips)', '(have-pop)', '(have-dip)', '(movie-rewound)'})" [key=1,
action="(get-chips c5)
  ADD: (have-chips)
"];
"frozenset({'(have-cheese)', '(have-pop)', '(have-dip)', '(movie-rewound)'})" -> "frozenset({'(have-cheese)', '(have-chips)', '(have-pop)', '(have-dip)', '(movie-rewound)'})" [key=2,
action="(get-chips c8)
  ADD: (have-chips)
"];
"frozenset({'(have-cheese)', '(have-pop)', '(have-dip)', '(movie-rewound)'})" -> "frozenset({'(have-cheese)', '(have-chips)', '(have-pop)', '(have-dip)', '(movie-rewound)'})" [key=3,
action="(get-chips c6)
  ADD: (have-chips)
"];
"frozenset({'(have-cheese)', '(have-pop)', '(have-dip)', '(movie-rewound)'})" -> "frozenset({'(have-cheese)', '(have-chips)', '(have-pop)', '(have-dip)', '(movie-rewound)'})" [key=4,
action="(get-chips c1)
  ADD: (have-chips)
"];
"frozenset({'(have-cheese)', '(have-pop)', '(have-dip)', '(movie-rewound)'})" -> "frozenset({'(have-cheese)', '(have-chips)', '(have-pop)', '(have-dip)', '(movie-rewound)'})" [key=5,
action="(get-chips c4)
  ADD: (have-chips)
"];
"frozenset({'(have-cheese)', '(have-pop)', '(have-dip)', '(movie-rewound)'})" -> "frozenset({'(have-cheese)', '(have-chips)', '(have-pop)', '(have-dip)', '(movie-rewound)'})" [key=6,
action="(get-chips c2)
  ADD: (have-chips)
"];
"frozenset({'(have-cheese)', '(have-pop)', '(have-dip)', '(movie-rewound)'})" -> "frozenset({'(have-cheese)', '(have-chips)', '(have-pop)', '(have-dip)', '(movie-rewound)'})" [key=7,
action="(get-chips c3)
  ADD: (have-chips)
"];
"frozenset({'(have-cheese)', '(have-pop)', '(have-dip)', '(movie-rewound)'})" -> "frozenset({'(have-cheese)', '(have-chips)', '(have-pop)', '(have-dip)', '(movie-rewound)'})" [key=8,
action="(get-chips c9)
  ADD: (have-chips)
"];
"frozenset({'(have-cheese)', '(have-pop)', '(have-dip)', '(movie-rewound)'})" -> "frozenset({'(have-cheese)', '(have-chips)', '(have-pop)', '(have-dip)', '(movie-rewound)'})" [key=9,
action="(get-chips c10)
  ADD: (have-chips)
"];
"frozenset({'(have-cheese)', '(have-pop)', '(have-dip)', '(movie-rewound)'})" -> "frozenset({'(have-cheese)', '(have-pop)', '(have-dip)', '(movie-rewound)'})" [key=0,
action="(rewind-movie)
  ADD: (movie-rewound)
  DEL: (counter-at-zero)
"];
"frozenset({'(have-cheese)', '(have-pop)', '(have-dip)', '(movie-rewound)'})" -> "frozenset({'(have-cheese)', '(have-pop)', '(have-dip)', '(movie-rewound)'})" [key=1,
action="(get-cheese z3)
  ADD: (have-cheese)
"];
"frozenset({'(have-cheese)', '(have-pop)', '(have-dip)', '(movie-rewound)'})" -> "frozenset({'(have-cheese)', '(have-pop)', '(have-dip)', '(movie-rewound)'})" [key=2,
action="(get-cheese z6)
  ADD: (have-cheese)
"];
"frozenset({'(have-cheese)', '(have-pop)', '(have-dip)', '(movie-rewound)'})" -> "frozenset({'(have-cheese)', '(have-pop)', '(have-dip)', '(movie-rewound)'})" [key=3,
action="(get-cheese z9)
  ADD: (have-cheese)
"];
"frozenset({'(have-cheese)', '(have-pop)', '(have-dip)', '(movie-rewound)'})" -> "frozenset({'(have-cheese)', '(have-pop)', '(have-dip)', '(movie-rewound)'})" [key=4,
action="(get-cheese z10)
  ADD: (have-cheese)
"];
"frozenset({'(have-cheese)', '(have-pop)', '(have-dip)', '(movie-rewound)'})" -> "frozenset({'(have-cheese)', '(have-pop)', '(have-dip)', '(movie-rewound)'})" [key=5,
action="(get-cheese z4)
  ADD: (have-cheese)
"];
"frozenset({'(have-cheese)', '(have-pop)', '(have-dip)', '(movie-rewound)'})" -> "frozenset({'(have-cheese)', '(have-pop)', '(have-dip)', '(movie-rewound)'})" [key=6,
action="(get-cheese z1)
  ADD: (have-cheese)
"];
"frozenset({'(have-cheese)', '(have-pop)', '(have-dip)', '(movie-rewound)'})" -> "frozenset({'(have-cheese)', '(have-pop)', '(have-dip)', '(movie-rewound)'})" [key=7,
action="(get-cheese z8)
  ADD: (have-cheese)
"];
"frozenset({'(have-cheese)', '(have-pop)', '(have-dip)', '(movie-rewound)'})" -> "frozenset({'(have-cheese)', '(have-pop)', '(have-dip)', '(movie-rewound)'})" [key=8,
action="(get-cheese z7)
  ADD: (have-cheese)
"];
"frozenset({'(have-cheese)', '(have-pop)', '(have-dip)', '(movie-rewound)'})" -> "frozenset({'(have-cheese)', '(have-pop)', '(have-dip)', '(movie-rewound)'})" [key=9,
action="(get-cheese z5)
  ADD: (have-cheese)
"];
"frozenset({'(have-cheese)', '(have-pop)', '(have-dip)', '(movie-rewound)'})" -> "frozenset({'(have-cheese)', '(have-pop)', '(have-dip)', '(movie-rewound)'})" [key=10,
action="(get-cheese z2)
  ADD: (have-cheese)
"];
"frozenset({'(have-cheese)', '(have-pop)', '(have-dip)', '(movie-rewound)'})" -> "frozenset({'(have-cheese)', '(have-pop)', '(have-dip)', '(movie-rewound)'})" [key=11,
action="(get-dip d9)
  ADD: (have-dip)
"];
"frozenset({'(have-cheese)', '(have-pop)', '(have-dip)', '(movie-rewound)'})" -> "frozenset({'(have-cheese)', '(have-pop)', '(have-dip)', '(movie-rewound)'})" [key=12,
action="(get-dip d6)
  ADD: (have-dip)
"];
"frozenset({'(have-cheese)', '(have-pop)', '(have-dip)', '(movie-rewound)'})" -> "frozenset({'(have-cheese)', '(have-pop)', '(have-dip)', '(movie-rewound)'})" [key=13,
action="(get-dip d8)
  ADD: (have-dip)
"];
"frozenset({'(have-cheese)', '(have-pop)', '(have-dip)', '(movie-rewound)'})" -> "frozenset({'(have-cheese)', '(have-pop)', '(have-dip)', '(movie-rewound)'})" [key=14,
action="(get-dip d10)
  ADD: (have-dip)
"];
"frozenset({'(have-cheese)', '(have-pop)', '(have-dip)', '(movie-rewound)'})" -> "frozenset({'(have-cheese)', '(have-pop)', '(have-dip)', '(movie-rewound)'})" [key=15,
action="(get-dip d5)
  ADD: (have-dip)
"];
"frozenset({'(have-cheese)', '(have-pop)', '(have-dip)', '(movie-rewound)'})" -> "frozenset({'(have-cheese)', '(have-pop)', '(have-dip)', '(movie-rewound)'})" [key=16,
action="(get-dip d4)
  ADD: (have-dip)
"];
"frozenset({'(have-cheese)', '(have-pop)', '(have-dip)', '(movie-rewound)'})" -> "frozenset({'(have-cheese)', '(have-pop)', '(have-dip)', '(movie-rewound)'})" [key=17,
action="(get-dip d2)
  ADD: (have-dip)
"];
"frozenset({'(have-cheese)', '(have-pop)', '(have-dip)', '(movie-rewound)'})" -> "frozenset({'(have-cheese)', '(have-pop)', '(have-dip)', '(movie-rewound)'})" [key=18,
action="(get-dip d7)
  ADD: (have-dip)
"];
"frozenset({'(have-cheese)', '(have-pop)', '(have-dip)', '(movie-rewound)'})" -> "frozenset({'(have-cheese)', '(have-pop)', '(have-dip)', '(movie-rewound)'})" [key=19,
action="(get-dip d1)
  ADD: (have-dip)
"];
"frozenset({'(have-cheese)', '(have-pop)', '(have-dip)', '(movie-rewound)'})" -> "frozenset({'(have-cheese)', '(have-pop)', '(have-dip)', '(movie-rewound)'})" [key=20,
action="(get-dip d3)
  ADD: (have-dip)
"];
"frozenset({'(have-cheese)', '(have-pop)', '(have-dip)', '(movie-rewound)'})" -> "frozenset({'(have-cheese)', '(have-pop)', '(have-dip)', '(movie-rewound)'})" [key=21,
action="(get-pop p6)
  ADD: (have-pop)
"];
"frozenset({'(have-cheese)', '(have-pop)', '(have-dip)', '(movie-rewound)'})" -> "frozenset({'(have-cheese)', '(have-pop)', '(have-dip)', '(movie-rewound)'})" [key=22,
action="(get-pop p3)
  ADD: (have-pop)
"];
"frozenset({'(have-cheese)', '(have-pop)', '(have-dip)', '(movie-rewound)'})" -> "frozenset({'(have-cheese)', '(have-pop)', '(have-dip)', '(movie-rewound)'})" [key=23,
action="(get-pop p8)
  ADD: (have-pop)
"];
"frozenset({'(have-cheese)', '(have-pop)', '(have-dip)', '(movie-rewound)'})" -> "frozenset({'(have-cheese)', '(have-pop)', '(have-dip)', '(movie-rewound)'})" [key=24,
action="(get-pop p2)
  ADD: (have-pop)
"];
"frozenset({'(have-cheese)', '(have-pop)', '(have-dip)', '(movie-rewound)'})" -> "frozenset({'(have-cheese)', '(have-pop)', '(have-dip)', '(movie-rewound)'})" [key=25,
action="(get-pop p9)
  ADD: (have-pop)
"];
"frozenset({'(have-cheese)', '(have-pop)', '(have-dip)', '(movie-rewound)'})" -> "frozenset({'(have-cheese)', '(have-pop)', '(have-dip)', '(movie-rewound)'})" [key=26,
action="(get-pop p1)
  ADD: (have-pop)
"];
"frozenset({'(have-cheese)', '(have-pop)', '(have-dip)', '(movie-rewound)'})" -> "frozenset({'(have-cheese)', '(have-pop)', '(have-dip)', '(movie-rewound)'})" [key=27,
action="(get-pop p7)
  ADD: (have-pop)
"];
"frozenset({'(have-cheese)', '(have-pop)', '(have-dip)', '(movie-rewound)'})" -> "frozenset({'(have-cheese)', '(have-pop)', '(have-dip)', '(movie-rewound)'})" [key=28,
action="(get-pop p5)
  ADD: (have-pop)
"];
"frozenset({'(have-cheese)', '(have-pop)', '(have-dip)', '(movie-rewound)'})" -> "frozenset({'(have-cheese)', '(have-pop)', '(have-dip)', '(movie-rewound)'})" [key=29,
action="(get-pop p4)
  ADD: (have-pop)
"];
"frozenset({'(have-cheese)', '(have-pop)', '(have-dip)', '(movie-rewound)'})" -> "frozenset({'(have-cheese)', '(have-pop)', '(have-dip)', '(movie-rewound)'})" [key=30,
action="(get-pop p10)
  ADD: (have-pop)
"];
}
